{
  "board": {
    "3dviewports": [],
    "design_settings": {
      "defaults": {
        "apply_defaults_to_fp_fields": false,
        "apply_defaults_to_fp_shapes": false,
        "apply_defaults_to_fp_text": false,
        "board_outline_line_width": 0.254,
        "copper_line_width": 0.254,
        "copper_text_italic": false,
        "copper_text_size_h": 1.5,
        "copper_text_size_v": 1.5,
        "copper_text_thickness": 0.3,
        "copper_text_upright": false,
        "courtyard_line_width": 0.05,
        "dimension_precision": 4,
        "dimension_units": 3,
        "dimensions": {
          "arrow_length": 1270000,
          "extension_offset": 500000,
          "keep_text_aligned": true,
          "suppress_zeroes": false,
          "text_position": 0,
          "units_format": 1
        },
        "fab_line_width": 0.1,
        "fab_text_italic": false,
        "fab_text_size_h": 1.0,
        "fab_text_size_v": 1.0,
        "fab_text_thickness": 0.15,
        "fab_text_upright": false,
        "other_line_width": 0.15,
        "other_text_italic": false,
        "other_text_size_h": 1.0,
        "other_text_size_v": 1.0,
        "other_text_thickness": 0.15,
        "other_text_upright": false,
        "pads": {
          "drill": 3.0,
          "height": 3.0,
          "width": 3.0
        },
        "silk_line_width": 0.254,
        "silk_text_italic": false,
        "silk_text_size_h": 1.0,
        "silk_text_size_v": 1.0,
        "silk_text_thickness": 0.254,
        "silk_text_upright": false,
        "zones": {
          "min_clearance": 0.5
        }
      },
      "diff_pair_dimensions": [
        {
          "gap": 0.0,
          "via_gap": 0.0,
          "width": 0.0
        }
      ],
      "drc_exclusions": [],
      "meta": {
        "version": 2
      },
      "rule_severities": {
        "annular_width": "error",
        "clearance": "error",
        "connection_width": "warning",
        "copper_edge_clearance": "error",
        "copper_sliver": "warning",
        "courtyards_overlap": "error",
        "diff_pair_gap_out_of_range": "error",
        "diff_pair_uncoupled_length_too_long": "error",
        "drill_out_of_range": "error",
        "duplicate_footprints": "warning",
        "extra_footprint": "warning",
        "footprint": "error",
        "footprint_symbol_mismatch": "warning",
        "footprint_type_mismatch": "warning",
        "hole_clearance": "error",
        "hole_near_hole": "error",
        "holes_co_located": "warning",
        "invalid_outline": "error",
        "isolated_copper": "warning",
        "item_on_disabled_layer": "error",
        "items_not_allowed": "error",
        "length_out_of_range": "error",
        "lib_footprint_issues": "warning",
        "lib_footprint_mismatch": "warning",
        "malformed_courtyard": "error",
        "microvia_drill_out_of_range": "error",
        "missing_courtyard": "warning",
        "missing_footprint": "warning",
        "net_conflict": "warning",
        "npth_inside_courtyard": "warning",
        "padstack": "warning",
        "pth_inside_courtyard": "warning",
        "shorting_items": "error",
        "silk_edge_clearance": "warning",
        "silk_over_copper": "warning",
        "silk_overlap": "warning",
        "skew_out_of_range": "error",
        "solder_mask_bridge": "error",
        "starved_thermal": "warning",
        "text_height": "warning",
        "text_thickness": "warning",
        "through_hole_pad_without_hole": "error",
        "too_many_vias": "error",
        "track_dangling": "warning",
        "track_width": "error",
        "tracks_crossing": "error",
        "unconnected_items": "error",
        "unresolved_variable": "error",
        "via_dangling": "warning",
        "zones_intersect": "error"
      },
      "rules": {
        "max_error": 0.005,
        "min_clearance": 0.15,
        "min_connection": 0.0,
        "min_copper_edge_clearance": 0.25,
        "min_hole_clearance": 0.25,
        "min_hole_to_hole": 0.2,
        "min_microvia_diameter": 0.0,
        "min_microvia_drill": 0.0,
        "min_resolved_spokes": 2,
        "min_silk_clearance": 0.0,
        "min_text_height": 0.7,
        "min_text_thickness": 0.08,
        "min_through_hole_diameter": 0.2,
        "min_track_width": 0.15,
        "min_via_annular_width": 0.15,
        "min_via_diameter": 0.2,
        "solder_mask_clearance": 0.0,
        "solder_mask_min_width": 0.0,
        "solder_mask_to_copper_clearance": 0.0,
        "use_height_for_length_calcs": true
      },
      "teardrop_options": [
        {
          "td_onpadsmd": true,
          "td_onroundshapesonly": false,
          "td_ontrackend": false,
          "td_onviapad": true
        }
      ],
      "teardrop_parameters": [
        {
          "td_allow_use_two_tracks": true,
          "td_curve_segcount": 0,
          "td_height_ratio": 1.0,
          "td_length_ratio": 0.5,
          "td_maxheight": 2.0,
          "td_maxlen": 1.0,
          "td_on_pad_in_zone": false,
          "td_target_name": "td_round_shape",
          "td_width_to_size_filter_ratio": 0.9
        },
        {
          "td_allow_use_two_tracks": true,
          "td_curve_segcount": 0,
          "td_height_ratio": 1.0,
          "td_length_ratio": 0.5,
          "td_maxheight": 2.0,
          "td_maxlen": 1.0,
          "td_on_pad_in_zone": false,
          "td_target_name": "td_rect_shape",
          "td_width_to_size_filter_ratio": 0.9
        },
        {
          "td_allow_use_two_tracks": true,
          "td_curve_segcount": 0,
          "td_height_ratio": 1.0,
          "td_length_ratio": 0.5,
          "td_maxheight": 2.0,
          "td_maxlen": 1.0,
          "td_on_pad_in_zone": false,
          "td_target_name": "td_track_end",
          "td_width_to_size_filter_ratio": 0.9
        }
      ],
      "track_widths": [
        0.0,
        0.155,
        0.2,
        0.254,
        0.3,
        0.5,
        0.508,
        1.0,
        2.0,
        3.0
      ],
      "tuning_pattern_settings": {
        "diff_pair_defaults": {
          "corner_radius_percentage": 80,
          "corner_style": 1,
          "max_amplitude": 1.0,
          "min_amplitude": 0.2,
          "single_sided": false,
          "spacing": 1.0
        },
        "diff_pair_skew_defaults": {
          "corner_radius_percentage": 80,
          "corner_style": 1,
          "max_amplitude": 1.0,
          "min_amplitude": 0.2,
          "single_sided": false,
          "spacing": 0.6
        },
        "single_track_defaults": {
          "corner_radius_percentage": 80,
          "corner_style": 1,
          "max_amplitude": 1.0,
          "min_amplitude": 0.2,
          "single_sided": false,
          "spacing": 0.6
        }
      },
      "via_dimensions": [
        {
          "diameter": 0.0,
          "drill": 0.0
        },
        {
          "diameter": 0.5,
          "drill": 0.2
        },
        {
          "diameter": 0.8,
          "drill": 0.4
        }
      ],
      "zones_allow_external_fillets": false
    },
    "ipc2581": {
      "dist": "",
      "distpn": "",
      "internal_id": "",
      "mfg": "",
      "mpn": ""
    },
    "layer_presets": [],
    "viewports": []
  },
  "boards": [],
  "cvpcb": {
    "equivalence_files": []
  },
  "libraries": {
    "pinned_footprint_libs": [],
    "pinned_symbol_libs": []
  },
  "meta": {
    "filename": "jellyfish_main.kicad_pro",
    "version": 1
  },
  "net_settings": {
    "classes": [
      {
        "bus_width": 12,
        "clearance": 0.15,
        "diff_pair_gap": 0.25,
        "diff_pair_via_gap": 0.25,
        "diff_pair_width": 0.2,
        "line_style": 0,
        "microvia_diameter": 0.3,
        "microvia_drill": 0.1,
        "name": "Default",
        "pcb_color": "rgba(0, 0, 0, 0.000)",
        "schematic_color": "rgba(0, 0, 0, 0.000)",
        "track_width": 0.25,
        "via_diameter": 0.8,
        "via_drill": 0.4,
        "wire_width": 6
      },
      {
        "bus_width": 12,
        "clearance": 0.15,
        "diff_pair_gap": 0.25,
        "diff_pair_via_gap": 0.25,
        "diff_pair_width": 0.2,
        "line_style": 0,
        "microvia_diameter": 0.3,
        "microvia_drill": 0.1,
        "name": "Board_0-Default",
        "pcb_color": "rgba(0, 0, 0, 0.000)",
        "schematic_color": "rgba(0, 0, 0, 0.000)",
        "track_width": 0.25,
        "via_diameter": 0.8,
        "via_drill": 0.4,
        "wire_width": 6
      }
    ],
    "meta": {
      "version": 3
    },
    "net_colors": null,
    "netclass_assignments": null,
    "netclass_patterns": [
      {
        "netclass": "Board_0-Default",
        "pattern": "Board_0-/Output Sensing/Current Sense Amp #2/IN-"
      },
      {
        "netclass": "Board_0-Default",
        "pattern": "Board_0-Net-(C296-Pad1)"
      },
      {
        "netclass": "Board_0-Default",
        "pattern": "Board_0-Net-(P1--Vout)"
      },
      {
        "netclass": "Board_0-Default",
        "pattern": "Board_0-Net-(U35-CF-)"
      },
      {
        "netclass": "Board_0-Default",
        "pattern": "Board_0-/DC-DC Pre-regulator/BST"
      },
      {
        "netclass": "Board_0-Default",
        "pattern": "Board_0-/UI/DISP_MOD_SCL"
      },
      {
        "netclass": "Board_0-Default",
        "pattern": "Board_0-Net-(U36B-OUT2-)"
      },
      {
        "netclass": "Board_0-Default",
        "pattern": "Board_0-Net-(D20-A)"
      },
      {
        "netclass": "Board_0-Default",
        "pattern": "Board_0-Net-(J25-Pin_1)"
      },
      {
        "netclass": "Board_0-Default",
        "pattern": "Board_0-unconnected-(U52C-NC-Pad83)"
      },
      {
        "netclass": "Board_0-Default",
        "pattern": "Board_0-/Panel Connectors/PANEL_GPIO1"
      },
      {
        "netclass": "Board_0-Default",
        "pattern": "Board_0-Net-(U38A-VOCM1)"
      },
      {
        "netclass": "Board_0-Default",
        "pattern": "Board_0-unconnected-(K2-Pad11)"
      },
      {
        "netclass": "Board_0-Default",
        "pattern": "Board_0-/SDA"
      },
      {
        "netclass": "Board_0-Default",
        "pattern": "Board_0-Net-(Q12-C)"
      },
      {
        "netclass": "Board_0-Default",
        "pattern": "Board_0-Net-(D18-K)"
      },
      {
        "netclass": "Board_0-Default",
        "pattern": "Board_0-Net-(Q20-G)"
      },
      {
        "netclass": "Board_0-Default",
        "pattern": "Board_0-unconnected-(U47-PE0-Pad97)"
      },
      {
        "netclass": "Board_0-Default",
        "pattern": "Board_0-unconnected-(U16-0P2V-Pad11)"
      },
      {
        "netclass": "Board_0-Default",
        "pattern": "Board_0-Net-(U37-AINP_B)"
      },
      {
        "netclass": "Board_0-Default",
        "pattern": "Board_0-Net-(U13-ADJ)"
      },
      {
        "netclass": "Board_0-Default",
        "pattern": "Board_0-Net-(U21C-V-)"
      },
      {
        "netclass": "Board_0-Default",
        "pattern": "Board_0-Net-(D20-K)"
      },
      {
        "netclass": "Board_0-Default",
        "pattern": "Board_0-/Power+Data Connectors/USB_PGOOD"
      },
      {
        "netclass": "Board_0-Default",
        "pattern": "Board_0-/Output Stage/NTC1"
      },
      {
        "netclass": "Board_0-Default",
        "pattern": "Board_0-/MCU/ENC_B"
      },
      {
        "netclass": "Board_0-Default",
        "pattern": "Board_0-Net-(R131-Pad1)"
      },
      {
        "netclass": "Board_0-Default",
        "pattern": "Board_0-Net-(Q25A-G1)"
      },
      {
        "netclass": "Board_0-Default",
        "pattern": "Board_0-/Power+Data Connectors/PD Trigger #1/ADDR0"
      },
      {
        "netclass": "Board_0-Default",
        "pattern": "Board_0-/FPGA/FPGA_TEST_LED"
      },
      {
        "netclass": "Board_0-Default",
        "pattern": "Board_0-Net-(C27-Pad2)"
      },
      {
        "netclass": "Board_0-Default",
        "pattern": "Board_0-Net-(U17-EN)"
      },
      {
        "netclass": "Board_0-Default",
        "pattern": "Board_0-/FPGA/QSPI_NCS"
      },
      {
        "netclass": "Board_0-Default",
        "pattern": "Board_0-/Output Sensing/MUX_IN_RANGE_5"
      },
      {
        "netclass": "Board_0-Default",
        "pattern": "Board_0-/ADC/ADC_V-"
      },
      {
        "netclass": "Board_0-Default",
        "pattern": "Board_0-Net-(Q22-G)"
      },
      {
        "netclass": "Board_0-Default",
        "pattern": "Board_0-unconnected-(U52A-NC-Pad16)"
      },
      {
        "netclass": "Board_0-Default",
        "pattern": "Board_0-Net-(U54-B3)"
      },
      {
        "netclass": "Board_0-Default",
        "pattern": "Board_0-/Panel Connectors/VSENSE+"
      },
      {
        "netclass": "Board_0-Default",
        "pattern": "Board_0-Net-(R131-Pad2)"
      },
      {
        "netclass": "Board_0-Default",
        "pattern": "Board_0-Net-(R246-Pad1)"
      },
      {
        "netclass": "Board_0-Default",
        "pattern": "Board_0-/FPGA/EXT_GPIO4"
      },
      {
        "netclass": "Board_0-Default",
        "pattern": "Board_0-/Power+Data Connectors/UD-"
      },
      {
        "netclass": "Board_0-Default",
        "pattern": "Board_0-unconnected-(U47-PD2-Pad83)"
      },
      {
        "netclass": "Board_0-Default",
        "pattern": "Board_0-Net-(Q10-E)"
      },
      {
        "netclass": "Board_0-Default",
        "pattern": "Board_0-Net-(U8-RESET)"
      },
      {
        "netclass": "Board_0-Default",
        "pattern": "Board_0-Net-(D6-A)"
      },
      {
        "netclass": "Board_0-Default",
        "pattern": "Board_0-unconnected-(U29-EN-Pad1)"
      },
      {
        "netclass": "Board_0-Default",
        "pattern": "Board_0-/FPGA/RANGE_SEL_3"
      },
      {
        "netclass": "Board_0-Default",
        "pattern": "Board_0-/Panel Connectors/PANEL_GPIO0"
      },
      {
        "netclass": "Board_0-Default",
        "pattern": "Board_0-Net-(U12--OUT)"
      },
      {
        "netclass": "Board_0-Default",
        "pattern": "Board_0-Net-(C145-Pad2)"
      },
      {
        "netclass": "Board_0-Default",
        "pattern": "Board_0-Net-(D14-K)"
      },
      {
        "netclass": "Board_0-Default",
        "pattern": "Board_0-Net-(U38A-OUT1+)"
      },
      {
        "netclass": "Board_0-Default",
        "pattern": "Board_0-/ADC/RDY{slash}STRB1"
      },
      {
        "netclass": "Board_0-Default",
        "pattern": "Board_0-/Power+Data Connectors/PD Trigger #1/VOUT"
      },
      {
        "netclass": "Board_0-Default",
        "pattern": "Board_0-/Panel Connectors/GPIO2"
      },
      {
        "netclass": "Board_0-Default",
        "pattern": "Board_0-Net-(U52B-IOR_50)"
      },
      {
        "netclass": "Board_0-Default",
        "pattern": "Board_0-unconnected-(U47-PC11-Pad79)"
      },
      {
        "netclass": "Board_0-Default",
        "pattern": "Board_0-/FPGA/SA2"
      },
      {
        "netclass": "Board_0-Default",
        "pattern": "Board_0-/Output Sensing/MUX_IN_RANGE_3"
      },
      {
        "netclass": "Board_0-Default",
        "pattern": "Board_0-Net-(U23A--)"
      },
      {
        "netclass": "Board_0-Default",
        "pattern": "Board_0-/ADC/SDO-7"
      },
      {
        "netclass": "Board_0-Default",
        "pattern": "Board_0-/MCU/DISP_DC"
      },
      {
        "netclass": "Board_0-Default",
        "pattern": "Board_0-/Output Sensing/Current Sense Amp #1/IN-"
      },
      {
        "netclass": "Board_0-Default",
        "pattern": "Board_0-unconnected-(U30-EN-Pad1)"
      },
      {
        "netclass": "Board_0-Default",
        "pattern": "Board_0-/MCU/EN_USB1"
      },
      {
        "netclass": "Board_0-Default",
        "pattern": "Board_0-unconnected-(J7-D+-PadB6)"
      },
      {
        "netclass": "Board_0-Default",
        "pattern": "Board_0-Net-(C226-Pad1)"
      },
      {
        "netclass": "Board_0-Default",
        "pattern": "Board_0-/DC-DC Pre-regulator/RAMP"
      },
      {
        "netclass": "Board_0-Default",
        "pattern": "Board_0-unconnected-(U47-PA12-Pad71)"
      },
      {
        "netclass": "Board_0-Default",
        "pattern": "Board_0-Net-(C56-Pad1)"
      },
      {
        "netclass": "Board_0-Default",
        "pattern": "Board_0-/FPGA/QSPI_BK1_IO1"
      },
      {
        "netclass": "Board_0-Default",
        "pattern": "Board_0-Net-(U39-AINM_A)"
      },
      {
        "netclass": "Board_0-Default",
        "pattern": "Board_0-unconnected-(U52B-NC-Pad54)"
      },
      {
        "netclass": "Board_0-Default",
        "pattern": "Board_0-Net-(U7-VREG_2V7)"
      },
      {
        "netclass": "Board_0-Default",
        "pattern": "Board_0-/FPGA/QSPI_BK2_IO1"
      },
      {
        "netclass": "Board_0-Default",
        "pattern": "Board_0-unconnected-(U52B-NC-Pad53)"
      },
      {
        "netclass": "Board_0-Default",
        "pattern": "Board_0-Net-(U39-REFOUT)"
      },
      {
        "netclass": "Board_0-Default",
        "pattern": "Board_0-unconnected-(U47-PE1-Pad98)"
      },
      {
        "netclass": "Board_0-Default",
        "pattern": "Board_0-/FPGA/QSPI_BK2_IO2"
      },
      {
        "netclass": "Board_0-Default",
        "pattern": "Board_0-unconnected-(U37-NC-Pad6)"
      },
      {
        "netclass": "Board_0-Default",
        "pattern": "Board_0-/FPGA/EXT_GPIO3"
      },
      {
        "netclass": "Board_0-Default",
        "pattern": "Board_0-Net-(P1-Vin)"
      },
      {
        "netclass": "Board_0-Default",
        "pattern": "Board_0-unconnected-(U52D-NC-Pad127)"
      },
      {
        "netclass": "Board_0-Default",
        "pattern": "Board_0-/FPGA/SA0"
      },
      {
        "netclass": "Board_0-Default",
        "pattern": "Board_0-unconnected-(U47-PC6-Pad63)"
      },
      {
        "netclass": "Board_0-Default",
        "pattern": "Board_0-unconnected-(J10-TRST-Pad9)"
      },
      {
        "netclass": "Board_0-Default",
        "pattern": "Board_0-/Vref{slash}2"
      },
      {
        "netclass": "Board_0-Default",
        "pattern": "Board_0-/MCU/USB_ULPI_D5"
      },
      {
        "netclass": "Board_0-Default",
        "pattern": "Board_0-unconnected-(U52B-IOR_52-Pad78)"
      },
      {
        "netclass": "Board_0-Default",
        "pattern": "Board_0-Net-(Q10-B)"
      },
      {
        "netclass": "Board_0-Default",
        "pattern": "Board_0-Net-(J27-Pin_8)"
      },
      {
        "netclass": "Board_0-Default",
        "pattern": "Board_0-/MCU/USB_ULPI_CK"
      },
      {
        "netclass": "Board_0-Default",
        "pattern": "Board_0-/FPGA/SA17"
      },
      {
        "netclass": "Board_0-Default",
        "pattern": "Board_0-unconnected-(U52C-NC-Pad84)"
      },
      {
        "netclass": "Board_0-Default",
        "pattern": "Board_0-/Panel Connectors/GPIO3"
      },
      {
        "netclass": "Board_0-Default",
        "pattern": "Board_0-Net-(D55-common)"
      },
      {
        "netclass": "Board_0-Default",
        "pattern": "Board_0-unconnected-(J8-SBU2-PadB8)"
      },
      {
        "netclass": "Board_0-Default",
        "pattern": "Board_0-Net-(J27-Pin_3)"
      },
      {
        "netclass": "Board_0-Default",
        "pattern": "Board_0-Net-(D21-K)"
      },
      {
        "netclass": "Board_0-Default",
        "pattern": "Board_0-/MCU/USB_ULPI_D3"
      },
      {
        "netclass": "Board_0-Default",
        "pattern": "Board_0-/MCU/USB_ULPI_D0"
      },
      {
        "netclass": "Board_0-Default",
        "pattern": "Board_0-Vbus+"
      },
      {
        "netclass": "Board_0-Default",
        "pattern": "Board_0-/Panel Connectors/PANEL_VSENSE+"
      },
      {
        "netclass": "Board_0-Default",
        "pattern": "Board_0-unconnected-(U31-S4-Pad7)"
      },
      {
        "netclass": "Board_0-Default",
        "pattern": "Board_0-Net-(Q1-D)"
      },
      {
        "netclass": "Board_0-Default",
        "pattern": "Board_0-Net-(D3-K)"
      },
      {
        "netclass": "Board_0-Default",
        "pattern": "Board_0-/ADC/RDY{slash}STRB2"
      },
      {
        "netclass": "Board_0-Default",
        "pattern": "Board_0-Net-(U36B-VOCM2)"
      },
      {
        "netclass": "Board_0-Default",
        "pattern": "Board_0-Net-(U52B-IOR_49)"
      },
      {
        "netclass": "Board_0-Default",
        "pattern": "Board_0-Net-(R240-Pad2)"
      },
      {
        "netclass": "Board_0-Default",
        "pattern": "Board_0-unconnected-(Y3-Pad4)"
      },
      {
        "netclass": "Board_0-Default",
        "pattern": "Board_0-unconnected-(D28-A-Pad3)"
      },
      {
        "netclass": "Board_0-Default",
        "pattern": "Board_0-/Output Sensing/Vout_presw"
      },
      {
        "netclass": "Board_0-Default",
        "pattern": "Board_0-Net-(D56-A)"
      },
      {
        "netclass": "Board_0-Default",
        "pattern": "Board_0-unconnected-(U28-EN-Pad1)"
      },
      {
        "netclass": "Board_0-Default",
        "pattern": "Board_0-/MCU/24MHz_CLK"
      },
      {
        "netclass": "Board_0-Default",
        "pattern": "Board_0-Net-(D5-A)"
      },
      {
        "netclass": "Board_0-Default",
        "pattern": "Board_0-Net-(Q19-G)"
      },
      {
        "netclass": "Board_0-Default",
        "pattern": "Board_0-Net-(D59-A)"
      },
      {
        "netclass": "Board_0-Default",
        "pattern": "Board_0-Net-(U44--)"
      },
      {
        "netclass": "Board_0-Default",
        "pattern": "Board_0-unconnected-(U25-EN-Pad1)"
      },
      {
        "netclass": "Board_0-Default",
        "pattern": "Board_0-/FPGA/SA9"
      },
      {
        "netclass": "Board_0-Default",
        "pattern": "Board_0-Net-(U44-+)"
      },
      {
        "netclass": "Board_0-Default",
        "pattern": "Board_0-Net-(C177-Pad2)"
      },
      {
        "netclass": "Board_0-Default",
        "pattern": "Board_0-unconnected-(U52D-IOL_11A-Pad31)"
      },
      {
        "netclass": "Board_0-Default",
        "pattern": "Board_0-Net-(U22B-+)"
      },
      {
        "netclass": "Board_0-Default",
        "pattern": "Board_0-/FPGA/SRAM_~{OE}"
      },
      {
        "netclass": "Board_0-Default",
        "pattern": "Board_0-Net-(U35-SD)"
      },
      {
        "netclass": "Board_0-Default",
        "pattern": "Board_0-/MCU/USB_ULPI_NXT"
      },
      {
        "netclass": "Board_0-Default",
        "pattern": "Board_0-/MCU/EN_ISO"
      },
      {
        "netclass": "Board_0-Default",
        "pattern": "Board_0-/DC-DC Pre-regulator/FB_GND"
      },
      {
        "netclass": "Board_0-Default",
        "pattern": "Board_0-Net-(U38B-OUT2-)"
      },
      {
        "netclass": "Board_0-Default",
        "pattern": "Board_0-Net-(X1-OUT)"
      },
      {
        "netclass": "Board_0-Default",
        "pattern": "Board_0-unconnected-(Y2-Pad4)"
      },
      {
        "netclass": "Board_0-Default",
        "pattern": "Board_0-/MCU/SPI1_MISO"
      },
      {
        "netclass": "Board_0-Default",
        "pattern": "Board_0-Net-(P2-+Vout)"
      },
      {
        "netclass": "Board_0-Default",
        "pattern": "Board_0-unconnected-(U8-A_B_SIDE-Pad17)"
      },
      {
        "netclass": "Board_0-Default",
        "pattern": "Board_0-Net-(C143-Pad2)"
      },
      {
        "netclass": "Board_0-Default",
        "pattern": "Board_0-Net-(Q5-D)"
      },
      {
        "netclass": "Board_0-Default",
        "pattern": "Board_0-Net-(D16-K)"
      },
      {
        "netclass": "Board_0-Default",
        "pattern": "Board_0-Net-(U2-XO_{2})"
      },
      {
        "netclass": "Board_0-Default",
        "pattern": "Board_0-/FPGA/VPP_2V5"
      },
      {
        "netclass": "Board_0-Default",
        "pattern": "Board_0-Net-(C128-A)"
      },
      {
        "netclass": "Board_0-Default",
        "pattern": "Board_0-/FPGA/MEAS_SWITCH_1"
      },
      {
        "netclass": "Board_0-Default",
        "pattern": "Board_0-Net-(U18B--)"
      },
      {
        "netclass": "Board_0-Default",
        "pattern": "Board_0-Net-(U43-FB)"
      },
      {
        "netclass": "Board_0-Default",
        "pattern": "Board_0-unconnected-(D5-K-Pad1)"
      },
      {
        "netclass": "Board_0-Default",
        "pattern": "Board_0-unconnected-(U54-B1-Pad18)"
      },
      {
        "netclass": "Board_0-Default",
        "pattern": "Board_0-VA-"
      },
      {
        "netclass": "Board_0-Default",
        "pattern": "Board_0-unconnected-(U8-NC-Pad3)"
      },
      {
        "netclass": "Board_0-Default",
        "pattern": "Board_0-Net-(Q28A-G1)"
      },
      {
        "netclass": "Board_0-Default",
        "pattern": "Board_0-Net-(U39-AINP_A)"
      },
      {
        "netclass": "Board_0-Default",
        "pattern": "Board_0-/AUX supply/Isense"
      },
      {
        "netclass": "Board_0-Default",
        "pattern": "Board_0-Net-(C175-Pad2)"
      },
      {
        "netclass": "Board_0-Default",
        "pattern": "Board_0-/Output Stage/NTC_V"
      },
      {
        "netclass": "Board_0-Default",
        "pattern": "Board_0-Net-(C288-A)"
      },
      {
        "netclass": "Board_0-Default",
        "pattern": "Board_0-/Panel Connectors/PANEL_VAUX"
      },
      {
        "netclass": "Board_0-Default",
        "pattern": "Board_0-/DC-DC Pre-regulator/COMP"
      },
      {
        "netclass": "Board_0-Default",
        "pattern": "Board_0-/NTC2"
      },
      {
        "netclass": "Board_0-Default",
        "pattern": "Board_0-Net-(U15-C1+)"
      },
      {
        "netclass": "Board_0-Default",
        "pattern": "Board_0-Net-(R238-Pad2)"
      },
      {
        "netclass": "Board_0-Default",
        "pattern": "Board_0-/Output Sensing/RANGE_DRIVE_2"
      },
      {
        "netclass": "Board_0-Default",
        "pattern": "Board_0-Net-(U8-VREG_2V7)"
      },
      {
        "netclass": "Board_0-Default",
        "pattern": "Board_0-/Power+Data Connectors/ISO_SDA"
      },
      {
        "netclass": "Board_0-Default",
        "pattern": "Board_0-Net-(C65-Pad1)"
      },
      {
        "netclass": "Board_0-Default",
        "pattern": "Board_0-unconnected-(U38A-FB1--Pad23)"
      },
      {
        "netclass": "Board_0-Default",
        "pattern": "Board_0-Net-(U2-XI_{2})"
      },
      {
        "netclass": "Board_0-Default",
        "pattern": "Board_0-/ADC/ADS92X4 #1/IN2+"
      },
      {
        "netclass": "Board_0-Default",
        "pattern": "Board_0-unconnected-(U7-ATTACH-Pad11)"
      },
      {
        "netclass": "Board_0-Default",
        "pattern": "Board_0-Net-(R245-Pad1)"
      },
      {
        "netclass": "Board_0-Default",
        "pattern": "Board_0-/FPGA/SD8"
      },
      {
        "netclass": "Board_0-Default",
        "pattern": "Board_0-Net-(U34-S3A)"
      },
      {
        "netclass": "Board_0-Default",
        "pattern": "Board_0-/FPGA/SA12"
      },
      {
        "netclass": "Board_0-Default",
        "pattern": "Board_0-/Panel Connectors/CONN_OUT"
      },
      {
        "netclass": "Board_0-Default",
        "pattern": "Board_0-Net-(C176-Pad2)"
      },
      {
        "netclass": "Board_0-Default",
        "pattern": "Board_0-/DC-DC Pre-regulator/PG"
      },
      {
        "netclass": "Board_0-Default",
        "pattern": "Board_0-/SCL"
      },
      {
        "netclass": "Board_0-Default",
        "pattern": "Board_0-Net-(C33-Pad2)"
      },
      {
        "netclass": "Board_0-Default",
        "pattern": "Board_0-/MCU/SWDIO"
      },
      {
        "netclass": "Board_0-Default",
        "pattern": "Board_0-/Output Sensing/RANGE_DRIVE_0"
      },
      {
        "netclass": "Board_0-Default",
        "pattern": "Board_0-Net-(U8-DISCH)"
      },
      {
        "netclass": "Board_0-Default",
        "pattern": "Board_0-/Output Stage/PMOS_G"
      },
      {
        "netclass": "Board_0-Default",
        "pattern": "Board_0-/DAC/VOUT"
      },
      {
        "netclass": "Board_0-Default",
        "pattern": "Board_0-Net-(U9-ADJ)"
      },
      {
        "netclass": "Board_0-Default",
        "pattern": "Board_0-Net-(U8-VBUS_EN_SNK)"
      },
      {
        "netclass": "Board_0-Default",
        "pattern": "Board_0-unconnected-(D23-K-Pad1)"
      },
      {
        "netclass": "Board_0-Default",
        "pattern": "Board_0-/DC-DC Pre-regulator/Voverride"
      },
      {
        "netclass": "Board_0-Default",
        "pattern": "Board_0-/MCU/SPI1_NSS"
      },
      {
        "netclass": "Board_0-Default",
        "pattern": "Board_0-Net-(U3-VCAP)"
      },
      {
        "netclass": "Board_0-Default",
        "pattern": "Board_0-unconnected-(U54-A0-Pad2)"
      },
      {
        "netclass": "Board_0-Default",
        "pattern": "Board_0-/MCU/USB_ULPI_DIR"
      },
      {
        "netclass": "Board_0-Default",
        "pattern": "Board_0-Net-(J27-Pin_10)"
      },
      {
        "netclass": "Board_0-Default",
        "pattern": "Board_0-Net-(U54-B2)"
      },
      {
        "netclass": "Board_0-Default",
        "pattern": "Board_0-Net-(D54-common)"
      },
      {
        "netclass": "Board_0-Default",
        "pattern": "Board_0-/MCU/USB_ULPI_D1"
      },
      {
        "netclass": "Board_0-Default",
        "pattern": "Board_0-Net-(C174-Pad2)"
      },
      {
        "netclass": "Board_0-Default",
        "pattern": "Board_0-unconnected-(U16-0P1V-Pad12)"
      },
      {
        "netclass": "Board_0-Default",
        "pattern": "Board_0-Net-(U35-CRES)"
      },
      {
        "netclass": "Board_0-Default",
        "pattern": "Board_0-Net-(Q6-D)"
      },
      {
        "netclass": "Board_0-Default",
        "pattern": "Board_0-Net-(U39-AINP_B)"
      },
      {
        "netclass": "Board_0-Default",
        "pattern": "Board_0-Net-(Q21A-G1)"
      },
      {
        "netclass": "Board_0-Default",
        "pattern": "Board_0-Net-(U37-AINM_A)"
      },
      {
        "netclass": "Board_0-Default",
        "pattern": "Board_0-Net-(U36A-IN1-)"
      },
      {
        "netclass": "Board_0-Default",
        "pattern": "Board_0-unconnected-(U52C-NC-Pad110)"
      },
      {
        "netclass": "Board_0-Default",
        "pattern": "Board_0-Net-(Q3-D)"
      },
      {
        "netclass": "Board_0-Default",
        "pattern": "Board_0-unconnected-(U36A-FB1--Pad23)"
      },
      {
        "netclass": "Board_0-Default",
        "pattern": "Board_0-/Panel Connectors/GPIO4"
      },
      {
        "netclass": "Board_0-Default",
        "pattern": "Board_0-unconnected-(U39-NC-Pad6)"
      },
      {
        "netclass": "Board_0-Default",
        "pattern": "Board_0-Net-(U5-VCAP)"
      },
      {
        "netclass": "Board_0-Default",
        "pattern": "Board_0-Net-(U49-ADJ)"
      },
      {
        "netclass": "Board_0-Default",
        "pattern": "Board_0-/AUX supply/VAUX"
      },
      {
        "netclass": "Board_0-Default",
        "pattern": "Board_0-/DC-DC Pre-regulator/VREG"
      },
      {
        "netclass": "Board_0-Default",
        "pattern": "Board_0-/DAC/DAC_VDD"
      },
      {
        "netclass": "Board_0-Default",
        "pattern": "Board_0-/Power+Data Connectors/HOST_3V3"
      },
      {
        "netclass": "Board_0-Default",
        "pattern": "Board_0-Net-(U11-FB)"
      },
      {
        "netclass": "Board_0-Default",
        "pattern": "Board_0-unconnected-(U52D-NC-Pad125)"
      },
      {
        "netclass": "Board_0-Default",
        "pattern": "Board_0-unconnected-(U47-PC15-Pad9)"
      },
      {
        "netclass": "Board_0-Default",
        "pattern": "Board_0-Net-(C294-Pad1)"
      },
      {
        "netclass": "Board_0-Default",
        "pattern": "Board_0-Net-(U39-REFP_B)"
      },
      {
        "netclass": "Board_0-Default",
        "pattern": "Board_0-Net-(U10-SW)"
      },
      {
        "netclass": "Board_0-Default",
        "pattern": "Board_0-/Output Sensing/MUX_IN_RANGE_2"
      },
      {
        "netclass": "Board_0-Default",
        "pattern": "Board_0-Net-(D53-A)"
      },
      {
        "netclass": "Board_0-Default",
        "pattern": "Board_0-Net-(D26-A)"
      },
      {
        "netclass": "Board_0-Default",
        "pattern": "Board_0-/MCU/USB_ULPI_D6"
      },
      {
        "netclass": "Board_0-Default",
        "pattern": "Board_0-/FPGA/ICE40-SS_B"
      },
      {
        "netclass": "Board_0-Default",
        "pattern": "Board_0-/FPGA/MEAS_SWITCH_0"
      },
      {
        "netclass": "Board_0-Default",
        "pattern": "Board_0-/MCU/SPI1_MOSI"
      },
      {
        "netclass": "Board_0-Default",
        "pattern": "Board_0-Net-(U51-~{WP})"
      },
      {
        "netclass": "Board_0-Default",
        "pattern": "Board_0-+1V2"
      },
      {
        "netclass": "Board_0-Default",
        "pattern": "Board_0-Net-(U46-XI)"
      },
      {
        "netclass": "Board_0-Default",
        "pattern": "Board_0-Net-(U52B-IOR_48)"
      },
      {
        "netclass": "Board_0-Default",
        "pattern": "Board_0-Net-(Q24A-G1)"
      },
      {
        "netclass": "Board_0-Default",
        "pattern": "Board_0-Net-(U20C-V-)"
      },
      {
        "netclass": "Board_0-Default",
        "pattern": "Board_0-Net-(D44-A)"
      },
      {
        "netclass": "Board_0-Default",
        "pattern": "Board_0-unconnected-(U8-ATTACH-Pad11)"
      },
      {
        "netclass": "Board_0-Default",
        "pattern": "Board_0-/MCU/LED_R"
      },
      {
        "netclass": "Board_0-Default",
        "pattern": "Board_0-/Panel Connectors/PANEL_OUT"
      },
      {
        "netclass": "Board_0-Default",
        "pattern": "Board_0-Net-(D52-A)"
      },
      {
        "netclass": "Board_0-Default",
        "pattern": "Board_0-Net-(U11-BOOT)"
      },
      {
        "netclass": "Board_0-Default",
        "pattern": "Board_0-/FPGA/QSPI_BK2_IO0"
      },
      {
        "netclass": "Board_0-Default",
        "pattern": "Board_0-/FPGA/SA6"
      },
      {
        "netclass": "Board_0-Default",
        "pattern": "Board_0-/MCU/OUTPUT_ENABLE"
      },
      {
        "netclass": "Board_0-Default",
        "pattern": "Board_0-Net-(R239-Pad2)"
      },
      {
        "netclass": "Board_0-Default",
        "pattern": "Board_0-unconnected-(U54-NC-Pad21)"
      },
      {
        "netclass": "Board_0-Default",
        "pattern": "Board_0-/FPGA/SA8"
      },
      {
        "netclass": "Board_0-Default",
        "pattern": "Board_0-Vdrv-"
      },
      {
        "netclass": "Board_0-Default",
        "pattern": "Board_0-/FPGA/ICE40-SCK"
      },
      {
        "netclass": "Board_0-Default",
        "pattern": "Board_0-Net-(U52E-GNDPLL)"
      },
      {
        "netclass": "Board_0-Default",
        "pattern": "Board_0-/ADC/ADS92X4 #2/IN1+"
      },
      {
        "netclass": "Board_0-Default",
        "pattern": "Board_0-unconnected-(U7-A_B_SIDE-Pad17)"
      },
      {
        "netclass": "Board_0-Default",
        "pattern": "Board_0-/MCU/USB_ULPI_STP"
      },
      {
        "netclass": "Board_0-Default",
        "pattern": "Board_0-/Power+Data Connectors/PD Trigger #2/VOUT"
      },
      {
        "netclass": "Board_0-Default",
        "pattern": "Board_0-Net-(U7-VREG_1V2)"
      },
      {
        "netclass": "Board_0-Default",
        "pattern": "Board_0-/ADC/ADC_IN4"
      },
      {
        "netclass": "Board_0-Default",
        "pattern": "Board_0-Net-(Q25A-S1)"
      },
      {
        "netclass": "Board_0-Default",
        "pattern": "Board_0-/Output Sensing/MUX_IN_RANGE_4"
      },
      {
        "netclass": "Board_0-Default",
        "pattern": "Board_0-Net-(U18C-V-)"
      },
      {
        "netclass": "Board_0-Default",
        "pattern": "Board_0-Net-(Q13-E)"
      },
      {
        "netclass": "Board_0-Default",
        "pattern": "Board_0-/ADC/ADS92X4 #2/IN2+"
      },
      {
        "netclass": "Board_0-Default",
        "pattern": "Board_0-/ADC/ADS92X4 #2/IN1-"
      },
      {
        "netclass": "Board_0-Default",
        "pattern": "Board_0-/Output Sensing/RANGE_DRIVE_4"
      },
      {
        "netclass": "Board_0-Default",
        "pattern": "Board_0-/DAC_SDI"
      },
      {
        "netclass": "Board_0-Default",
        "pattern": "Board_0-/FPGA/QSPI_BK1_IO0"
      },
      {
        "netclass": "Board_0-Default",
        "pattern": "Board_0-/MCU/SPI2_MISO"
      },
      {
        "netclass": "Board_0-Default",
        "pattern": "Board_0-unconnected-(U7-ALERT-Pad19)"
      },
      {
        "netclass": "Board_0-Default",
        "pattern": "Board_0-Net-(U46-XO)"
      },
      {
        "netclass": "Board_0-Default",
        "pattern": "Board_0-unconnected-(U52A-NC-Pad17)"
      },
      {
        "netclass": "Board_0-Default",
        "pattern": "Board_0-/FPGA/EXT_GPIO1"
      },
      {
        "netclass": "Board_0-Default",
        "pattern": "Board_0-/Power+Data Connectors/PD Trigger #2/VBUS_IN"
      },
      {
        "netclass": "Board_0-Default",
        "pattern": "Board_0-Net-(U47-VCAP_2)"
      },
      {
        "netclass": "Board_0-Default",
        "pattern": "Board_0-Net-(U38B-VOCM2)"
      },
      {
        "netclass": "Board_0-Default",
        "pattern": "Board_0-Net-(U10-FB)"
      },
      {
        "netclass": "Board_0-Default",
        "pattern": "Board_0-unconnected-(U36B-FB2--Pad5)"
      },
      {
        "netclass": "Board_0-Default",
        "pattern": "Board_0-Net-(U16-EN)"
      },
      {
        "netclass": "Board_0-Default",
        "pattern": "Board_0-/DC-DC Pre-regulator/FB"
      },
      {
        "netclass": "Board_0-Default",
        "pattern": "Board_0-Net-(C299-Pad1)"
      },
      {
        "netclass": "Board_0-Default",
        "pattern": "Board_0-/ADC/SDO-5"
      },
      {
        "netclass": "Board_0-Default",
        "pattern": "Board_0-Net-(U47-BOOT0)"
      },
      {
        "netclass": "Board_0-Default",
        "pattern": "Board_0-Net-(Q23A-G1)"
      },
      {
        "netclass": "Board_0-Default",
        "pattern": "Board_0-Net-(U15-C1-)"
      },
      {
        "netclass": "Board_0-Default",
        "pattern": "Board_0-Net-(Q5-G)"
      },
      {
        "netclass": "Board_0-Default",
        "pattern": "Board_0-Net-(D57-A)"
      },
      {
        "netclass": "Board_0-Default",
        "pattern": "Board_0-Net-(U42-VREFIO)"
      },
      {
        "netclass": "Board_0-Default",
        "pattern": "Board_0-/MCU/VSENSE_DC"
      },
      {
        "netclass": "Board_0-Default",
        "pattern": "Board_0-Net-(Q21A-S1)"
      },
      {
        "netclass": "Board_0-Default",
        "pattern": "Board_0-unconnected-(U46-EXTVBUS-Pad10)"
      },
      {
        "netclass": "Board_0-Default",
        "pattern": "Board_0-Net-(Q12-E)"
      },
      {
        "netclass": "Board_0-Default",
        "pattern": "Board_0-/FPGA/SD1"
      },
      {
        "netclass": "Board_0-Default",
        "pattern": "Board_0-Net-(U46-VDDA1.8)"
      },
      {
        "netclass": "Board_0-Default",
        "pattern": "Board_0-Net-(Q2-G)"
      },
      {
        "netclass": "Board_0-Default",
        "pattern": "Board_0-Net-(JP1-A)"
      },
      {
        "netclass": "Board_0-Default",
        "pattern": "Board_0-unconnected-(U52C-IOB_33-Pad48)"
      },
      {
        "netclass": "Board_0-Default",
        "pattern": "Board_0-Net-(U17-OUT)"
      },
      {
        "netclass": "Board_0-Default",
        "pattern": "Board_0-Net-(C249-Pad1)"
      },
      {
        "netclass": "Board_0-Default",
        "pattern": "Board_0-Net-(U32A-+)"
      },
      {
        "netclass": "Board_0-Default",
        "pattern": "Board_0-unconnected-(U52D-NC-Pad130)"
      },
      {
        "netclass": "Board_0-Default",
        "pattern": "Board_0-Net-(R261-Pad1)"
      },
      {
        "netclass": "Board_0-Default",
        "pattern": "Board_0-/FPGA/QSPI_BK1_IO3"
      },
      {
        "netclass": "Board_0-Default",
        "pattern": "Board_0-Net-(U22C-V+)"
      },
      {
        "netclass": "Board_0-Default",
        "pattern": "Board_0-Net-(U23C-V+)"
      },
      {
        "netclass": "Board_0-Default",
        "pattern": "Board_0-unconnected-(U47-PD15-Pad62)"
      },
      {
        "netclass": "Board_0-Default",
        "pattern": "Board_0-/FPGA/FPGA_CLK_IN"
      },
      {
        "netclass": "Board_0-Default",
        "pattern": "Board_0-Net-(U54-B5)"
      },
      {
        "netclass": "Board_0-Default",
        "pattern": "Board_0-/ADC/ADC_IN1"
      },
      {
        "netclass": "Board_0-Default",
        "pattern": "Board_0-/FPGA/SD10"
      },
      {
        "netclass": "Board_0-Default",
        "pattern": "Board_0-Net-(C146-Pad2)"
      },
      {
        "netclass": "Board_0-Default",
        "pattern": "Board_0-Net-(U39-REFP_A)"
      },
      {
        "netclass": "Board_0-Default",
        "pattern": "Board_0-/FPGA/SRAM_~{CS}"
      },
      {
        "netclass": "Board_0-Default",
        "pattern": "Board_0-unconnected-(U47-PC8-Pad65)"
      },
      {
        "netclass": "Board_0-Default",
        "pattern": "Board_0-/FPGA/FLASH_MISO"
      },
      {
        "netclass": "Board_0-Default",
        "pattern": "Board_0-unconnected-(U53-NC-Pad28)"
      },
      {
        "netclass": "Board_0-Default",
        "pattern": "Board_0-/MCU/EN_DC"
      },
      {
        "netclass": "Board_0-Default",
        "pattern": "Board_0-Net-(Q6-G)"
      },
      {
        "netclass": "Board_0-Default",
        "pattern": "Board_0-/FPGA/QSPI_BK2_IO3"
      },
      {
        "netclass": "Board_0-Default",
        "pattern": "Board_0-Net-(Q10-C)"
      },
      {
        "netclass": "Board_0-Default",
        "pattern": "Board_0-/Power+Data Connectors/PD Trigger #1/VBUS_IN"
      },
      {
        "netclass": "Board_0-Default",
        "pattern": "Board_0-/Panel Connectors/GPIO1"
      },
      {
        "netclass": "Board_0-Default",
        "pattern": "Board_0-/Panel Connectors/VSENSE-"
      },
      {
        "netclass": "Board_0-Default",
        "pattern": "Board_0-/VSYS"
      },
      {
        "netclass": "Board_0-Default",
        "pattern": "Board_0-/IsetDAC/VOUT1"
      },
      {
        "netclass": "Board_0-Default",
        "pattern": "Board_0-Net-(U7-ADDR1)"
      },
      {
        "netclass": "Board_0-Default",
        "pattern": "Board_0-/FPGA/SD9"
      },
      {
        "netclass": "Board_0-Default",
        "pattern": "Board_0-Net-(U20A-+)"
      },
      {
        "netclass": "Board_0-Default",
        "pattern": "Board_0-Net-(D41-GA)"
      },
      {
        "netclass": "Board_0-Default",
        "pattern": "Board_0-Net-(U36A-OUT1-)"
      },
      {
        "netclass": "Board_0-Default",
        "pattern": "Board_0-Net-(U37-AINM_B)"
      },
      {
        "netclass": "Board_0-Default",
        "pattern": "Board_0-unconnected-(U52D-NC-Pad126)"
      },
      {
        "netclass": "Board_0-Default",
        "pattern": "Board_0-Net-(D7-K)"
      },
      {
        "netclass": "Board_0-Default",
        "pattern": "Board_0-/Output Sensing/MUX_VDD"
      },
      {
        "netclass": "Board_0-Default",
        "pattern": "Board_0-/FPGA/ICE40-SDO"
      },
      {
        "netclass": "Board_0-Default",
        "pattern": "Board_0-Net-(Q11-B)"
      },
      {
        "netclass": "Board_0-Default",
        "pattern": "Board_0-Net-(Q18-G)"
      },
      {
        "netclass": "Board_0-Default",
        "pattern": "Board_0-/Panel Connectors/PANEL_AIN"
      },
      {
        "netclass": "Board_0-Default",
        "pattern": "Board_0-Net-(U8-VBUS_VS_DISCH)"
      },
      {
        "netclass": "Board_0-Default",
        "pattern": "Board_0-/ADC/SDO-2"
      },
      {
        "netclass": "Board_0-Default",
        "pattern": "Board_0-unconnected-(P2-NC-Pad8)"
      },
      {
        "netclass": "Board_0-Default",
        "pattern": "Board_0-/FPGA/SD5"
      },
      {
        "netclass": "Board_0-Default",
        "pattern": "Board_0-unconnected-(J7-D--PadA7)"
      },
      {
        "netclass": "Board_0-Default",
        "pattern": "Board_0-Net-(D39-common)"
      },
      {
        "netclass": "Board_0-Default",
        "pattern": "Board_0-unconnected-(U52B-NC-Pad55)"
      },
      {
        "netclass": "Board_0-Default",
        "pattern": "Board_0-unconnected-(U7-POWER_OK3-Pad14)"
      },
      {
        "netclass": "Board_0-Default",
        "pattern": "Board_0-/ADC/ADS92X4 #1/IN1+"
      },
      {
        "netclass": "Board_0-Default",
        "pattern": "Board_0-Net-(Q4-G)"
      },
      {
        "netclass": "Board_0-Default",
        "pattern": "Board_0-unconnected-(U27-EN-Pad1)"
      },
      {
        "netclass": "Board_0-Default",
        "pattern": "Board_0-Net-(U36B-OUT2+)"
      },
      {
        "netclass": "Board_0-Default",
        "pattern": "Board_0-Net-(D46-A)"
      },
      {
        "netclass": "Board_0-Default",
        "pattern": "Board_0-/Output routing/IN"
      },
      {
        "netclass": "Board_0-Default",
        "pattern": "Board_0-Net-(Q17-G)"
      },
      {
        "netclass": "Board_0-Default",
        "pattern": "Board_0-unconnected-(U52B-NC-Pad40)"
      },
      {
        "netclass": "Board_0-Default",
        "pattern": "Board_0-/Output Stage/OS_VBUS+"
      },
      {
        "netclass": "Board_0-Default",
        "pattern": "Board_0-Net-(U54-B4)"
      },
      {
        "netclass": "Board_0-Default",
        "pattern": "Board_0-unconnected-(U52B-NC-Pad82)"
      },
      {
        "netclass": "Board_0-Default",
        "pattern": "Board_0-/DC-DC Pre-regulator/RT{slash}SYNC"
      },
      {
        "netclass": "Board_0-Default",
        "pattern": "Board_0-/Output Control/NMOS_G"
      },
      {
        "netclass": "Board_0-Default",
        "pattern": "Board_0-/FPGA/SA13"
      },
      {
        "netclass": "Board_0-Default",
        "pattern": "Board_0-Net-(C144-Pad2)"
      },
      {
        "netclass": "Board_0-Default",
        "pattern": "Board_0-/FPGA/SD14"
      },
      {
        "netclass": "Board_0-Default",
        "pattern": "Board_0-unconnected-(J7-D+-PadA6)"
      },
      {
        "netclass": "Board_0-Default",
        "pattern": "Board_0-Net-(Q27A-G1)"
      },
      {
        "netclass": "Board_0-Default",
        "pattern": "Board_0-Net-(U37-REFOUT)"
      },
      {
        "netclass": "Board_0-Default",
        "pattern": "Board_0-Net-(U38B-OUT2+)"
      },
      {
        "netclass": "Board_0-Default",
        "pattern": "Board_0-Net-(R211-Pad2)"
      },
      {
        "netclass": "Board_0-Default",
        "pattern": "Board_0-unconnected-(U54-A1-Pad3)"
      },
      {
        "netclass": "Board_0-Default",
        "pattern": "Board_0-/FPGA/QSPI_CLK"
      },
      {
        "netclass": "Board_0-Default",
        "pattern": "Board_0-unconnected-(J7-SBU2-PadB8)"
      },
      {
        "netclass": "Board_0-Default",
        "pattern": "Board_0-/FPGA/SRAM_~{WE}"
      },
      {
        "netclass": "Board_0-Default",
        "pattern": "Board_0-Net-(U22C-V-)"
      },
      {
        "netclass": "Board_0-Default",
        "pattern": "Board_0-/MCU/USB_ULPI_D4"
      },
      {
        "netclass": "Board_0-Default",
        "pattern": "Board_0-Net-(U13-OUT)"
      },
      {
        "netclass": "Board_0-Default",
        "pattern": "Board_0-unconnected-(D27-A-Pad3)"
      },
      {
        "netclass": "Board_0-Default",
        "pattern": "Board_0-/MCU/USB_ULPI_D2"
      },
      {
        "netclass": "Board_0-Default",
        "pattern": "Board_0-Net-(C92-Pad1)"
      },
      {
        "netclass": "Board_0-Default",
        "pattern": "Board_0-Net-(U10-BOOT)"
      },
      {
        "netclass": "Board_0-Default",
        "pattern": "Board_0-Net-(U24-OUT)"
      },
      {
        "netclass": "Board_0-Default",
        "pattern": "Board_0-Net-(D45-A)"
      },
      {
        "netclass": "Board_0-Default",
        "pattern": "Board_0-/Output Sensing/OUT"
      },
      {
        "netclass": "Board_0-Default",
        "pattern": "Board_0-Net-(J25-Pin_2)"
      },
      {
        "netclass": "Board_0-Default",
        "pattern": "Board_0-Net-(D41-RA)"
      },
      {
        "netclass": "Board_0-Default",
        "pattern": "Board_0-/FPGA/RANGE_SEL_0"
      },
      {
        "netclass": "Board_0-Default",
        "pattern": "Board_0-/ADC/SDO-1"
      },
      {
        "netclass": "Board_0-Default",
        "pattern": "Board_0-unconnected-(U38B-FB2--Pad5)"
      },
      {
        "netclass": "Board_0-Default",
        "pattern": "Board_0-/ADC/~{PD}{slash}~{RST}"
      },
      {
        "netclass": "Board_0-Default",
        "pattern": "Board_0-unconnected-(U47-PC12-Pad80)"
      },
      {
        "netclass": "Board_0-Default",
        "pattern": "Board_0-unconnected-(U47-PD0-Pad81)"
      },
      {
        "netclass": "Board_0-Default",
        "pattern": "Board_0-/Power+Data Connectors/LOCAL_GND"
      },
      {
        "netclass": "Board_0-Default",
        "pattern": "Board_0-Net-(U50-EN)"
      },
      {
        "netclass": "Board_0-Default",
        "pattern": "Board_0-Net-(U38A-OUT1-)"
      },
      {
        "netclass": "Board_0-Default",
        "pattern": "Board_0-/ADC/CONVST"
      },
      {
        "netclass": "Board_0-Default",
        "pattern": "Board_0-/Output Sensing/Current Sense Amp #1/IN+"
      },
      {
        "netclass": "Board_0-Default",
        "pattern": "Board_0-Net-(D2-K)"
      },
      {
        "netclass": "Board_0-Default",
        "pattern": "Board_0-Net-(J27-Pin_6)"
      },
      {
        "netclass": "Board_0-Default",
        "pattern": "Board_0-/UI/DISP_MOD_VCC"
      },
      {
        "netclass": "Board_0-Default",
        "pattern": "Board_0-Net-(U36B-IN2-)"
      },
      {
        "netclass": "Board_0-Default",
        "pattern": "Board_0-Net-(U43-SW)"
      },
      {
        "netclass": "Board_0-Default",
        "pattern": "Board_0-unconnected-(U7-POWER_OK2-Pad20)"
      },
      {
        "netclass": "Board_0-Default",
        "pattern": "Board_0-Net-(D1-K)"
      },
      {
        "netclass": "Board_0-Default",
        "pattern": "Board_0-Net-(D22-A)"
      },
      {
        "netclass": "Board_0-Default",
        "pattern": "Board_0-Net-(C246-Pad1)"
      },
      {
        "netclass": "Board_0-Default",
        "pattern": "Board_0-Net-(U21A--)"
      },
      {
        "netclass": "Board_0-Default",
        "pattern": "Board_0-/UI/DISP_MOD_NCS"
      },
      {
        "netclass": "Board_0-Default",
        "pattern": "Board_0-/FPGA/SA16"
      },
      {
        "netclass": "Board_0-Default",
        "pattern": "Board_0-Net-(C46-Pad1)"
      },
      {
        "netclass": "Board_0-Default",
        "pattern": "Board_0-Net-(D61-A)"
      },
      {
        "netclass": "Board_0-Default",
        "pattern": "Board_0-Net-(U20A--)"
      },
      {
        "netclass": "Board_0-Default",
        "pattern": "Board_0-unconnected-(U24-EN-Pad1)"
      },
      {
        "netclass": "Board_0-Default",
        "pattern": "Board_0-Net-(U12-ADJ)"
      },
      {
        "netclass": "Board_0-Default",
        "pattern": "Board_0-Net-(C208-Pad1)"
      },
      {
        "netclass": "Board_0-Default",
        "pattern": "Board_0-Net-(U42-SPI2C)"
      },
      {
        "netclass": "Board_0-Default",
        "pattern": "Board_0-/FPGA/SA11"
      },
      {
        "netclass": "Board_0-Default",
        "pattern": "Board_0-Net-(J7-SHIELD)"
      },
      {
        "netclass": "Board_0-Default",
        "pattern": "Board_0-unconnected-(U46-ID-Pad5)"
      },
      {
        "netclass": "Board_0-Default",
        "pattern": "Board_0-unconnected-(U47-PA11-Pad70)"
      },
      {
        "netclass": "Board_0-Default",
        "pattern": "Board_0-unconnected-(J7-SBU1-PadA8)"
      },
      {
        "netclass": "Board_0-Default",
        "pattern": "Board_0-/Power+Data Connectors/PD Trigger #1/CC1"
      },
      {
        "netclass": "Board_0-Default",
        "pattern": "Board_0-/FPGA/SD2"
      },
      {
        "netclass": "Board_0-Default",
        "pattern": "Board_0-/DAC_SCK"
      },
      {
        "netclass": "Board_0-Default",
        "pattern": "Board_0-unconnected-(U54-B0-Pad19)"
      },
      {
        "netclass": "Board_0-Default",
        "pattern": "Board_0-/MCU/DISP_NCS"
      },
      {
        "netclass": "Board_0-Default",
        "pattern": "Board_0-/MCU/VSENSE_USB0"
      },
      {
        "netclass": "Board_0-Default",
        "pattern": "Board_0-/D-"
      },
      {
        "netclass": "Board_0-Default",
        "pattern": "Board_0-/FPGA/SD15"
      },
      {
        "netclass": "Board_0-Default",
        "pattern": "Board_0-/FPGA/SA14"
      },
      {
        "netclass": "Board_0-Default",
        "pattern": "Board_0-Net-(U7-VBUS_EN_SNK)"
      },
      {
        "netclass": "Board_0-Default",
        "pattern": "Board_0-/OUT_FB"
      },
      {
        "netclass": "Board_0-Default",
        "pattern": "Board_0-Net-(U52E-VCCPLL)"
      },
      {
        "netclass": "Board_0-Default",
        "pattern": "Board_0-/FPGA/SA10"
      },
      {
        "netclass": "Board_0-Default",
        "pattern": "Board_0-/FPGA/SD13"
      },
      {
        "netclass": "Board_0-Default",
        "pattern": "Board_0-/Output routing/EXT_IN"
      },
      {
        "netclass": "Board_0-Default",
        "pattern": "Board_0-/ADC/SDO-6"
      },
      {
        "netclass": "Board_0-Default",
        "pattern": "Board_0-Net-(D58-K)"
      },
      {
        "netclass": "Board_0-Default",
        "pattern": "Board_0-unconnected-(U52B-IOR_53-Pad79)"
      },
      {
        "netclass": "Board_0-Default",
        "pattern": "Board_0-unconnected-(Y1-Pad4)"
      },
      {
        "netclass": "Board_0-Default",
        "pattern": "Board_0-unconnected-(U31-S3-Pad6)"
      },
      {
        "netclass": "Board_0-Default",
        "pattern": "Board_0-/MCU/ENC_SW"
      },
      {
        "netclass": "Board_0-Default",
        "pattern": "Board_0-Net-(U32C-V+)"
      },
      {
        "netclass": "Board_0-Default",
        "pattern": "Board_0-Net-(U37-REFP_A)"
      },
      {
        "netclass": "Board_0-Default",
        "pattern": "Board_0-Net-(U50-ADJ)"
      },
      {
        "netclass": "Board_0-Default",
        "pattern": "Board_0-Net-(U13-EN)"
      },
      {
        "netclass": "Board_0-Default",
        "pattern": "Board_0-Net-(U18A--)"
      },
      {
        "netclass": "Board_0-Default",
        "pattern": "Board_0-Net-(U18B-+)"
      },
      {
        "netclass": "Board_0-Default",
        "pattern": "Board_0-/ADC/SCLK"
      },
      {
        "netclass": "Board_0-Default",
        "pattern": "Board_0-Net-(U8-ADDR1)"
      },
      {
        "netclass": "Board_0-Default",
        "pattern": "Board_0-/FPGA/SD12"
      },
      {
        "netclass": "Board_0-Default",
        "pattern": "Board_0-Net-(C10-Pad1)"
      },
      {
        "netclass": "Board_0-Default",
        "pattern": "Board_0-/Output Sensing/Vdrv+_{clean}"
      },
      {
        "netclass": "Board_0-Default",
        "pattern": "Board_0-/FPGA/ICE40-CDONE"
      },
      {
        "netclass": "Board_0-Default",
        "pattern": "Board_0-/FPGA/SA7"
      },
      {
        "netclass": "Board_0-Default",
        "pattern": "Board_0-unconnected-(U47-PC14-Pad8)"
      },
      {
        "netclass": "Board_0-Default",
        "pattern": "Board_0-Net-(U3-CATHODE)"
      },
      {
        "netclass": "Board_0-Default",
        "pattern": "Board_0-Net-(U47-VCAP_1)"
      },
      {
        "netclass": "Board_0-Default",
        "pattern": "Board_0-Net-(C216-Pad1)"
      },
      {
        "netclass": "Board_0-Default",
        "pattern": "Board_0-unconnected-(U38B-FB2+-Pad8)"
      },
      {
        "netclass": "Board_0-Default",
        "pattern": "Board_0-Net-(D18-A)"
      },
      {
        "netclass": "Board_0-Default",
        "pattern": "Board_0-/MCU/EXT_IN_ENABLE"
      },
      {
        "netclass": "Board_0-Default",
        "pattern": "Board_0-/Output Control/PMOS_G"
      },
      {
        "netclass": "Board_0-Default",
        "pattern": "Board_0-/ADC/ADC_IN3"
      },
      {
        "netclass": "Board_0-Default",
        "pattern": "Board_0-Net-(U46-RBIAS)"
      },
      {
        "netclass": "Board_0-Default",
        "pattern": "Board_0-unconnected-(U47-PB8-Pad95)"
      },
      {
        "netclass": "Board_0-Default",
        "pattern": "Board_0-/MCU/nRST"
      },
      {
        "netclass": "Board_0-Default",
        "pattern": "Board_0-Net-(U22B--)"
      },
      {
        "netclass": "Board_0-Default",
        "pattern": "Board_0-unconnected-(J10-RTCK-Pad7)"
      },
      {
        "netclass": "Board_0-Default",
        "pattern": "Board_0-/FPGA/SD11"
      },
      {
        "netclass": "Board_0-Default",
        "pattern": "Board_0-/FPGA/MEAS_SWITCH_2"
      },
      {
        "netclass": "Board_0-Default",
        "pattern": "Board_0-unconnected-(K1-Pad14)"
      },
      {
        "netclass": "Board_0-Default",
        "pattern": "Board_0-unconnected-(D29-A-Pad3)"
      },
      {
        "netclass": "Board_0-Default",
        "pattern": "Board_0-unconnected-(U52C-NC-Pad124)"
      },
      {
        "netclass": "Board_0-Default",
        "pattern": "Board_0-/FPGA/SA4"
      },
      {
        "netclass": "Board_0-Default",
        "pattern": "Board_0-/MCU/BUTTON"
      },
      {
        "netclass": "Board_0-Default",
        "pattern": "Board_0-/FPGA/SD6"
      },
      {
        "netclass": "Board_0-Default",
        "pattern": "Board_0-/ADC/ADS92X4 #1/REFP{slash}2"
      },
      {
        "netclass": "Board_0-Default",
        "pattern": "Board_0-/MCU/USART1_TX"
      },
      {
        "netclass": "Board_0-Default",
        "pattern": "Board_0-unconnected-(U36B-FB2+-Pad8)"
      },
      {
        "netclass": "Board_0-Default",
        "pattern": "Board_0-/Panel Connectors/PANEL_VSENSE-"
      },
      {
        "netclass": "Board_0-Default",
        "pattern": "Board_0-Net-(U7-VBUS_VS_DISCH)"
      },
      {
        "netclass": "Board_0-Default",
        "pattern": "Board_0-unconnected-(U31-S2-Pad5)"
      },
      {
        "netclass": "Board_0-Default",
        "pattern": "Board_0-Net-(Q28A-S1)"
      },
      {
        "netclass": "Board_0-Default",
        "pattern": "Board_0-Net-(C232-Pad1)"
      },
      {
        "netclass": "Board_0-Default",
        "pattern": "Board_0-/ADC/~{CS1}"
      },
      {
        "netclass": "Board_0-Default",
        "pattern": "Board_0-Net-(R238-Pad1)"
      },
      {
        "netclass": "Board_0-Default",
        "pattern": "Board_0-Net-(D10-K)"
      },
      {
        "netclass": "Board_0-Default",
        "pattern": "Board_0-unconnected-(U8-POWER_OK2-Pad20)"
      },
      {
        "netclass": "Board_0-Default",
        "pattern": "Board_0-Net-(U38A-IN1-)"
      },
      {
        "netclass": "Board_0-Default",
        "pattern": "Board_0-Net-(R249-Pad2)"
      },
      {
        "netclass": "Board_0-Default",
        "pattern": "Board_0-unconnected-(K1-Pad24)"
      },
      {
        "netclass": "Board_0-Default",
        "pattern": "Board_0-/Output Sensing/MUX_IN_RANGE_1"
      },
      {
        "netclass": "Board_0-Default",
        "pattern": "Board_0-Net-(U7-DISCH)"
      },
      {
        "netclass": "Board_0-Default",
        "pattern": "Board_0-Net-(U22A--)"
      },
      {
        "netclass": "Board_0-Default",
        "pattern": "Board_0-Net-(U23C-V-)"
      },
      {
        "netclass": "Board_0-Default",
        "pattern": "Board_0-unconnected-(U16-NC-Pad2)"
      },
      {
        "netclass": "Board_0-Default",
        "pattern": "Board_0-/Output Stage/NMOS_G"
      },
      {
        "netclass": "Board_0-Default",
        "pattern": "Board_0-/FPGA/RANGE_SEL_4"
      },
      {
        "netclass": "Board_0-Default",
        "pattern": "Board_0-/FPGA/SD3"
      },
      {
        "netclass": "Board_0-Default",
        "pattern": "Board_0-/Power+Data Connectors/UD+"
      },
      {
        "netclass": "Board_0-Default",
        "pattern": "Board_0-Net-(U33-Vs+)"
      },
      {
        "netclass": "Board_0-Default",
        "pattern": "Board_0-Net-(U12--IN)"
      },
      {
        "netclass": "Board_0-Default",
        "pattern": "Board_0-Net-(U20C-V+)"
      },
      {
        "netclass": "Board_0-Default",
        "pattern": "Board_0-unconnected-(U52A-NC-Pad77)"
      },
      {
        "netclass": "Board_0-Default",
        "pattern": "Board_0-/Output Sensing/Vdrv-_{clean}"
      },
      {
        "netclass": "Board_0-Default",
        "pattern": "Board_0-Net-(U15-EN)"
      },
      {
        "netclass": "Board_0-Default",
        "pattern": "Board_0-Net-(U15-VOUT)"
      },
      {
        "netclass": "Board_0-Default",
        "pattern": "Board_0-Net-(C287-Pad2)"
      },
      {
        "netclass": "Board_0-Default",
        "pattern": "Board_0-Net-(U37-REFP_B)"
      },
      {
        "netclass": "Board_0-Default",
        "pattern": "Board_0-unconnected-(U16-1P6V-Pad8)"
      },
      {
        "netclass": "Board_0-Default",
        "pattern": "Board_0-unconnected-(U54-B7-Pad12)"
      },
      {
        "netclass": "Board_0-Default",
        "pattern": "Board_0-/FPGA/ICE40-SDI"
      },
      {
        "netclass": "Board_0-Default",
        "pattern": "Board_0-Net-(U8-VREG_1V2)"
      },
      {
        "netclass": "Board_0-Default",
        "pattern": "Board_0-Net-(R248-Pad2)"
      },
      {
        "netclass": "Board_0-Default",
        "pattern": "Board_0-Net-(P2-Vin)"
      },
      {
        "netclass": "Board_0-Default",
        "pattern": "Board_0-unconnected-(J10-TDI-Pad8)"
      },
      {
        "netclass": "Board_0-Default",
        "pattern": "Board_0-Net-(Q27A-S1)"
      },
      {
        "netclass": "Board_0-Default",
        "pattern": "Board_0-unconnected-(U36A-FB1+-Pad2)"
      },
      {
        "netclass": "Board_0-Default",
        "pattern": "Board_0-/FPGA/SD0"
      },
      {
        "netclass": "Board_0-Default",
        "pattern": "Board_0-/Power+Data Connectors/PD Trigger #1/CC2"
      },
      {
        "netclass": "Board_0-Default",
        "pattern": "Board_0-unconnected-(U52C-NC-Pad85)"
      },
      {
        "netclass": "Board_0-Default",
        "pattern": "Board_0-unconnected-(U8-GPIO-Pad15)"
      },
      {
        "netclass": "Board_0-Default",
        "pattern": "Board_0-Net-(U36A-VOCM1)"
      },
      {
        "netclass": "Board_0-Default",
        "pattern": "Board_0-Net-(C107-Pad2)"
      },
      {
        "netclass": "Board_0-Default",
        "pattern": "Board_0-/MCU/DISP_BLK"
      },
      {
        "netclass": "Board_0-Default",
        "pattern": "Board_0-Net-(J25-Pin_3)"
      },
      {
        "netclass": "Board_0-Default",
        "pattern": "Board_0-Net-(U23B--)"
      },
      {
        "netclass": "Board_0-Default",
        "pattern": "Board_0-Net-(U46-REG_EN)"
      },
      {
        "netclass": "Board_0-Default",
        "pattern": "Board_0-unconnected-(J8-SBU1-PadA8)"
      },
      {
        "netclass": "Board_0-Default",
        "pattern": "Board_0-/AUX supply/EN"
      },
      {
        "netclass": "Board_0-Default",
        "pattern": "Board_0-unconnected-(U16-6P4V2-Pad4)"
      },
      {
        "netclass": "Board_0-Default",
        "pattern": "Board_0-Net-(J8-SHIELD)"
      },
      {
        "netclass": "Board_0-Default",
        "pattern": "Board_0-/Isense"
      },
      {
        "netclass": "Board_0-Default",
        "pattern": "Board_0-/MCU/LED_B"
      },
      {
        "netclass": "Board_0-Default",
        "pattern": "Board_0-Net-(C244-Pad1)"
      },
      {
        "netclass": "Board_0-Default",
        "pattern": "Board_0-/FPGA/SA1"
      },
      {
        "netclass": "Board_0-Default",
        "pattern": "Board_0-Net-(Q16-G)"
      },
      {
        "netclass": "Board_0-Default",
        "pattern": "Board_0-/D+"
      },
      {
        "netclass": "Board_0-Default",
        "pattern": "Board_0-Net-(U39-AINM_B)"
      },
      {
        "netclass": "Board_0-Default",
        "pattern": "Board_0-Net-(C74-Pad1)"
      },
      {
        "netclass": "Board_0-Default",
        "pattern": "Board_0-Net-(R192-Pad1)"
      },
      {
        "netclass": "Board_0-Default",
        "pattern": "Board_0-Net-(D41-BA)"
      },
      {
        "netclass": "Board_0-Default",
        "pattern": "Board_0-Net-(U54-B6)"
      },
      {
        "netclass": "Board_0-Default",
        "pattern": "Board_0-/FPGA/SD7"
      },
      {
        "netclass": "Board_0-Default",
        "pattern": "Board_0-/Output Control/SENSE_OFFSET_0"
      },
      {
        "netclass": "Board_0-Default",
        "pattern": "Board_0-/Panel Connectors/GPIO0"
      },
      {
        "netclass": "Board_0-Default",
        "pattern": "Board_0-Net-(U52B-IOR_51)"
      },
      {
        "netclass": "Board_0-Default",
        "pattern": "Board_0-/ADC/SDO-3"
      },
      {
        "netclass": "Board_0-Default",
        "pattern": "Board_0-Net-(J12-Pin_2)"
      },
      {
        "netclass": "Board_0-Default",
        "pattern": "Board_0-Net-(U32C-V-)"
      },
      {
        "netclass": "Board_0-Default",
        "pattern": "Board_0-/FPGA/EXT_GPIO2"
      },
      {
        "netclass": "Board_0-Default",
        "pattern": "Board_0-Net-(C34-Pad1)"
      },
      {
        "netclass": "Board_0-Default",
        "pattern": "Board_0-Net-(U17-ADJ)"
      },
      {
        "netclass": "Board_0-Default",
        "pattern": "Board_0-unconnected-(P1-NC-Pad10)"
      },
      {
        "netclass": "Board_0-Default",
        "pattern": "Board_0-/MCU/SPI1_SCK{slash}SWO"
      },
      {
        "netclass": "Board_0-Default",
        "pattern": "Board_0-Net-(U47-PH0)"
      },
      {
        "netclass": "Board_0-Default",
        "pattern": "Board_0-/Output Sensing/Current Sense Amp #2/IN+"
      },
      {
        "netclass": "Board_0-Default",
        "pattern": "Board_0-Net-(D19-A)"
      },
      {
        "netclass": "Board_0-Default",
        "pattern": "Board_0-/Power+Data Connectors/PD Trigger #2/CC1"
      },
      {
        "netclass": "Board_0-Default",
        "pattern": "Board_0-/ADC/SDO-4"
      },
      {
        "netclass": "Board_0-Default",
        "pattern": "Board_0-/ADC/ADS92X4 #2/REFP{slash}2"
      },
      {
        "netclass": "Board_0-Default",
        "pattern": "Board_0-Net-(Q21A-D1)"
      },
      {
        "netclass": "Board_0-Default",
        "pattern": "Board_0-Net-(R263-Pad2)"
      },
      {
        "netclass": "Board_0-Default",
        "pattern": "Board_0-/FPGA/VCC_SPI"
      },
      {
        "netclass": "Board_0-Default",
        "pattern": "Board_0-Net-(C128-B)"
      },
      {
        "netclass": "Board_0-Default",
        "pattern": "Board_0-/Panel Connectors/PANEL_GPIO4"
      },
      {
        "netclass": "Board_0-Default",
        "pattern": "Board_0-Net-(Q8-G)"
      },
      {
        "netclass": "Board_0-Default",
        "pattern": "Board_0-unconnected-(D31-A-Pad3)"
      },
      {
        "netclass": "Board_0-Default",
        "pattern": "Board_0-/Panel Connectors/PANEL_GPIO3"
      },
      {
        "netclass": "Board_0-Default",
        "pattern": "Board_0-unconnected-(U47-PE15-Pad46)"
      },
      {
        "netclass": "Board_0-Default",
        "pattern": "Board_0-/MCU/VSENSE_USB1"
      },
      {
        "netclass": "Board_0-Default",
        "pattern": "Board_0-/DC-DC Pre-regulator/SS"
      },
      {
        "netclass": "Board_0-Default",
        "pattern": "Board_0-unconnected-(D25-A-Pad3)"
      },
      {
        "netclass": "Board_0-Default",
        "pattern": "Board_0-unconnected-(U7-NC-Pad3)"
      },
      {
        "netclass": "Board_0-Default",
        "pattern": "Board_0-/UI/DISP_MOD_BLK"
      },
      {
        "netclass": "Board_0-Default",
        "pattern": "Board_0-unconnected-(D32-A-Pad3)"
      },
      {
        "netclass": "Board_0-Default",
        "pattern": "Board_0-/Power+Data Connectors/ISO_SCL"
      },
      {
        "netclass": "Board_0-Default",
        "pattern": "Board_0-/MCU/USART1_RX"
      },
      {
        "netclass": "Board_0-Default",
        "pattern": "Board_0-/Power+Data Connectors/PD Trigger #2/CC2"
      },
      {
        "netclass": "Board_0-Default",
        "pattern": "Board_0-PANEL_GND"
      },
      {
        "netclass": "Board_0-Default",
        "pattern": "Board_0-/ADC/SDI"
      },
      {
        "netclass": "Board_0-Default",
        "pattern": "Board_0-unconnected-(U8-POWER_OK3-Pad14)"
      },
      {
        "netclass": "Board_0-Default",
        "pattern": "Board_0-/ADC/MUX_SW"
      },
      {
        "netclass": "Board_0-Default",
        "pattern": "Board_0-unconnected-(Y2-Pad2)"
      },
      {
        "netclass": "Board_0-Default",
        "pattern": "Board_0-unconnected-(U7-GPIO-Pad15)"
      },
      {
        "netclass": "Board_0-Default",
        "pattern": "Board_0-Net-(Q15-G)"
      },
      {
        "netclass": "Board_0-Default",
        "pattern": "Board_0-Net-(R262-Pad1)"
      },
      {
        "netclass": "Board_0-Default",
        "pattern": "Board_0-/FPGA/ICE40-CRESET"
      },
      {
        "netclass": "Board_0-Default",
        "pattern": "Board_0-Net-(Q11-C)"
      },
      {
        "netclass": "Board_0-Default",
        "pattern": "Board_0-Net-(U47-VREF+)"
      },
      {
        "netclass": "Board_0-Default",
        "pattern": "Board_0-unconnected-(U26-EN-Pad1)"
      },
      {
        "netclass": "Board_0-Default",
        "pattern": "Board_0-Net-(U36A-OUT1+)"
      },
      {
        "netclass": "Board_0-Default",
        "pattern": "Board_0-Vdrv+"
      },
      {
        "netclass": "Board_0-Default",
        "pattern": "Board_0-unconnected-(U47-PB9-Pad96)"
      },
      {
        "netclass": "Board_0-Default",
        "pattern": "Board_0-unconnected-(K2-Pad12)"
      },
      {
        "netclass": "Board_0-Default",
        "pattern": "Board_0-/MCU/DISP_RES"
      },
      {
        "netclass": "Board_0-Default",
        "pattern": "Board_0-unconnected-(U52E-VPP_FAST-Pad109)"
      },
      {
        "netclass": "Board_0-Default",
        "pattern": "Board_0-/FPGA/EXT_GPIO0"
      },
      {
        "netclass": "Board_0-Default",
        "pattern": "Board_0-/Output Sensing/RANGE_DRIVE_3"
      },
      {
        "netclass": "Board_0-Default",
        "pattern": "Board_0-Net-(D40-A)"
      },
      {
        "netclass": "Board_0-Default",
        "pattern": "Board_0-Net-(U18A-+)"
      },
      {
        "netclass": "Board_0-Default",
        "pattern": "Board_0-Net-(Q3-G)"
      },
      {
        "netclass": "Board_0-Default",
        "pattern": "Board_0-/Output Stage/NTC2"
      },
      {
        "netclass": "Board_0-Default",
        "pattern": "Board_0-Net-(U21C-V+)"
      },
      {
        "netclass": "Board_0-Default",
        "pattern": "Board_0-unconnected-(U52A-NC-Pad15)"
      },
      {
        "netclass": "Board_0-Default",
        "pattern": "Board_0-/DC-DC Pre-regulator/OPAMP_V+"
      },
      {
        "netclass": "Board_0-Default",
        "pattern": "Board_0-Net-(P1-+Vout)"
      },
      {
        "netclass": "Board_0-Default",
        "pattern": "Board_0-GND"
      },
      {
        "netclass": "Board_0-Default",
        "pattern": "Board_0-/FPGA/SD4"
      },
      {
        "netclass": "Board_0-Default",
        "pattern": "Board_0-VA+"
      },
      {
        "netclass": "Board_0-Default",
        "pattern": "Board_0-/MCU/DISP_MOSI"
      },
      {
        "netclass": "Board_0-Default",
        "pattern": "Board_0-/Output Sensing/RANGE_DRIVE_5"
      },
      {
        "netclass": "Board_0-Default",
        "pattern": "Board_0-unconnected-(J13-Pin_1-Pad1)"
      },
      {
        "netclass": "Board_0-Default",
        "pattern": "Board_0-Net-(U34-S1A)"
      },
      {
        "netclass": "Board_0-Default",
        "pattern": "Board_0-Net-(U33-Vs-)"
      },
      {
        "netclass": "Board_0-Default",
        "pattern": "Board_0-Net-(U32B--)"
      },
      {
        "netclass": "Board_0-Default",
        "pattern": "Board_0-unconnected-(U47-PC13-Pad7)"
      },
      {
        "netclass": "Board_0-Default",
        "pattern": "Board_0-Net-(C14-Pad1)"
      },
      {
        "netclass": "Board_0-Default",
        "pattern": "Board_0-/Output Stage/LOCAL_GND"
      },
      {
        "netclass": "Board_0-Default",
        "pattern": "Board_0-/FPGA/RANGE_SEL_1"
      },
      {
        "netclass": "Board_0-Default",
        "pattern": "Board_0-unconnected-(U52D-NC-Pad131)"
      },
      {
        "netclass": "Board_0-Default",
        "pattern": "Board_0-Net-(R247-Pad2)"
      },
      {
        "netclass": "Board_0-Default",
        "pattern": "Board_0-/MCU/DISP_SCL"
      },
      {
        "netclass": "Board_0-Default",
        "pattern": "Board_0-unconnected-(K2-Pad14)"
      },
      {
        "netclass": "Board_0-Default",
        "pattern": "Board_0-Net-(U16-NR)"
      },
      {
        "netclass": "Board_0-Default",
        "pattern": "Board_0-/DC-DC Pre-regulator/ENABLE"
      },
      {
        "netclass": "Board_0-Default",
        "pattern": "Board_0-Net-(U16-SENSE)"
      },
      {
        "netclass": "Board_0-Default",
        "pattern": "Board_0-/FPGA/FLASH_MOSI"
      },
      {
        "netclass": "Board_0-Default",
        "pattern": "Board_0-/Panel Connectors/PANEL_EXT"
      },
      {
        "netclass": "Board_0-Default",
        "pattern": "Board_0-unconnected-(J7-D--PadB7)"
      },
      {
        "netclass": "Board_0-Default",
        "pattern": "Board_0-Net-(D37-common)"
      },
      {
        "netclass": "Board_0-Default",
        "pattern": "Board_0-unconnected-(U54-A7-Pad9)"
      },
      {
        "netclass": "Board_0-Default",
        "pattern": "Board_0-/MCU/SWCLK"
      },
      {
        "netclass": "Board_0-Default",
        "pattern": "Board_0-Net-(Q24B-D2)"
      },
      {
        "netclass": "Board_0-Default",
        "pattern": "Board_0-Net-(U37-AINP_A)"
      },
      {
        "netclass": "Board_0-Default",
        "pattern": "Board_0-unconnected-(J10-5V-Pad5)"
      },
      {
        "netclass": "Board_0-Default",
        "pattern": "Board_0-unconnected-(U42-NC-Pad3)"
      },
      {
        "netclass": "Board_0-Default",
        "pattern": "Board_0-Net-(C288-B)"
      },
      {
        "netclass": "Board_0-Default",
        "pattern": "Board_0-Net-(R247-Pad1)"
      },
      {
        "netclass": "Board_0-Default",
        "pattern": "Board_0-unconnected-(U52A-NC-Pad18)"
      },
      {
        "netclass": "Board_0-Default",
        "pattern": "Board_0-unconnected-(Y1-Pad2)"
      },
      {
        "netclass": "Board_0-Default",
        "pattern": "Board_0-/AUX supply/Vsense"
      },
      {
        "netclass": "Board_0-Default",
        "pattern": "Board_0-unconnected-(U38A-FB1+-Pad2)"
      },
      {
        "netclass": "Board_0-Default",
        "pattern": "Board_0-/NTC1"
      },
      {
        "netclass": "Board_0-Default",
        "pattern": "Board_0-Net-(C319-Pad1)"
      },
      {
        "netclass": "Board_0-Default",
        "pattern": "Board_0-Net-(U21A-+)"
      },
      {
        "netclass": "Board_0-Default",
        "pattern": "Board_0-+3.3V"
      },
      {
        "netclass": "Board_0-Default",
        "pattern": "Board_0-Net-(U47-PH1)"
      },
      {
        "netclass": "Board_0-Default",
        "pattern": "Board_0-unconnected-(D24-K-Pad1)"
      },
      {
        "netclass": "Board_0-Default",
        "pattern": "Board_0-Net-(R271-Pad1)"
      },
      {
        "netclass": "Board_0-Default",
        "pattern": "Board_0-Net-(Q26A-S1)"
      },
      {
        "netclass": "Board_0-Default",
        "pattern": "Board_0-/VBUS"
      },
      {
        "netclass": "Board_0-Default",
        "pattern": "Board_0-Net-(U51-~{HOLD})"
      },
      {
        "netclass": "Board_0-Default",
        "pattern": "Board_0-/IsetDAC/VOUT2"
      },
      {
        "netclass": "Board_0-Default",
        "pattern": "Board_0-Net-(U43-BOOT)"
      },
      {
        "netclass": "Board_0-Default",
        "pattern": "Board_0-Net-(R269-Pad2)"
      },
      {
        "netclass": "Board_0-Default",
        "pattern": "Board_0-unconnected-(U34-NC-Pad15)"
      },
      {
        "netclass": "Board_0-Default",
        "pattern": "Board_0-/ADC/ADS92X4 #2/IN2-"
      },
      {
        "netclass": "Board_0-Default",
        "pattern": "Board_0-Net-(U46-VBUS)"
      },
      {
        "netclass": "Board_0-Default",
        "pattern": "Board_0-/FPGA/SA5"
      },
      {
        "netclass": "Board_0-Default",
        "pattern": "Board_0-unconnected-(U42-NC-Pad9)"
      },
      {
        "netclass": "Board_0-Default",
        "pattern": "Board_0-Net-(D17-A)"
      },
      {
        "netclass": "Board_0-Default",
        "pattern": "Board_0-/FPGA/QSPI_BK1_IO2"
      },
      {
        "netclass": "Board_0-Default",
        "pattern": "Board_0-/UI/DISP_MOD_RES"
      },
      {
        "netclass": "Board_0-Default",
        "pattern": "Board_0-Net-(Q26A-G1)"
      },
      {
        "netclass": "Board_0-Default",
        "pattern": "Board_0-unconnected-(U16-6P4V1-Pad5)"
      },
      {
        "netclass": "Board_0-Default",
        "pattern": "Board_0-/ADC/SDO-0"
      },
      {
        "netclass": "Board_0-Default",
        "pattern": "Board_0-Net-(U20B--)"
      },
      {
        "netclass": "Board_0-Default",
        "pattern": "Board_0-/MCU/LED_G"
      },
      {
        "netclass": "Board_0-Default",
        "pattern": "Board_0-/DAC_~{CS}"
      },
      {
        "netclass": "Board_0-Default",
        "pattern": "Board_0-Net-(D38-A)"
      },
      {
        "netclass": "Board_0-Default",
        "pattern": "Board_0-Net-(U11-SW)"
      },
      {
        "netclass": "Board_0-Default",
        "pattern": "Board_0-unconnected-(U47-PD7-Pad88)"
      },
      {
        "netclass": "Board_0-Default",
        "pattern": "Board_0-Net-(Q23A-S1)"
      },
      {
        "netclass": "Board_0-Default",
        "pattern": "Board_0-Net-(U55-Vs+)"
      },
      {
        "netclass": "Board_0-Default",
        "pattern": "Board_0-/Output Sensing/RANGE_DRIVE_1"
      },
      {
        "netclass": "Board_0-Default",
        "pattern": "Board_0-UI_GND"
      },
      {
        "netclass": "Board_0-Default",
        "pattern": "Board_0-unconnected-(U16-0P8V-Pad9)"
      },
      {
        "netclass": "Board_0-Default",
        "pattern": "Board_0-/IsetDAC/DAC_VDD"
      },
      {
        "netclass": "Board_0-Default",
        "pattern": "Board_0-Net-(U7-RESET)"
      },
      {
        "netclass": "Board_0-Default",
        "pattern": "Board_0-unconnected-(U46-CPEN-Pad3)"
      },
      {
        "netclass": "Board_0-Default",
        "pattern": "Board_0-Net-(R240-Pad1)"
      },
      {
        "netclass": "Board_0-Default",
        "pattern": "Board_0-Net-(D60-K)"
      },
      {
        "netclass": "Board_0-Default",
        "pattern": "Board_0-/Panel Connectors/PANEL_GPIO2"
      },
      {
        "netclass": "Board_0-Default",
        "pattern": "Board_0-unconnected-(D30-A-Pad3)"
      },
      {
        "netclass": "Board_0-Default",
        "pattern": "Board_0-Net-(Q9-G)"
      },
      {
        "netclass": "Board_0-Default",
        "pattern": "Board_0-Net-(C47-Pad1)"
      },
      {
        "netclass": "Board_0-Default",
        "pattern": "Board_0-Net-(U35-CF+)"
      },
      {
        "netclass": "Board_0-Default",
        "pattern": "Board_0-+5.5V"
      },
      {
        "netclass": "Board_0-Default",
        "pattern": "Board_0-/MCU/USB_ULPI_D7"
      },
      {
        "netclass": "Board_0-Default",
        "pattern": "Board_0-/FPGA/RANGE_SEL_2"
      },
      {
        "netclass": "Board_0-Default",
        "pattern": "Board_0-Net-(U38B-IN2-)"
      },
      {
        "netclass": "Board_0-Default",
        "pattern": "Board_0-/FPGA/SA3"
      },
      {
        "netclass": "Board_0-Default",
        "pattern": "Board_0-/ADC/~{CS2}"
      },
      {
        "netclass": "Board_0-Default",
        "pattern": "Board_0-Net-(U4-VCAP)"
      },
      {
        "netclass": "Board_0-Default",
        "pattern": "Board_0-Net-(U21B--)"
      },
      {
        "netclass": "Board_0-Default",
        "pattern": "Board_0-+5VA"
      },
      {
        "netclass": "Board_0-Default",
        "pattern": "Board_0-unconnected-(U52D-IOL_10A-Pad28)"
      },
      {
        "netclass": "Board_0-Default",
        "pattern": "Board_0-/DC-DC Pre-regulator/VOUT"
      },
      {
        "netclass": "Board_0-Default",
        "pattern": "Board_0-Net-(Q24A-S1)"
      },
      {
        "netclass": "Board_0-Default",
        "pattern": "Board_0-/Output Stage/OUT"
      },
      {
        "netclass": "Board_0-Default",
        "pattern": "Board_0-/UI/DISP_MOD_DC"
      },
      {
        "netclass": "Board_0-Default",
        "pattern": "Board_0-/DC-DC Pre-regulator/SW"
      },
      {
        "netclass": "Board_0-Default",
        "pattern": "Board_0-Net-(D42-A)"
      },
      {
        "netclass": "Board_0-Default",
        "pattern": "Board_0-/MCU/ENC_A"
      },
      {
        "netclass": "Board_0-Default",
        "pattern": "Board_0-Net-(R213-Pad2)"
      },
      {
        "netclass": "Board_0-Default",
        "pattern": "Board_0-Net-(U55-Vs-)"
      },
      {
        "netclass": "Board_0-Default",
        "pattern": "Board_0-/Panel Connectors/AIN_EXT"
      },
      {
        "netclass": "Board_0-Default",
        "pattern": "Board_0-/Output Sensing/IN"
      },
      {
        "netclass": "Board_0-Default",
        "pattern": "Board_0-/FPGA/SA15"
      },
      {
        "netclass": "Board_0-Default",
        "pattern": "Board_0-unconnected-(U8-ALERT-Pad19)"
      },
      {
        "netclass": "Board_0-Default",
        "pattern": "Board_0-unconnected-(Y3-Pad2)"
      },
      {
        "netclass": "Board_0-Default",
        "pattern": "Board_0-/FPGA/RANGE_SEL_5"
      },
      {
        "netclass": "Board_0-Default",
        "pattern": "Board_0-Net-(D43-A)"
      },
      {
        "netclass": "Board_0-Default",
        "pattern": "Board_0-/UI/DISP_MOD_MOSI"
      },
      {
        "netclass": "Board_0-Wide",
        "pattern": "Board_0-GND"
      },
      {
        "netclass": "Board_0-Wide",
        "pattern": "Board_0-V*"
      },
      {
        "netclass": "Board_0-Wide",
        "pattern": "Board_0-*/LOCAL_GND"
      },
      {
        "netclass": "Board_0-Wide",
        "pattern": "Board_0-*VSYS*"
      },
      {
        "netclass": "Board_0-Wide",
        "pattern": "Board_0-+3.3V"
      },
      {
        "netclass": "Board_0-Wide",
        "pattern": "Board_0-+5.5V"
      },
      {
        "netclass": "Board_0-Wide",
        "pattern": "Board_0-VA[+-]"
      },
      {
        "netclass": "Board_0-Wide",
        "pattern": "Board_0-Vdrv[+-]"
      },
      {
        "netclass": "Board_0-Wide",
        "pattern": "Board_0-+5VA"
      },
      {
        "netclass": "Board_0-Wide",
        "pattern": "Board_0-*VSYS"
      },
      {
        "netclass": "Board_0-Wide",
        "pattern": "Board_0-+1V2"
      },
      {
        "netclass": "Board_0-Wide",
        "pattern": "Board_0-/AUX supply/Vout"
      },
      {
        "netclass": "Board_0-Wide",
        "pattern": "Board_0-*VAUX"
      },
      {
        "netclass": "Board_0-Wide",
        "pattern": "Board_0-/Output*/OUT"
      },
      {
        "netclass": "Board_0-Wide",
        "pattern": "Board_0-/Output*/IN"
      },
      {
        "netclass": "Board_0-Wide",
        "pattern": "Board_0-*OS_VBUS+"
      },
      {
        "netclass": "Board_0-Wide",
        "pattern": "Board_0-*EXT_IN"
      },
      {
        "netclass": "Board_0-Wide",
        "pattern": "Board_0-/Panel Connectors/OUT_CONN"
      },
      {
        "netclass": "Board_0-Default",
        "pattern": "Board_0-+1V2"
      },
      {
        "netclass": "Board_0-Default",
        "pattern": "Board_0-+3V3"
      },
      {
        "netclass": "Board_0-Default",
        "pattern": "Board_0-+5V"
      },
      {
        "netclass": "Board_0-Default",
        "pattern": "Board_0-/BUT1"
      },
      {
        "netclass": "Board_0-Default",
        "pattern": "Board_0-/BUT2"
      },
      {
        "netclass": "Board_0-Default",
        "pattern": "Board_0-/EXTCLK"
      },
      {
        "netclass": "Board_0-Default",
        "pattern": "Board_0-/LED1"
      },
      {
        "netclass": "Board_0-Default",
        "pattern": "Board_0-/LED2"
      },
      {
        "netclass": "Board_0-Default",
        "pattern": "Board_0-/PIO2_1"
      },
      {
        "netclass": "Board_0-Default",
        "pattern": "Board_0-/PIO2_2"
      },
      {
        "netclass": "Board_0-Default",
        "pattern": "Board_0-/PIO2_3"
      },
      {
        "netclass": "Board_0-Default",
        "pattern": "Board_0-/PIO2_4"
      },
      {
        "netclass": "Board_0-Default",
        "pattern": "Board_0-/PIO2_5"
      },
      {
        "netclass": "Board_0-Default",
        "pattern": "Board_0-/PIO2_6"
      },
      {
        "netclass": "Board_0-Default",
        "pattern": "Board_0-/PIO2_7"
      },
      {
        "netclass": "Board_0-Default",
        "pattern": "Board_0-/PIO2_8"
      },
      {
        "netclass": "Board_0-Default",
        "pattern": "Board_0-/PIO2_9"
      },
      {
        "netclass": "Board_0-Default",
        "pattern": "Board_0-/PIO3_10A"
      },
      {
        "netclass": "Board_0-Default",
        "pattern": "Board_0-/PIO3_10B"
      },
      {
        "netclass": "Board_0-Default",
        "pattern": "Board_0-/PIO3_12A"
      },
      {
        "netclass": "Board_0-Default",
        "pattern": "Board_0-/PIO3_12B"
      },
      {
        "netclass": "Board_0-Default",
        "pattern": "Board_0-/PIO3_1A"
      },
      {
        "netclass": "Board_0-Default",
        "pattern": "Board_0-/PIO3_1B"
      },
      {
        "netclass": "Board_0-Default",
        "pattern": "Board_0-/PIO3_2A"
      },
      {
        "netclass": "Board_0-Default",
        "pattern": "Board_0-/PIO3_2B"
      },
      {
        "netclass": "Board_0-Default",
        "pattern": "Board_0-/PIO3_3A"
      },
      {
        "netclass": "Board_0-Default",
        "pattern": "Board_0-/PIO3_3B"
      },
      {
        "netclass": "Board_0-Default",
        "pattern": "Board_0-/PIO3_5A"
      },
      {
        "netclass": "Board_0-Default",
        "pattern": "Board_0-/PIO3_5B"
      },
      {
        "netclass": "Board_0-Default",
        "pattern": "Board_0-/PIO3_6A"
      },
      {
        "netclass": "Board_0-Default",
        "pattern": "Board_0-/PIO3_6B"
      },
      {
        "netclass": "Board_0-Default",
        "pattern": "Board_0-/PIO3_7B"
      },
      {
        "netclass": "Board_0-Default",
        "pattern": "Board_0-/PIO3_8A"
      },
      {
        "netclass": "Board_0-Default",
        "pattern": "Board_0-/PIO3_8B"
      },
      {
        "netclass": "Board_0-Default",
        "pattern": "Board_0-/SA0"
      },
      {
        "netclass": "Board_0-Default",
        "pattern": "Board_0-/SA1"
      },
      {
        "netclass": "Board_0-Default",
        "pattern": "Board_0-/SA10"
      },
      {
        "netclass": "Board_0-Default",
        "pattern": "Board_0-/SA11"
      },
      {
        "netclass": "Board_0-Default",
        "pattern": "Board_0-/SA12"
      },
      {
        "netclass": "Board_0-Default",
        "pattern": "Board_0-/SA13"
      },
      {
        "netclass": "Board_0-Default",
        "pattern": "Board_0-/SA14"
      },
      {
        "netclass": "Board_0-Default",
        "pattern": "Board_0-/SA15"
      },
      {
        "netclass": "Board_0-Default",
        "pattern": "Board_0-/SA16"
      },
      {
        "netclass": "Board_0-Default",
        "pattern": "Board_0-/SA17"
      },
      {
        "netclass": "Board_0-Default",
        "pattern": "Board_0-/SA2"
      },
      {
        "netclass": "Board_0-Default",
        "pattern": "Board_0-/SA3"
      },
      {
        "netclass": "Board_0-Default",
        "pattern": "Board_0-/SA4"
      },
      {
        "netclass": "Board_0-Default",
        "pattern": "Board_0-/SA5"
      },
      {
        "netclass": "Board_0-Default",
        "pattern": "Board_0-/SA6"
      },
      {
        "netclass": "Board_0-Default",
        "pattern": "Board_0-/SA7"
      },
      {
        "netclass": "Board_0-Default",
        "pattern": "Board_0-/SA8"
      },
      {
        "netclass": "Board_0-Default",
        "pattern": "Board_0-/SA9"
      },
      {
        "netclass": "Board_0-Default",
        "pattern": "Board_0-/SD0"
      },
      {
        "netclass": "Board_0-Default",
        "pattern": "Board_0-/SD1"
      },
      {
        "netclass": "Board_0-Default",
        "pattern": "Board_0-/SD10"
      },
      {
        "netclass": "Board_0-Default",
        "pattern": "Board_0-/SD11"
      },
      {
        "netclass": "Board_0-Default",
        "pattern": "Board_0-/SD12"
      },
      {
        "netclass": "Board_0-Default",
        "pattern": "Board_0-/SD13"
      },
      {
        "netclass": "Board_0-Default",
        "pattern": "Board_0-/SD14"
      },
      {
        "netclass": "Board_0-Default",
        "pattern": "Board_0-/SD15"
      },
      {
        "netclass": "Board_0-Default",
        "pattern": "Board_0-/SD2"
      },
      {
        "netclass": "Board_0-Default",
        "pattern": "Board_0-/SD3"
      },
      {
        "netclass": "Board_0-Default",
        "pattern": "Board_0-/SD4"
      },
      {
        "netclass": "Board_0-Default",
        "pattern": "Board_0-/SD5"
      },
      {
        "netclass": "Board_0-Default",
        "pattern": "Board_0-/SD6"
      },
      {
        "netclass": "Board_0-Default",
        "pattern": "Board_0-/SD7"
      },
      {
        "netclass": "Board_0-Default",
        "pattern": "Board_0-/SD8"
      },
      {
        "netclass": "Board_0-Default",
        "pattern": "Board_0-/SD9"
      },
      {
        "netclass": "Board_0-Default",
        "pattern": "Board_0-/SRAM_#CS"
      },
      {
        "netclass": "Board_0-Default",
        "pattern": "Board_0-/SRAM_#OE"
      },
      {
        "netclass": "Board_0-Default",
        "pattern": "Board_0-/SRAM_#WE"
      },
      {
        "netclass": "Board_0-Default",
        "pattern": "Board_0-/SYSCLK"
      },
      {
        "netclass": "Board_0-Default",
        "pattern": "Board_0-/iCE40-CDONE"
      },
      {
        "netclass": "Board_0-Default",
        "pattern": "Board_0-/iCE40-CRESET"
      },
      {
        "netclass": "Board_0-Default",
        "pattern": "Board_0-/iCE40-SCK"
      },
      {
        "netclass": "Board_0-Default",
        "pattern": "Board_0-/iCE40-SDI"
      },
      {
        "netclass": "Board_0-Default",
        "pattern": "Board_0-/iCE40-SDO"
      },
      {
        "netclass": "Board_0-Default",
        "pattern": "Board_0-/iCE40-SS_B"
      },
      {
        "netclass": "Board_0-Default",
        "pattern": "Board_0-GND"
      },
      {
        "netclass": "Board_0-Default",
        "pattern": "Board_0-Net-(CDone1-Pad1)"
      },
      {
        "netclass": "Board_0-Default",
        "pattern": "Board_0-Net-(CR1-Pad3)"
      },
      {
        "netclass": "Board_0-Default",
        "pattern": "Board_0-Net-(D2-Pad1)"
      },
      {
        "netclass": "Board_0-Default",
        "pattern": "Board_0-Net-(L1-Pad2)"
      },
      {
        "netclass": "Board_0-Default",
        "pattern": "Board_0-Net-(L2-Pad2)"
      },
      {
        "netclass": "Board_0-Default",
        "pattern": "Board_0-Net-(LED1-Pad1)"
      },
      {
        "netclass": "Board_0-Default",
        "pattern": "Board_0-Net-(LED2-Pad1)"
      },
      {
        "netclass": "Board_0-Default",
        "pattern": "Board_0-Net-(PGM1-Pad3)"
      },
      {
        "netclass": "Board_0-Default",
        "pattern": "Board_0-Net-(PGM1-Pad4)"
      },
      {
        "netclass": "Board_0-Default",
        "pattern": "Board_0-Net-(PWRLED1-Pad2)"
      },
      {
        "netclass": "Board_0-Default",
        "pattern": "Board_0-Net-(R11-Pad2)"
      },
      {
        "netclass": "Board_0-Default",
        "pattern": "Board_0-Net-(R4-Pad1)"
      },
      {
        "netclass": "Board_0-Default",
        "pattern": "Board_0-Net-(R5-Pad1)"
      },
      {
        "netclass": "Board_0-Default",
        "pattern": "Board_0-Net-(R7-Pad1)"
      },
      {
        "netclass": "Board_0-Default",
        "pattern": "Board_0-Net-(U4-Pad76)"
      },
      {
        "netclass": "Board_0-Default",
        "pattern": "Board_0-Net-(U5-Pad28)"
      }
    ]
  },
  "pcbnew": {
    "last_paths": {
      "gencad": "",
      "idf": "",
      "netlist": "",
      "plot": "gerbers/",
      "pos_files": "component position/",
      "specctra_dsn": "",
      "step": "",
      "svg": "",
      "vrml": ""
    },
    "page_layout_descr_file": ""
  },
  "schematic": {
    "legacy_lib_dir": "",
    "legacy_lib_list": []
  },
  "sheets": [],
  "text_variables": {}
}