M48
; DRILL file {KiCad 8.0.3} date 2024-07-10T16:25:10+0200
; FORMAT={-:-/ absolute / metric / decimal}
; #@! TF.CreationDate,2024-07-10T16:25:10+02:00
; #@! TF.GenerationSoftware,Kicad,Pcbnew,8.0.3
; #@! TF.FileFunction,MixedPlating,1,6
FMAT,2
METRIC
; #@! TA.AperFunction,Plated,PTH,ViaDrill
T1C0.400
; #@! TA.AperFunction,Plated,PTH,ComponentDrill
T2C3.500
; #@! TA.AperFunction,NonPlated,NPTH,ComponentDrill
T3C3.200
%
G90
G05
T1
X46.111Y12.908
X46.111Y8.082
X46.111Y3.129
X48.651Y3.129
X48.779Y13.162
X49.794Y3.129
X49.921Y13.162
X50.938Y3.129
X51.064Y13.162
X53.985Y13.162
X53.985Y3.129
X55.128Y13.162
X55.128Y3.129
X56.271Y13.162
X56.271Y3.129
X56.906Y33.355
X57.033Y43.896
X57.033Y42.88
X57.033Y41.864
X57.414Y20.782
X58.049Y43.896
X58.049Y42.88
X58.049Y41.864
X58.049Y33.355
X58.049Y29.418
X58.557Y20.782
X59.066Y43.896
X59.066Y42.88
X59.066Y41.864
X59.192Y33.355
X59.192Y29.418
X59.7Y20.782
X60.081Y43.896
X60.081Y42.88
X60.081Y41.864
X60.335Y29.418
X60.335Y3.002
X60.462Y14.94
X60.462Y13.289
X61.732Y14.94
X61.732Y13.289
X63.002Y14.94
X63.002Y13.289
X63.002Y7.701
X64.272Y14.94
X64.272Y13.289
X64.526Y25.481
X64.653Y23.576
X65.415Y3.002
X65.543Y14.94
X65.543Y13.289
X66.812Y14.94
X66.812Y13.289
X68.082Y14.94
X68.082Y13.289
X69.352Y14.94
X69.352Y13.289
X70.623Y14.94
X70.623Y13.289
X72.147Y33.355
X72.273Y43.769
X72.273Y42.753
X72.273Y41.737
X72.781Y20.782
X73.289Y43.769
X73.289Y42.753
X73.289Y41.737
X73.289Y33.355
X73.289Y29.418
X73.924Y20.782
X74.305Y43.769
X74.305Y42.753
X74.305Y41.737
X74.432Y33.355
X74.432Y29.418
X75.067Y20.782
X75.322Y43.769
X75.322Y42.753
X75.322Y41.737
X75.575Y29.418
X83.069Y38.181
X83.069Y36.53
X87.386Y33.355
X87.513Y43.769
X87.513Y42.753
X87.513Y41.737
X87.894Y20.782
X88.529Y43.769
X88.529Y42.753
X88.529Y41.737
X88.529Y33.355
X88.656Y29.418
X89.037Y20.782
X89.545Y43.769
X89.545Y42.753
X89.545Y41.737
X89.672Y33.355
X89.799Y29.418
X90.18Y20.782
X90.561Y43.769
X90.561Y42.753
X90.561Y41.737
X90.942Y29.418
X100.468Y20.401
X100.468Y19.385
X100.468Y18.242
X100.468Y17.226
T2
X-41.366Y44.241
X-41.366Y0.766
X114.233Y44.266
X114.233Y0.766
T3
X34.433Y35.566
X34.433Y25.566
X112.433Y35.566
X112.433Y25.566
M30
