M48
; DRILL file {KiCad 8.0.3} date 2024-07-13T00:11:48+0200
; FORMAT={-:-/ absolute / inch / decimal}
; #@! TF.CreationDate,2024-07-13T00:11:48+02:00
; #@! TF.GenerationSoftware,Kicad,Pcbnew,8.0.3
; #@! TF.FileFunction,Plated,1,6,PTH
FMAT,2
INCH
; #@! TA.AperFunction,Plated,PTH,ViaDrill
T1C0.0079
; #@! TA.AperFunction,Plated,PTH,ViaDrill
T2C0.0118
; #@! TA.AperFunction,Plated,PTH,ViaDrill
T3C0.0157
; #@! TA.AperFunction,Plated,PTH,ComponentDrill
T4C0.0236
; #@! TA.AperFunction,Plated,PTH,ComponentDrill
T5C0.0394
; #@! TA.AperFunction,Plated,PTH,ComponentDrill
T6C0.0512
; #@! TA.AperFunction,Plated,PTH,ComponentDrill
T7C0.0728
%
G90
G05
T1
X2.8175Y-4.6972
X2.8175Y-4.7272
X2.8175Y-4.7572
X2.8425Y-4.6622
X2.8475Y-4.6958
X2.8475Y-4.7272
X2.8475Y-4.7572
X2.8675Y-4.6736
X2.8836Y-4.8118
X2.895Y-4.5647
X2.9125Y-6.5922
X2.9175Y-6.6872
X2.9325Y-4.5272
X2.9625Y-5.8622
X2.9825Y-4.7012
X2.9925Y-5.8622
X3.0275Y-4.7462
X3.0525Y-5.9572
X3.0575Y-5.8172
X3.0575Y-5.8472
X3.0575Y-5.8772
X3.1125Y-5.8402
X3.1175Y-6.7372
X3.1475Y-6.0422
X3.1575Y-6.5372
X3.1619Y-2.5474
X3.1625Y-4.6672
X3.1819Y-2.5374
X3.1819Y-2.5574
X3.2069Y-2.5374
X3.2069Y-2.5574
X3.2175Y-4.8472
X3.2325Y-2.1622
X3.2695Y-6.0034
X3.2869Y-6.0522
X3.2925Y-5.1922
X3.2925Y-5.9922
X3.3025Y-5.2222
X3.3125Y-6.0522
X3.3325Y-5.2222
X3.3355Y-1.7942
X3.3355Y-1.8202
X3.3415Y-5.9042
X3.3419Y-6.0422
X3.3575Y-6.4322
X3.3575Y-6.4622
X3.3575Y-6.4922
X3.3595Y-5.1622
X3.3595Y-5.7202
X3.3625Y-6.1872
X3.3675Y-6.0422
X3.3825Y-4.7622
X3.3825Y-4.7922
X3.3975Y-5.8672
X3.3986Y-6.0522
X3.4242Y-6.0522
X3.4685Y-5.5132
X3.4715Y-5.7481
X3.4719Y-2.5724
X3.4719Y-2.5924
X3.4875Y-6.0222
X3.4969Y-2.5724
X3.4969Y-2.5924
X3.4975Y-5.5122
X3.5219Y-2.5724
X3.5219Y-2.5924
X3.5402Y-6.1472
X3.5469Y-2.5724
X3.5469Y-2.5924
X3.5575Y-5.9722
X3.5794Y-5.7481
X3.5825Y-6.3122
X3.5915Y-5.5512
X3.5925Y-5.5802
X3.6255Y-5.5762
X3.6275Y-6.6222
X3.6275Y-6.7222
X3.6425Y-6.1272
X3.6475Y-6.1572
X3.658Y-5.9696
X3.6585Y-5.9982
X3.6595Y-6.0252
X3.6595Y-6.0512
X3.6595Y-6.0772
X3.7053Y-6.0793
X3.7325Y-5.9172
X3.7365Y-6.0622
X3.7375Y-6.1372
X3.7425Y-5.945
X3.7524Y-6.5682
X3.7525Y-5.8972
X3.7525Y-6.5422
X3.7525Y-6.5952
X3.7525Y-6.6242
X3.7525Y-6.6512
X3.7675Y-6.0822
X3.7725Y-5.8722
X3.7725Y-6.2072
X3.7875Y-6.6722
X3.7925Y-4.2322
X3.7925Y-5.0672
X3.7975Y-4.8622
X3.7975Y-4.9172
X3.8123Y-4.367
X3.8123Y-4.402
X3.8125Y-4.4722
X3.8175Y-5.0272
X3.8225Y-4.5368
X3.8225Y-4.5722
X3.8425Y-6.4772
X3.8459Y-2.5574
X3.8525Y-6.2622
X3.8639Y-2.5454
X3.8639Y-2.5674
X3.8825Y-5.8072
X3.8859Y-2.5454
X3.8869Y-2.5674
X3.8875Y-6.3172
X3.9125Y-5.7786
X3.9125Y-5.8072
X3.9135Y-6.3412
X3.9275Y-5.8672
X3.9275Y-6.0772
X3.9275Y-6.1072
X3.9375Y-6.2622
X3.9525Y-4.4022
X3.9625Y-5.8472
X3.9775Y-4.4972
X3.9875Y-6.4172
X3.9925Y-5.8272
X4.0575Y-5.7722
X4.0575Y-5.8002
X4.1249Y-4.4432
X4.1249Y-4.5022
X4.1249Y-4.5416
X4.1249Y-4.581
X4.1249Y-4.6204
X4.1249Y-4.6597
X4.1325Y-4.7188
X4.1505Y-4.8292
X4.1544Y-2.5774
X4.1544Y-2.5974
X4.1549Y-4.4234
X4.1549Y-4.4826
X4.1549Y-4.5613
X4.1549Y-4.6007
X4.1549Y-4.64
X4.1549Y-4.6991
X4.1569Y-4.7778
X4.162Y-4.1374
X4.1755Y-4.8062
X4.1794Y-2.5774
X4.1794Y-2.5974
X4.1819Y-4.1824
X4.1889Y-4.7574
X4.2044Y-2.5774
X4.2044Y-2.5974
X4.2175Y-4.3822
X4.2211Y-4.1374
X4.2294Y-2.5774
X4.2294Y-2.5974
X4.2408Y-4.1824
X4.2605Y-4.1374
X4.2802Y-4.1824
X4.2998Y-4.1323
X4.3195Y-4.1532
X4.3385Y-4.1322
X4.3585Y-4.1542
X4.3589Y-4.8634
X4.3775Y-6.4722
X4.3775Y-6.5172
X4.3775Y-6.5545
X4.3785Y-4.1292
X4.3789Y-4.8354
X4.3869Y-5.3154
X4.3989Y-4.8634
X4.4335Y-4.1542
X4.4425Y-6.4972
X4.4575Y-4.1322
X4.4799Y-5.5874
X4.4829Y-5.3154
X4.4855Y-1.6542
X4.5029Y-4.8574
X4.5114Y-5.3074
X4.5129Y-5.5874
X4.5275Y-6.1022
X4.5325Y-6.3922
X4.5325Y-6.4222
X4.5349Y-4.8574
X4.5352Y-1.5048
X4.5365Y-4.1292
X4.5429Y-5.3074
X4.5429Y-5.5874
X4.5475Y-1.6742
X4.5525Y-6.1422
X4.5525Y-6.2622
X4.5665Y-4.1292
X4.5744Y-5.3074
X4.5749Y-5.5874
X4.5955Y-4.1542
X4.6349Y-4.1234
X4.6349Y-4.1514
X4.6689Y-5.2934
X4.6689Y-5.5874
X4.6729Y-4.1294
X4.6729Y-4.1574
X4.6925Y-3.9142
X4.6929Y-3.9454
X4.7004Y-5.2934
X4.7004Y-5.5874
X4.7125Y-3.98
X4.7129Y-4.0074
X4.7319Y-5.2934
X4.7319Y-5.5874
X4.7345Y-3.9162
X4.7349Y-3.9454
X4.7529Y-3.9762
X4.7529Y-4.0074
X4.7634Y-5.2934
X4.7634Y-5.5874
X4.792Y-4.0152
X4.7925Y-3.9752
X4.8075Y-4.7392
X4.8117Y-3.9454
X4.8159Y-4.7774
X4.8169Y-4.6593
X4.8169Y-4.6994
X4.8179Y-4.6203
X4.8225Y-3.9212
X4.8225Y-4.4812
X4.8235Y-4.5072
X4.8235Y-4.8074
X4.8245Y-4.8472
X4.8269Y-5.2934
X4.8269Y-5.3214
X4.8329Y-4.0074
X4.8395Y-4.5982
X4.8415Y-4.7184
X4.8425Y-4.6404
X4.8425Y-4.6794
X4.8519Y-4.8074
X4.8519Y-4.8474
X4.8549Y-4.0274
X4.8565Y-4.4632
X4.8575Y-4.4372
X4.8575Y-5.5022
X4.8579Y-5.2934
X4.8589Y-5.3214
X4.8889Y-5.2934
X4.8889Y-5.3214
X4.9045Y-3.7852
X4.9209Y-5.2934
X4.9209Y-5.3214
X4.9363Y-3.7851
X4.9429Y-3.8782
X4.9529Y-5.2934
X4.9529Y-5.3214
X4.9575Y-5.8522
X4.9745Y-3.8782
X5.0625Y-5.8522
X5.1319Y-4.9324
X5.1319Y-4.9602
X5.1351Y-2.2072
X5.1594Y-5.9892
X5.1775Y-2.2022
X5.2019Y-4.6024
X5.2119Y-4.2024
X5.2119Y-4.2302
X5.2219Y-4.4824
X5.2419Y-4.5374
X5.2565Y-4.2302
X5.2569Y-4.2024
X5.2765Y-5.0482
X5.2769Y-5.0224
X5.2805Y-4.4772
X5.2869Y-4.9602
X5.2869Y-4.9874
X5.2919Y-4.5474
X5.3019Y-4.2024
X5.3025Y-4.2302
X5.3469Y-4.2024
X5.3469Y-4.2302
X5.3619Y-4.7274
X5.3869Y-4.2024
X5.3875Y-4.2292
X5.3969Y-4.7274
X5.4269Y-4.2024
X5.4269Y-4.2302
X5.4615Y-4.2302
X5.4619Y-4.2024
X5.4969Y-4.2024
X5.4975Y-4.2302
X5.5395Y-3.9672
X5.5475Y-2.2022
X5.5675Y-3.9272
X5.5705Y-4.0072
X5.5719Y-3.9674
X5.5725Y-3.5622
X5.5825Y-2.2022
X5.6045Y-4.0082
X5.6055Y-3.9332
X5.6119Y-4.2274
X5.6185Y-4.2002
X5.6369Y-3.9324
X5.6435Y-4.0082
X5.6715Y-4.2782
X5.6719Y-4.0074
X5.6719Y-4.2524
X5.8535Y-1.6702
X5.8535Y-1.7262
X5.8575Y-5.2522
X5.9043Y-4.892
X5.905Y-4.8512
X5.9895Y-5.9942
X6.0369Y-4.7935
X6.0369Y-4.9435
X6.1119Y-4.9238
X6.1345Y-3.1054
X6.1375Y-3.8072
X6.1519Y-4.8585
X6.1969Y-3.0432
X6.1969Y-3.1054
X6.1975Y-3.1682
X6.2019Y-4.0224
X6.2269Y-4.7785
X6.2272Y-5.0106
X6.2305Y-4.0222
X6.2519Y-4.8775
X6.2595Y-3.1062
X6.2839Y-4.9105
X6.3075Y-2.3522
X6.3325Y-2.4472
X6.3575Y-5.8572
X6.3943Y-4.1709
X6.395Y-4.1301
X6.4019Y-2.5124
X6.4375Y-5.7872
X6.4499Y-2.2264
X6.4509Y-2.2744
X6.4509Y-2.3014
X6.4819Y-4.7485
X6.4819Y-4.9835
X6.4825Y-2.5122
X6.4925Y-6.1522
X6.4925Y-6.1872
X6.5255Y-6.4162
X6.5255Y-6.4442
X6.5269Y-4.0724
X6.5269Y-4.2224
X6.5515Y-6.4162
X6.5515Y-6.4442
X6.5675Y-5.8272
X6.5795Y-6.4162
X6.5795Y-6.4442
X6.598Y-5.7619
X6.6019Y-4.2027
X6.6075Y-2.8796
X6.6075Y-6.4162
X6.6075Y-6.4442
X6.6275Y-5.8272
X6.6419Y-4.1374
X6.6667Y-4.8533
X6.6667Y-4.9522
X6.7169Y-4.0574
X6.7172Y-4.2895
X6.7419Y-4.1564
X6.7739Y-4.1894
X6.8675Y-6.4365
X6.8685Y-6.4585
X6.8905Y-6.4365
X6.8905Y-6.4585
X6.9045Y-4.8824
X6.9085Y-6.4465
X6.9125Y-1.3122
X6.9369Y-4.8824
X6.9469Y-5.0424
X6.9719Y-4.0274
X6.9719Y-4.2624
X7.0125Y-1.3122
X7.0375Y-5.5374
X7.0459Y-4.9514
X7.0459Y-5.0024
X7.0475Y-2.8072
X7.0515Y-4.8252
X7.0519Y-4.7974
X7.0675Y-5.5372
X7.1025Y-5.4772
X7.1025Y-5.5072
X7.1275Y-3.4072
X7.1275Y-5.9022
X7.1325Y-3.3772
X7.1369Y-4.7672
X7.1369Y-4.7974
X7.1409Y-4.135
X7.1425Y-6.3472
X7.1449Y-4.2098
X7.1569Y-5.0674
X7.1575Y-5.9022
X7.1669Y-5.0424
X7.1739Y-4.8224
X7.1742Y-4.8734
X7.1742Y-4.8994
X7.1742Y-4.9244
X7.2719Y-1.7874
X7.2729Y-4.3374
X7.2919Y-4.3574
X7.3515Y-2.3322
X7.3575Y-6.4022
X7.3621Y-1.83
X7.3725Y-4.0272
X7.3895Y-2.2922
X7.3929Y-5.0174
X7.3929Y-5.0452
X7.4345Y-4.9994
X7.4375Y-4.9572
X7.4575Y-6.4022
X7.4669Y-4.9574
X7.4669Y-4.9994
X7.4725Y-2.1422
X7.4811Y-3.7822
X7.5569Y-1.5624
X7.5575Y-6.4022
X7.5725Y-1.5272
X7.5869Y-5.0044
X7.6069Y-1.3874
X7.6575Y-6.4022
X7.6719Y-4.7394
X7.6719Y-4.7694
X7.6719Y-4.7988
X7.6719Y-4.8344
X7.6719Y-5.1072
X7.6825Y-5.4472
X7.7319Y-5.5474
X7.7575Y-2.2872
X7.7575Y-6.4022
X7.7575Y-6.5672
X7.8975Y-2.2122
X7.9275Y-5.1822
X7.9325Y-5.2872
X7.9575Y-2.4172
X7.9625Y-2.0022
X8.1269Y-3.5444
X8.1269Y-4.1944
X8.1269Y-4.5094
X8.1319Y-3.8794
X8.1319Y-4.8244
X8.2625Y-1.6972
X8.2869Y-3.8774
X8.2869Y-4.1924
X8.2869Y-4.5124
X8.2869Y-4.8324
X8.2969Y-3.5424
X8.3224Y-1.3074
X8.3269Y-3.2424
X8.3269Y-3.9174
X8.3269Y-4.2374
X8.3269Y-4.5524
X8.3269Y-4.8724
X8.3315Y-3.6175
X8.3324Y-1.2524
X8.4024Y-2.2674
X8.7549Y-3.0302
T2
X3.0325Y-2.3922
X3.1069Y-2.6374
X3.3793Y-2.8269
X3.4555Y-1.1042
X3.6319Y-1.3174
X3.6715Y-1.0882
X3.6769Y-1.3174
X3.6775Y-1.5152
X3.6799Y-2.4274
X3.7819Y-2.6454
X3.8469Y-1.0717
X3.8469Y-1.2793
X3.8919Y-1.0824
X4.0069Y-1.4874
X4.0639Y-2.8154
X4.0907Y-1.0224
X4.1498Y-1.0192
X4.1888Y-0.9909
X4.2019Y-1.7374
X4.2019Y-1.6974
X4.2369Y-1.6974
X4.2369Y-1.7374
X4.2405Y-1.0032
X4.2719Y-1.6974
X4.2719Y-1.7374
X4.3069Y-1.6974
X4.5169Y-1.3274
X4.6469Y-1.7222
X4.6769Y-1.0464
X4.6769Y-1.0964
X4.6969Y-1.2764
X4.8569Y-1.4864
X4.8869Y-1.0064
X4.9869Y-1.0064
X5.0019Y-1.8274
X5.4719Y-1.5175
X6.3619Y-2.5124
X6.4419Y-2.5124
X6.5019Y-1.7824
X6.5219Y-2.5124
X6.5845Y-2.2572
X6.6119Y-2.3274
X6.6419Y-2.5124
X6.6819Y-2.5124
X6.7119Y-2.2924
X6.7169Y-2.3524
T3
X2.8575Y-4.8572
X2.8575Y-4.9072
X2.8775Y-4.6272
X2.8775Y-6.5372
X2.8775Y-6.6372
X2.9025Y-4.9383
X2.9739Y-4.4697
X2.9975Y-1.4922
X3.0075Y-4.5322
X3.0175Y-1.0072
X3.0375Y-1.6072
X3.0425Y-1.9922
X3.0539Y-4.5847
X3.0544Y-1.7474
X3.0769Y-1.1774
X3.0819Y-2.5874
X3.0885Y-4.3682
X3.1039Y-4.5847
X3.1103Y-6.145
X3.1103Y-6.185
X3.1153Y-5.625
X3.1155Y-4.8322
X3.1319Y-2.9474
X3.1369Y-1.3724
X3.1369Y-1.4224
X3.1443Y-2.4219
X3.1539Y-4.8747
X3.1569Y-1.5024
X3.1569Y-1.5474
X3.1669Y-2.5974
X3.1669Y-2.7174
X3.1669Y-2.8124
X3.1819Y-0.9024
X3.1825Y-1.0472
X3.1953Y-6.3
X3.2169Y-2.6424
X3.2219Y-2.9474
X3.2253Y-5.55
X3.2275Y-5.1222
X3.2405Y-4.9347
X3.2419Y-2.5974
X3.2425Y-1.9422
X3.2567Y-4.6658
X3.2569Y-2.6424
X3.2575Y-4.5072
X3.2753Y-6.16
X3.2805Y-1.4224
X3.2839Y-4.5847
X3.2853Y-5.585
X3.2925Y-5.5122
X3.2975Y-6.5822
X3.3025Y-1.5072
X3.3346Y-4.9772
X3.3569Y-2.6074
X3.3569Y-2.6424
X3.3653Y-6.575
X3.3745Y-6.3342
X3.3869Y-4.6774
X3.3953Y-6.76
X3.4019Y-2.2324
X3.4025Y-1.1922
X3.4069Y-2.4254
X3.4103Y-6.405
X3.4269Y-1.3074
X3.4269Y-1.3574
X3.4325Y-1.7272
X3.4453Y-6.74
X3.4514Y-0.8768
X3.4519Y-3.6574
X3.4603Y-6.405
X3.4625Y-6.1782
X3.4669Y-4.0024
X3.4719Y-2.4254
X3.4725Y-6.7872
X3.4975Y-3.0272
X3.5019Y-1.4224
X3.5069Y-3.2424
X3.5075Y-5.0642
X3.5269Y-2.4274
X3.5275Y-3.6562
X3.5469Y-3.2624
X3.5525Y-3.0272
X3.5875Y-1.0042
X3.5919Y-2.4274
X3.5995Y-1.2842
X3.6069Y-3.9774
X3.6103Y-6.42
X3.6369Y-2.4774
X3.6369Y-2.5324
X3.6369Y-2.5824
X3.6369Y-2.6424
X3.6369Y-2.6974
X3.6369Y-2.7674
X3.6384Y-6.315
X3.6581Y-6.1972
X3.6619Y-3.7724
X3.7003Y-6.41
X3.7069Y-1.5674
X3.7103Y-6.49
X3.7155Y-0.9808
X3.7175Y-0.9142
X3.7569Y-1.2874
X3.7703Y-6.47
X3.7769Y-3.7724
X3.8025Y-4.9672
X3.8103Y-6.365
X3.8169Y-2.9424
X3.8299Y-2.4254
X3.8419Y-0.8874
X3.8419Y-2.6124
X3.8419Y-2.7174
X3.8419Y-2.8124
X3.8503Y-5.555
X3.8669Y-1.3374
X3.8669Y-1.4074
X3.8775Y-1.7122
X3.8799Y-1.5374
X3.8853Y-5.705
X3.8853Y-6.175
X3.9019Y-2.9424
X3.9069Y-1.6574
X3.9175Y-6.5072
X3.9203Y-5.665
X3.9245Y-4.4626
X3.9245Y-4.5226
X3.9245Y-4.6776
X3.9269Y-1.1474
X3.9269Y-1.2174
X3.9269Y-2.6124
X3.9269Y-2.6474
X3.9327Y-6.1769
X3.9738Y-4.6283
X3.9753Y-6.175
X3.9803Y-5.605
X3.9845Y-4.8876
X3.9925Y-5.6772
X3.9969Y-1.4474
X3.9975Y-4.8422
X4.0029Y-5.0054
X4.0109Y-4.7514
X4.0169Y-1.1174
X4.0169Y-1.6774
X4.0269Y-3.9724
X4.0419Y-1.7774
X4.0459Y-2.6064
X4.0459Y-2.6414
X4.0469Y-1.1474
X4.0819Y-3.3074
X4.0819Y-3.3574
X4.0819Y-3.4074
X4.0819Y-3.4824
X4.0819Y-3.5324
X4.0819Y-3.5824
X4.0819Y-3.6324
X4.0819Y-3.6824
X4.0819Y-3.7324
X4.0869Y-1.7774
X4.0919Y-2.4274
X4.0945Y-3.9876
X4.1135Y-3.2112
X4.1225Y-4.1422
X4.1309Y-5.0554
X4.1319Y-1.7774
X4.1319Y-3.7324
X4.1345Y-4.3732
X4.1369Y-1.7074
X4.1565Y-3.2112
X4.1569Y-2.4274
X4.1689Y-5.0576
X4.1712Y-3.3624
X4.1819Y-3.7324
X4.1985Y-3.2112
X4.2119Y-2.4294
X4.2125Y-4.0022
X4.2175Y-4.4472
X4.2319Y-3.7324
X4.2455Y-3.2112
X4.2525Y-3.9772
X4.2583Y-3.1009
X4.2769Y-2.4294
X4.2819Y-3.6814
X4.2819Y-3.7324
X4.2935Y-3.2112
X4.2969Y-1.1174
X4.3075Y-3.4172
X4.3219Y-2.4794
X4.3219Y-2.5344
X4.3219Y-2.5844
X4.3219Y-2.6444
X4.3219Y-2.6994
X4.3219Y-2.7694
X4.3319Y-3.7324
X4.3385Y-3.2112
X4.3425Y-4.2372
X4.3604Y-3.1009
X4.3805Y-3.2112
X4.3819Y-3.2824
X4.3819Y-3.3324
X4.3819Y-3.3824
X4.3819Y-3.4324
X4.3819Y-3.4824
X4.3819Y-3.5324
X4.3819Y-3.5824
X4.3819Y-3.6324
X4.3819Y-3.6824
X4.3849Y-5.0254
X4.3995Y-4.1562
X4.4275Y-5.0692
X4.4395Y-3.9276
X4.4775Y-4.3572
X4.4775Y-4.7222
X4.4815Y-3.9672
X4.4819Y-3.3324
X4.4819Y-3.3824
X4.4819Y-3.4324
X4.4819Y-3.4824
X4.4819Y-3.5324
X4.4819Y-3.5824
X4.4819Y-3.6324
X4.4819Y-3.6824
X4.4819Y-3.7324
X4.4875Y-5.1322
X4.4895Y-4.0072
X4.4925Y-3.0872
X4.5175Y-6.2122
X4.5175Y-6.3372
X4.5275Y-6.6222
X4.5319Y-3.3324
X4.5319Y-3.7324
X4.5345Y-3.9276
X4.5365Y-4.9832
X4.5535Y-5.0252
X4.5669Y-1.5664
X4.5819Y-3.3324
X4.5819Y-3.7324
X4.5825Y-4.3572
X4.5869Y-2.7424
X4.5869Y-3.2074
X4.5929Y-3.8674
X4.5929Y-3.9534
X4.5945Y-4.8626
X4.5976Y-5.8654
X4.6016Y-5.1714
X4.6025Y-5.1122
X4.6056Y-5.2854
X4.6069Y-1.2864
X4.6236Y-5.6134
X4.6319Y-3.3324
X4.6319Y-3.7324
X4.6469Y-1.7622
X4.6476Y-3.9181
X4.6736Y-5.8694
X4.6769Y-0.8864
X4.6808Y-2.7274
X4.6808Y-3.0274
X4.6819Y-3.3324
X4.7169Y-1.3364
X4.7172Y-1.4064
X4.7175Y-3.7222
X4.7239Y-1.5364
X4.7275Y-1.9424
X4.7369Y-1.1464
X4.7369Y-1.2164
X4.7435Y-3.4574
X4.7545Y-4.8576
X4.7569Y-1.6564
X4.7648Y-6.1322
X4.765Y-6.2497
X4.7819Y-3.3324
X4.7819Y-3.7324
X4.7887Y-3.6524
X4.7925Y-5.8372
X4.7967Y-6.0032
X4.8069Y-1.1164
X4.8069Y-1.1564
X4.8281Y-2.3674
X4.8281Y-2.4924
X4.8319Y-3.3324
X4.8319Y-3.7324
X4.8337Y-3.4574
X4.8469Y-1.4464
X4.8469Y-1.7222
X4.8469Y-4.7524
X4.8756Y-5.9132
X4.8819Y-3.3824
X4.8819Y-3.4324
X4.8819Y-3.4824
X4.8819Y-3.5324
X4.8819Y-3.5824
X4.8819Y-3.6324
X4.8819Y-3.6824
X4.8819Y-3.3324
X4.8819Y-3.7324
X4.8875Y-4.9872
X4.8881Y-2.3674
X4.8881Y-2.4924
X4.9125Y-1.7072
X4.9417Y-5.7982
X4.9431Y-2.3674
X4.9431Y-2.4924
X4.9456Y-5.9752
X4.962Y-4.2275
X4.9739Y-4.5934
X4.9749Y-4.5544
X4.9806Y-6.0045
X4.9875Y-5.7972
X5.0075Y-4.9822
X5.0369Y-4.8424
X5.0375Y-3.3272
X5.0565Y-4.2462
X5.0595Y-4.7376
X5.0606Y-5.9095
X5.0795Y-4.3192
X5.0869Y-1.1164
X5.1029Y-3.8054
X5.1075Y-5.2172
X5.1219Y-4.7974
X5.1225Y-5.2722
X5.1263Y-5.8219
X5.1425Y-6.0157
X5.1451Y-1.9424
X5.1555Y-3.9291
X5.1575Y-6.0922
X5.1825Y-6.0157
X5.1919Y-4.2724
X5.1919Y-4.3174
X5.1958Y-2.7972
X5.1958Y-3.0124
X5.2169Y-0.8864
X5.2175Y-6.0372
X5.2269Y-2.4624
X5.2358Y-3.0124
X5.2565Y-6.0822
X5.2565Y-6.3622
X5.2575Y-6.2222
X5.2769Y-2.4624
X5.2829Y-3.7414
X5.2875Y-5.9171
X5.3066Y-2.6924
X5.3066Y-3.3124
X5.3119Y-4.6374
X5.3269Y-2.4624
X5.3309Y-3.7374
X5.3366Y-2.7324
X5.3366Y-2.8124
X5.3366Y-2.8624
X5.3366Y-2.9124
X5.3366Y-2.9624
X5.3366Y-3.0124
X5.3366Y-3.1124
X5.3366Y-3.1624
X5.3366Y-3.2124
X5.3366Y-3.2624
X5.3419Y-5.0874
X5.3476Y-2.6924
X5.3476Y-3.3124
X5.3575Y-5.8021
X5.3575Y-6.0121
X5.3769Y-2.4624
X5.3802Y-3.558
X5.3852Y-3.778
X5.3869Y-2.9224
X5.3869Y-2.9624
X5.3902Y-3.663
X5.3976Y-2.6924
X5.3976Y-3.3124
X5.4369Y-2.7874
X5.4373Y-4.5354
X5.4423Y-5.1004
X5.4469Y-3.0674
X5.4476Y-2.6924
X5.4476Y-3.3124
X5.4523Y-4.5754
X5.4525Y-5.9372
X5.4684Y-4.8693
X5.4769Y-1.4753
X5.4923Y-5.1504
X5.4969Y-3.2074
X5.4969Y-3.2474
X5.4976Y-2.6924
X5.4976Y-3.3124
X5.5002Y-3.508
X5.5002Y-3.558
X5.5269Y-1.5864
X5.5476Y-2.6924
X5.5476Y-3.3124
X5.555Y-1.9424
X5.5619Y-2.9174
X5.5675Y-5.1022
X5.5719Y-3.2674
X5.5825Y-5.8272
X5.5969Y-1.4964
X5.5976Y-2.6924
X5.5976Y-3.3124
X5.6023Y-4.6004
X5.6323Y-5.1354
X5.6323Y-5.1704
X5.6469Y-3.8554
X5.6476Y-2.6924
X5.6476Y-3.3124
X5.6525Y-2.9322
X5.6531Y-2.3674
X5.6531Y-2.4924
X5.6625Y-3.2522
X5.6725Y-4.3722
X5.6969Y-4.5774
X5.6976Y-2.6924
X5.6976Y-3.3124
X5.7125Y-6.3622
X5.7131Y-2.3674
X5.7131Y-2.4924
X5.7275Y-5.4591
X5.7373Y-4.8504
X5.7373Y-4.9104
X5.7383Y-4.4019
X5.7476Y-2.6924
X5.7476Y-2.8124
X5.7476Y-2.8624
X5.7476Y-2.9124
X5.7476Y-2.9624
X5.7476Y-3.0124
X5.7476Y-3.0624
X5.7476Y-3.2124
X5.7476Y-3.2624
X5.7476Y-3.3124
X5.7625Y-5.6341
X5.7681Y-2.3674
X5.7681Y-2.4924
X5.7773Y-4.7754
X5.7773Y-4.9754
X5.7773Y-5.0954
X5.7785Y-4.3877
X5.7833Y-3.7719
X5.7883Y-4.3369
X5.7983Y-3.8119
X5.8144Y-4.1058
X5.8383Y-4.3869
X5.8454Y-4.7759
X5.8483Y-4.9689
X5.8569Y-2.2924
X5.8569Y-2.3424
X5.8575Y-3.4172
X5.8575Y-5.5041
X5.8975Y-4.3372
X5.8975Y-5.8212
X5.8975Y-5.8633
X5.8975Y-5.9022
X5.9031Y-2.7574
X5.9031Y-2.8074
X5.9031Y-2.8574
X5.9031Y-2.9074
X5.9031Y-2.9574
X5.9031Y-3.0074
X5.9031Y-3.1574
X5.9031Y-3.2074
X5.9031Y-3.4574
X5.9031Y-3.5074
X5.9169Y-2.2924
X5.9169Y-2.3424
X5.9175Y-5.5541
X5.9237Y-5.7834
X5.9325Y-6.0772
X5.9369Y-1.8074
X5.9369Y-1.8724
X5.9369Y-1.9374
X5.9369Y-2.0024
X5.9369Y-2.0624
X5.9369Y-2.1194
X5.9483Y-3.7969
X5.9483Y-3.8369
X5.9519Y-2.4524
X5.9519Y-2.5774
X5.9531Y-2.7574
X5.9531Y-3.5074
X5.9783Y-4.3719
X5.9783Y-4.4069
X5.9819Y-2.1424
X5.9969Y-1.8074
X5.9975Y-5.6341
X6.0031Y-2.7574
X6.0031Y-3.5074
X6.0119Y-2.4524
X6.0119Y-2.5774
X6.0269Y-2.1424
X6.0393Y-4.862
X6.0419Y-3.8113
X6.0531Y-2.7574
X6.0531Y-3.5074
X6.0669Y-1.8074
X6.0669Y-2.4524
X6.0669Y-2.5774
X6.0725Y-5.6091
X6.0769Y-2.1424
X6.0819Y-4.8235
X6.0833Y-4.0869
X6.0833Y-4.1469
X6.1219Y-2.1424
X6.1219Y-4.8235
X6.1233Y-4.0119
X6.1233Y-4.2119
X6.1233Y-4.3319
X6.1425Y-2.7122
X6.1519Y-1.8824
X6.1519Y-1.9374
X6.1519Y-5.0985
X6.1525Y-5.3841
X6.1531Y-3.5074
X6.1569Y-1.0164
X6.1569Y-4.6885
X6.1669Y-1.1824
X6.1669Y-1.2324
X6.1669Y-1.2824
X6.1669Y-1.3324
X6.1669Y-1.3824
X6.1669Y-1.4324
X6.1669Y-1.4824
X6.1669Y-1.5324
X6.1669Y-1.5824
X6.1675Y-5.6841
X6.1719Y-2.1624
X6.2031Y-2.7574
X6.2031Y-3.5074
X6.2119Y-2.1624
X6.2119Y-5.0985
X6.2169Y-1.5824
X6.2169Y-4.6885
X6.2281Y-2.8624
X6.2469Y-1.0624
X6.2469Y-1.1274
X6.2469Y-1.1874
X6.2469Y-1.2474
X6.2469Y-1.4074
X6.2469Y-2.1974
X6.2531Y-2.7574
X6.2531Y-3.5074
X6.2625Y-5.6841
X6.2669Y-1.5824
X6.2731Y-3.3574
X6.2769Y-1.8824
X6.2769Y-1.9374
X6.2775Y-6.2622
X6.2831Y-2.9474
X6.2925Y-3.8422
X6.3031Y-2.7574
X6.3031Y-3.5074
X6.3225Y-6.2622
X6.3319Y-5.0235
X6.3319Y-5.0635
X6.3354Y-4.0559
X6.3369Y-4.2474
X6.3369Y-4.7235
X6.3369Y-4.7635
X6.3519Y-1.8424
X6.3519Y-1.8824
X6.3519Y-1.9374
X6.3519Y-1.9774
X6.3519Y-2.0324
X6.3519Y-2.0724
X6.3529Y-2.5574
X6.3529Y-2.6074
X6.3529Y-2.6574
X6.3531Y-2.7574
X6.3531Y-2.8074
X6.3531Y-2.8574
X6.3531Y-2.9074
X6.3531Y-2.9574
X6.3531Y-3.0574
X6.3531Y-3.1574
X6.3531Y-3.2074
X6.3531Y-3.2574
X6.3531Y-3.3074
X6.3531Y-3.3574
X6.3531Y-3.4574
X6.3531Y-3.5074
X6.3575Y-5.5822
X6.3575Y-5.6841
X6.3625Y-5.1622
X6.3741Y-5.3841
X6.4019Y-4.9635
X6.4029Y-2.5574
X6.4275Y-5.4191
X6.4275Y-5.5941
X6.4369Y-2.6274
X6.4419Y-4.9635
X6.4425Y-6.2622
X6.4425Y-6.3072
X6.4425Y-6.3572
X6.4425Y-6.4072
X6.4425Y-6.4572
X6.4425Y-6.6172
X6.4529Y-2.5574
X6.4529Y-3.2074
X6.4575Y-5.2822
X6.4675Y-5.8522
X6.4769Y-4.8935
X6.4869Y-2.6574
X6.4975Y-6.6172
X6.5029Y-2.5574
X6.5029Y-3.2074
X6.5119Y-2.7824
X6.5225Y-5.8122
X6.528Y-5.6469
X6.5293Y-4.1409
X6.548Y-5.6969
X6.5529Y-2.5574
X6.5529Y-3.2074
X6.5575Y-6.0072
X6.5575Y-6.6172
X6.5719Y-4.1024
X6.6029Y-2.5574
X6.6029Y-3.2074
X6.6119Y-4.1024
X6.6125Y-6.6172
X6.6225Y-3.9674
X6.6419Y-4.3774
X6.6529Y-2.5574
X6.6529Y-3.2074
X6.6675Y-6.6172
X6.668Y-5.6469
X6.6927Y-3.9674
X6.7019Y-4.3774
X6.7029Y-2.5574
X6.7029Y-3.2074
X6.7073Y-6.3929
X6.7529Y-3.2074
X6.7919Y-1.5824
X6.7919Y-2.3094
X6.7919Y-2.3594
X6.7919Y-2.4094
X6.7919Y-2.4594
X6.7919Y-2.5094
X6.7969Y-2.6024
X6.8029Y-2.5574
X6.8029Y-3.2074
X6.8125Y-1.3022
X6.8219Y-4.3024
X6.8219Y-4.3424
X6.8219Y-4.8824
X6.8219Y-5.0274
X6.8263Y-6.3869
X6.8269Y-4.0024
X6.8375Y-4.0422
X6.8419Y-1.5824
X6.8419Y-2.3094
X6.8419Y-2.7324
X6.8529Y-2.5574
X6.8529Y-3.2074
X6.8675Y-4.4122
X6.8819Y-5.0274
X6.8869Y-2.7624
X6.8919Y-1.5824
X6.8919Y-2.3094
X6.8919Y-4.2424
X6.9029Y-2.5574
X6.9029Y-3.2074
X6.9113Y-6.1919
X6.9113Y-6.2869
X6.9319Y-4.2424
X6.9319Y-4.9974
X6.9419Y-1.5824
X6.9419Y-2.3094
X6.9475Y-4.5572
X6.9529Y-2.5574
X6.9529Y-2.7074
X6.9529Y-2.7574
X6.9529Y-2.8074
X6.9529Y-2.8574
X6.9529Y-2.9074
X6.9529Y-2.9574
X6.9529Y-3.0074
X6.9529Y-3.0574
X6.9529Y-3.1074
X6.9529Y-3.2074
X6.9669Y-4.1724
X6.9725Y-3.4422
X6.9725Y-3.5072
X6.9775Y-6.3572
X6.9919Y-1.5824
X6.9919Y-2.3094
X7.0419Y-1.5824
X7.0419Y-2.3094
X7.0471Y-2.8499
X7.0471Y-2.9099
X7.0475Y-6.1722
X7.0625Y-6.5922
X7.0675Y-6.5372
X7.0919Y-1.5824
X7.0919Y-2.3094
X7.1025Y-5.6672
X7.1075Y-6.0222
X7.1116Y-5.3822
X7.1325Y-6.2422
X7.1369Y-3.9774
X7.1369Y-4.2874
X7.1419Y-1.5824
X7.1419Y-1.6594
X7.1419Y-1.7094
X7.1419Y-1.7594
X7.1419Y-1.8094
X7.1419Y-1.8594
X7.1419Y-1.9094
X7.1419Y-1.9594
X7.1419Y-2.0094
X7.1419Y-2.0594
X7.1419Y-2.1094
X7.1419Y-2.1594
X7.1419Y-2.2594
X7.1419Y-2.3094
X7.1475Y-2.5722
X7.1575Y-2.3872
X7.1575Y-2.4372
X7.2019Y-2.0324
X7.2075Y-2.4372
X7.2225Y-3.3272
X7.2375Y-2.5222
X7.2375Y-6.0672
X7.2375Y-6.1722
X7.2544Y-5.4355
X7.2544Y-5.6155
X7.2575Y-2.4372
X7.2644Y-5.3705
X7.2644Y-5.6805
X7.2714Y-2.0824
X7.2714Y-2.2924
X7.2719Y-3.4244
X7.2719Y-3.4744
X7.2719Y-3.5244
X7.2719Y-3.5744
X7.2719Y-3.6244
X7.2719Y-3.7744
X7.2719Y-3.8244
X7.2719Y-3.8744
X7.2719Y-3.9244
X7.2969Y-1.9174
X7.3019Y-1.2574
X7.3019Y-2.0324
X7.3075Y-2.4372
X7.3075Y-4.8072
X7.3169Y-4.7224
X7.3175Y-3.3272
X7.3219Y-1.1274
X7.3219Y-3.3744
X7.3219Y-3.9744
X7.3519Y-2.0324
X7.3595Y-6.7062
X7.3633Y-3.333
X7.3719Y-3.9744
X7.3798Y-3.773
X7.3853Y-3.575
X7.397Y-3.5
X7.4019Y-2.0324
X7.4025Y-4.9362
X7.4075Y-2.4372
X7.4214Y-2.0874
X7.4219Y-3.3244
X7.4245Y-4.4592
X7.4269Y-4.6994
X7.4269Y-5.0694
X7.4269Y-5.1194
X7.4269Y-5.1744
X7.4275Y-5.3722
X7.4375Y-3.9172
X7.4398Y-3.778
X7.4519Y-2.0324
X7.4575Y-2.4372
X7.4595Y-6.7062
X7.468Y-4.819
X7.4719Y-3.9744
X7.4719Y-4.6994
X7.4719Y-5.1744
X7.4775Y-5.7722
X7.5075Y-2.2072
X7.5075Y-2.4372
X7.5207Y-4.934
X7.5207Y-5.0414
X7.5219Y-4.6994
X7.5219Y-5.1744
X7.5275Y-1.8072
X7.5275Y-3.0872
X7.5298Y-3.373
X7.5325Y-1.9222
X7.5469Y-1.1524
X7.5519Y-2.0324
X7.5525Y-5.2872
X7.5575Y-2.4372
X7.5595Y-6.7062
X7.5719Y-3.9744
X7.5719Y-4.6994
X7.5719Y-5.1744
X7.5749Y-4.4475
X7.5895Y-1.7872
X7.6025Y-5.7772
X7.6069Y-2.0324
X7.6075Y-2.1022
X7.6075Y-2.4374
X7.6198Y-3.783
X7.6219Y-3.3244
X7.6219Y-3.9744
X7.6219Y-4.6994
X7.6219Y-5.1744
X7.6419Y-1.7024
X7.6569Y-2.0324
X7.657Y-3.5
X7.6575Y-2.4374
X7.6575Y-5.2822
X7.6575Y-6.7072
X7.6619Y-1.1124
X7.6669Y-1.9174
X7.6675Y-4.6472
X7.6716Y-3.575
X7.6719Y-3.3244
X7.6719Y-4.6994
X7.6719Y-5.1744
X7.6794Y-5.5255
X7.6819Y-1.2974
X7.6848Y-3.773
X7.6899Y-2.2146
X7.7075Y-2.4374
X7.7219Y-3.3244
X7.7219Y-3.4244
X7.7219Y-3.9744
X7.7319Y-1.2974
X7.7569Y-1.0924
X7.7569Y-2.0324
X7.7569Y-2.0874
X7.7569Y-2.1374
X7.7569Y-2.1874
X7.7569Y-2.2374
X7.7569Y-2.3374
X7.7569Y-2.3874
X7.7569Y-2.4374
X7.7595Y-1.8492
X7.7619Y-3.3244
X7.7619Y-3.3744
X7.7619Y-3.4244
X7.7619Y-3.6644
X7.7619Y-3.7744
X7.7619Y-3.8244
X7.7619Y-3.8744
X7.7619Y-3.9244
X7.7619Y-3.9744
X7.7619Y-4.0244
X7.7619Y-4.0744
X7.7619Y-4.1244
X7.7619Y-4.1744
X7.7619Y-4.2244
X7.7619Y-4.2744
X7.7619Y-4.3744
X7.7619Y-4.4244
X7.7619Y-4.4744
X7.7619Y-4.5244
X7.7619Y-4.5744
X7.7619Y-4.6244
X7.7619Y-4.6744
X7.7619Y-4.9244
X7.7619Y-4.9744
X7.7619Y-5.0244
X7.7619Y-5.0744
X7.7924Y-1.7174
X7.8069Y-1.0924
X7.8219Y-5.0994
X7.8569Y-1.0924
X7.8719Y-5.1494
X7.8719Y-5.1994
X7.8719Y-5.2744
X7.8719Y-5.3244
X7.8719Y-5.4494
X7.8719Y-5.4994
X7.9069Y-1.0924
X7.92Y-2.4297
X7.9215Y-6.4062
X7.9215Y-6.4862
X7.9215Y-6.5602
X7.9215Y-6.6322
X7.9219Y-5.5494
X7.9269Y-5.2338
X7.9275Y-5.4772
X7.9406Y-5.4193
X7.9569Y-1.0924
X7.9655Y-6.4062
X7.9719Y-5.0994
X7.9719Y-5.5494
X7.9919Y-1.3574
X7.9924Y-1.7074
X7.9924Y-2.0472
X7.9924Y-2.3924
X7.9925Y-1.4122
X7.9925Y-1.7622
X7.9925Y-2.1022
X7.9975Y-2.4549
X8.0069Y-1.0924
X8.0095Y-6.4062
X8.0219Y-5.0994
X8.0219Y-5.5494
X8.0569Y-1.0924
X8.0569Y-2.4874
X8.0595Y-6.4062
X8.0595Y-6.5602
X8.0669Y-1.1674
X8.0674Y-1.5174
X8.0674Y-1.8572
X8.0674Y-2.2024
X8.0719Y-5.0994
X8.0719Y-5.5494
X8.1069Y-1.0924
X8.1069Y-2.4874
X8.1095Y-6.4062
X8.1106Y-5.4893
X8.1206Y-5.2043
X8.1219Y-5.0994
X8.1219Y-5.3244
X8.1569Y-1.0924
X8.1569Y-2.4874
X8.1569Y-3.37
X8.1619Y-3.745
X8.1619Y-4.0424
X8.1619Y-4.3624
X8.1619Y-4.6774
X8.1619Y-4.9974
X8.1719Y-5.0994
X8.1719Y-5.5494
X8.2069Y-1.0924
X8.2069Y-1.3674
X8.2069Y-2.4874
X8.2074Y-1.7174
X8.2074Y-2.0572
X8.2075Y-2.3872
X8.2095Y-6.4062
X8.2155Y-6.1942
X8.2219Y-5.0994
X8.2219Y-5.5494
X8.2369Y-3.655
X8.2369Y-3.9524
X8.2369Y-4.2724
X8.2369Y-4.5874
X8.2369Y-4.9074
X8.2426Y-3.2742
X8.2569Y-1.0924
X8.2569Y-2.4874
X8.2575Y-6.4062
X8.2719Y-5.0994
X8.2719Y-5.5494
X8.2806Y-5.2943
X8.2824Y-1.5274
X8.2824Y-1.8672
X8.2824Y-2.2124
X8.2825Y-1.4722
X8.2825Y-1.8222
X8.2825Y-2.1572
X8.2873Y-1.1374
X8.2895Y-3.7469
X8.2915Y-4.0442
X8.2925Y-1.1872
X8.2935Y-4.6842
X8.2975Y-3.3702
X8.2975Y-4.3642
X8.2975Y-5.0042
X8.3069Y-1.0924
X8.3069Y-2.4874
X8.3074Y-2.3524
X8.3075Y-6.4062
X8.3169Y-5.2194
X8.3219Y-5.5494
X8.3569Y-1.0924
X8.3569Y-2.4874
X8.3595Y-6.4062
X8.3719Y-5.1494
X8.3719Y-5.1994
X8.3719Y-5.2494
X8.3719Y-5.2994
X8.3719Y-5.3494
X8.3719Y-5.3994
X8.3719Y-5.4994
X8.3719Y-5.5494
X8.3783Y-5.451
X8.4069Y-1.0924
X8.4069Y-2.4874
X8.4095Y-6.4062
X8.4569Y-1.0924
X8.4569Y-2.4874
X8.5069Y-1.0924
X8.5069Y-1.1474
X8.5069Y-1.1974
X8.5069Y-1.2474
X8.5069Y-1.2974
X8.5069Y-1.3474
X8.5069Y-1.3974
X8.5069Y-1.4474
X8.5069Y-1.4974
X8.5069Y-1.5474
X8.5069Y-1.5974
X8.5069Y-1.6474
X8.5069Y-1.6974
X8.5069Y-1.7474
X8.5069Y-1.7974
X8.5069Y-1.8474
X8.5069Y-1.8974
X8.5069Y-1.9474
X8.5069Y-1.9974
X8.5069Y-2.0474
X8.5069Y-2.0974
X8.5069Y-2.1474
X8.5069Y-2.1974
X8.5069Y-2.2474
X8.5069Y-2.2974
X8.5069Y-2.3424
X8.5069Y-2.3874
X8.5069Y-2.4374
X8.5069Y-2.4874
X8.5435Y-6.9022
X8.5925Y-2.9722
X8.6615Y-5.2162
X8.6615Y-5.4602
X8.6675Y-2.7772
X8.6715Y-6.8982
X8.6835Y-6.8002
X8.7024Y-6.4972
X8.7115Y-5.2162
X8.7115Y-5.4602
X8.7125Y-2.7772
X8.7175Y-3.0302
T5
X2.8973Y-6.2922
X2.9973Y-6.2922
X3.3275Y-5.4072
X3.4275Y-5.4072
X3.5275Y-5.4072
X5.1877Y-5.6322
X5.2877Y-5.6322
T6
X3.5135Y-1.8798
X3.5135Y-2.175
X4.1143Y-1.8798
X4.1143Y-2.175
X4.3127Y-1.8798
X4.3127Y-2.175
X4.5111Y-1.8798
X4.5111Y-2.175
X7.3885Y-2.6746
X7.3885Y-2.9698
X7.9893Y-2.6746
X7.9893Y-2.9698
X8.1877Y-2.6746
X8.1877Y-2.9698
X8.3861Y-2.6746
X8.3861Y-2.9698
T7
X3.0475Y-7.0672
X3.3125Y-1.0772
X3.3225Y-7.0672
X3.6025Y-7.0672
X6.9475Y-2.4322
X8.7325Y-3.7622
T4
G00X3.9895Y-0.8959
M15
G01X3.9895Y-0.8644
M16
G05
G00X3.9895Y-1.0664
M15
G01X3.9895Y-1.0231
M16
G05
G00X4.3297Y-0.8959
M15
G01X4.3297Y-0.8644
M16
G05
G00X4.3297Y-1.0664
M15
G01X4.3297Y-1.0231
M16
G05
G00X4.7769Y-0.8959
M15
G01X4.7769Y-0.8644
M16
G05
G00X4.7769Y-1.0664
M15
G01X4.7769Y-1.0231
M16
G05
G00X5.1171Y-0.8959
M15
G01X5.1171Y-0.8644
M16
G05
G00X5.1171Y-1.0664
M15
G01X5.1171Y-1.0231
M16
G05
T5
G00X5.5572Y-0.9914
M15
G01X5.5572Y-0.9324
M16
G05
G00X5.76Y-1.0013
M15
G01X5.7088Y-1.0013
M16
G05
G00X5.7738Y-1.2375
M15
G01X5.695Y-1.2375
M16
G05
G00X5.9116Y-0.9914
M15
G01X5.9116Y-0.9324
M16
G05
M30
