(module LOGO (layer F.Cu)
  (at 0 0)
 (fp_text reference "G***" (at 0 0) (layer F.SilkS) hide
  (effects (font (thickness 0.3)))
  )
  (fp_text value "LOGO" (at 0.75 0) (layer F.SilkS) hide
  (effects (font (thickness 0.3)))
  )
  (fp_poly (pts (xy -2.063114 -1.808128) (xy -2.063024 -1.752922) (xy -2.062936 -1.695691) (xy -2.062850 -1.636711) (xy -2.062766 -1.576255) (xy -2.062685 -1.514597) (xy -2.062607 -1.452013) (xy -2.062532 -1.388776)
     (xy -2.062460 -1.325161) (xy -2.062392 -1.261442) (xy -2.062328 -1.197894) (xy -2.062268 -1.134791) (xy -2.062212 -1.072407) (xy -2.062161 -1.011017) (xy -2.062115 -0.950895) (xy -2.062074 -0.892316)
     (xy -2.062039 -0.835554) (xy -2.062010 -0.780883) (xy -2.061986 -0.728578) (xy -2.061969 -0.678912) (xy -2.061958 -0.632162) (xy -2.061954 -0.588600) (xy -2.061954 -0.053987) (xy -2.280806 -0.053987)
     (xy -2.281966 0.495896) (xy -2.282069 0.547121) (xy -2.282170 0.601299) (xy -2.282269 0.658058) (xy -2.282363 0.717025) (xy -2.282455 0.777828) (xy -2.282542 0.840094) (xy -2.282625 0.903452)
     (xy -2.282702 0.967528) (xy -2.282775 1.031951) (xy -2.282842 1.096347) (xy -2.282903 1.160346) (xy -2.282957 1.223573) (xy -2.283005 1.285658) (xy -2.283045 1.346227) (xy -2.283078 1.404908)
     (xy -2.283102 1.461329) (xy -2.283118 1.515117) (xy -2.283125 1.565900) (xy -2.283126 1.579701) (xy -2.283130 1.625093) (xy -2.283142 1.670812) (xy -2.283161 1.716650) (xy -2.283188 1.762403)
     (xy -2.283222 1.807864) (xy -2.283262 1.852829) (xy -2.283309 1.897090) (xy -2.283361 1.940442) (xy -2.283419 1.982679) (xy -2.283482 2.023596) (xy -2.283551 2.062986) (xy -2.283623 2.100645)
     (xy -2.283701 2.136365) (xy -2.283782 2.169942) (xy -2.283866 2.201169) (xy -2.283954 2.229841) (xy -2.284045 2.255752) (xy -2.284139 2.278695) (xy -2.284235 2.298466) (xy -2.284285 2.307219)
     (xy -2.285443 2.500816) (xy -2.612272 2.500816) (xy -2.612272 -0.055729) (xy -2.392842 -0.055729) (xy -2.392842 -2.499074) (xy -2.064274 -2.499074) (xy -2.063114 -1.808128) )(layer F.Mask) (width  0.010000)
  )
  (fp_poly (pts (xy 2.612273 -0.053987) (xy 2.392842 -0.053987) (xy 2.392842 2.500816) (xy 2.063696 2.500816) (xy 2.063696 -0.055703) (xy 2.283998 -0.056599) (xy 2.284434 -1.277837) (xy 2.284871 -2.499074)
     (xy 2.612273 -2.499074) (xy 2.612273 -0.053987) )(layer F.Mask) (width  0.010000)
  )
  (fp_poly (pts (xy -0.456719 -2.247861) (xy -0.450672 -2.241498) (xy -0.444738 -2.235156) (xy -0.439859 -2.229847) (xy -0.438255 -2.228060) (xy -0.431899 -2.220884) (xy -0.431025 -0.455406) (xy -0.427386 -0.455406)
     (xy -0.425070 -0.456662) (xy -0.420350 -0.460425) (xy -0.413231 -0.466689) (xy -0.403722 -0.475447) (xy -0.391829 -0.486694) (xy -0.377558 -0.500423) (xy -0.369045 -0.508692) (xy -0.344300 -0.532726)
     (xy -0.321730 -0.554475) (xy -0.301086 -0.574151) (xy -0.282117 -0.591969) (xy -0.264570 -0.608139) (xy -0.248196 -0.622875) (xy -0.232743 -0.636390) (xy -0.217959 -0.648895) (xy -0.203594 -0.660605)
     (xy -0.189397 -0.671731) (xy -0.175116 -0.682486) (xy -0.160501 -0.693083) (xy -0.145299 -0.703735) (xy -0.129261 -0.714653) (xy -0.113198 -0.725349) (xy -0.094393 -0.737621) (xy -0.077631 -0.748218)
     (xy -0.062175 -0.757563) (xy -0.047289 -0.766080) (xy -0.032237 -0.774195) (xy -0.016281 -0.782330) (xy -0.002612 -0.789022) (xy 0.047607 -0.811663) (xy 0.098066 -0.831188) (xy 0.149040 -0.847657)
     (xy 0.200799 -0.861131) (xy 0.253618 -0.871670) (xy 0.307770 -0.879334) (xy 0.363526 -0.884184) (xy 0.421161 -0.886280) (xy 0.437991 -0.886381) (xy 0.487582 -0.885288) (xy 0.534691 -0.882024)
     (xy 0.579598 -0.876541) (xy 0.622581 -0.868793) (xy 0.663921 -0.858731) (xy 0.703896 -0.846308) (xy 0.730566 -0.836438) (xy 0.771957 -0.818265) (xy 0.811469 -0.797186) (xy 0.849037 -0.773268)
     (xy 0.884596 -0.746579) (xy 0.918082 -0.717185) (xy 0.949428 -0.685154) (xy 0.978571 -0.650554) (xy 1.005445 -0.613451) (xy 1.029985 -0.573913) (xy 1.052126 -0.532007) (xy 1.071804 -0.487801)
     (xy 1.075007 -0.479788) (xy 1.091538 -0.433702) (xy 1.105909 -0.385135) (xy 1.118070 -0.334374) (xy 1.127973 -0.281708) (xy 1.135566 -0.227427) (xy 1.140800 -0.171820) (xy 1.143625 -0.115177)
     (xy 1.144145 -0.079674) (xy 1.144176 -0.053987) (xy 0.924745 -0.053987) (xy 0.924745 0.618306) (xy 0.924750 0.685398) (xy 0.924763 0.749013) (xy 0.924786 0.809160) (xy 0.924819 0.865845)
     (xy 0.924860 0.919076) (xy 0.924911 0.968860) (xy 0.924971 1.015203) (xy 0.925041 1.058114) (xy 0.925120 1.097600) (xy 0.925208 1.133667) (xy 0.925306 1.166323) (xy 0.925413 1.195575)
     (xy 0.925529 1.221430) (xy 0.925655 1.243895) (xy 0.925790 1.262977) (xy 0.925935 1.278685) (xy 0.926089 1.291024) (xy 0.926253 1.300002) (xy 0.926427 1.305627) (xy 0.926547 1.307511)
     (xy 0.930514 1.335633) (xy 0.936201 1.360916) (xy 0.943756 1.383632) (xy 0.953328 1.404051) (xy 0.965065 1.422443) (xy 0.979115 1.439079) (xy 0.995627 1.454228) (xy 1.014749 1.468163)
     (xy 1.029321 1.476791) (xy 1.047065 1.485706) (xy 1.067693 1.494791) (xy 1.090917 1.503928) (xy 1.116451 1.513000) (xy 1.144007 1.521890) (xy 1.153133 1.524655) (xy 1.165579 1.527893)
     (xy 1.180807 1.531077) (xy 1.198118 1.534099) (xy 1.216811 1.536855) (xy 1.236185 1.539237) (xy 1.255541 1.541140) (xy 1.267823 1.542071) (xy 1.275643 1.542650) (xy 1.282638 1.543280)
     (xy 1.287732 1.543858) (xy 1.289157 1.544083) (xy 1.293946 1.545001) (xy 1.293946 1.715392) (xy 0.048763 1.715392) (xy 0.048763 1.545001) (xy 0.053552 1.544083) (xy 0.057583 1.543522)
     (xy 0.063846 1.542883) (xy 0.071097 1.542290) (xy 0.072273 1.542207) (xy 0.081495 1.541547) (xy 0.093521 1.540649) (xy 0.107682 1.539563) (xy 0.123311 1.538344) (xy 0.139741 1.537042)
     (xy 0.156304 1.535712) (xy 0.172333 1.534405) (xy 0.186343 1.533242) (xy 0.217710 1.530045) (xy 0.245977 1.525943) (xy 0.271428 1.520857) (xy 0.294346 1.514707) (xy 0.315014 1.507416)
     (xy 0.333717 1.498905) (xy 0.350737 1.489095) (xy 0.354399 1.486678) (xy 0.371872 1.472804) (xy 0.387661 1.456079) (xy 0.401588 1.436791) (xy 0.413472 1.415230) (xy 0.423133 1.391685)
     (xy 0.430394 1.366447) (xy 0.431221 1.362736) (xy 0.431862 1.359794) (xy 0.432467 1.357039) (xy 0.433035 1.354365) (xy 0.433569 1.351667) (xy 0.434070 1.348841) (xy 0.434537 1.345781)
     (xy 0.434974 1.342383) (xy 0.435380 1.338541) (xy 0.435757 1.334150) (xy 0.436105 1.329106) (xy 0.436427 1.323304) (xy 0.436722 1.316638) (xy 0.436993 1.309004) (xy 0.437240 1.300296)
     (xy 0.437464 1.290410) (xy 0.437667 1.279241) (xy 0.437849 1.266683) (xy 0.438012 1.252632) (xy 0.438156 1.236983) (xy 0.438283 1.219630) (xy 0.438394 1.200469) (xy 0.438490 1.179395)
     (xy 0.438572 1.156303) (xy 0.438641 1.131088) (xy 0.438698 1.103644) (xy 0.438745 1.073868) (xy 0.438782 1.041653) (xy 0.438810 1.006896) (xy 0.438831 0.969490) (xy 0.438846 0.929331)
     (xy 0.438855 0.886314) (xy 0.438861 0.840335) (xy 0.438863 0.791287) (xy 0.438863 0.683568) (xy 0.438862 0.627460) (xy 0.438862 -0.055703) (xy 0.659164 -0.056599) (xy 0.658807 -0.081851)
     (xy 0.656975 -0.126303) (xy 0.652712 -0.168384) (xy 0.645933 -0.208300) (xy 0.636554 -0.246256) (xy 0.624488 -0.282458) (xy 0.609651 -0.317109) (xy 0.591957 -0.350416) (xy 0.571320 -0.382583)
     (xy 0.547657 -0.413816) (xy 0.520881 -0.444319) (xy 0.498753 -0.466795) (xy 0.479734 -0.484457) (xy 0.461451 -0.499664) (xy 0.443025 -0.513049) (xy 0.423580 -0.525244) (xy 0.402236 -0.536882)
     (xy 0.399678 -0.538184) (xy 0.368922 -0.552066) (xy 0.337348 -0.562942) (xy 0.304403 -0.570978) (xy 0.275250 -0.575658) (xy 0.266682 -0.576630) (xy 0.258233 -0.577331) (xy 0.249235 -0.577780)
     (xy 0.239023 -0.577997) (xy 0.226931 -0.578002) (xy 0.212292 -0.577813) (xy 0.205589 -0.577688) (xy 0.171818 -0.576459) (xy 0.140611 -0.574106) (xy 0.111202 -0.570532) (xy 0.082827 -0.565639)
     (xy 0.054719 -0.559327) (xy 0.047021 -0.557353) (xy 0.040100 -0.555539) (xy 0.033986 -0.553949) (xy 0.029890 -0.552897) (xy 0.029606 -0.552825) (xy 0.020980 -0.550445) (xy 0.010105 -0.547055)
     (xy -0.003278 -0.542569) (xy -0.019423 -0.536903) (xy -0.033959 -0.531659) (xy -0.063464 -0.520181) (xy -0.093516 -0.507101) (xy -0.123540 -0.492732) (xy -0.152961 -0.477385) (xy -0.181203 -0.461373)
     (xy -0.207690 -0.445006) (xy -0.231849 -0.428598) (xy -0.251649 -0.413632) (xy -0.271948 -0.396973) (xy -0.289981 -0.381299) (xy -0.306271 -0.366043) (xy -0.321340 -0.350640) (xy -0.335708 -0.334522)
     (xy -0.349900 -0.317125) (xy -0.364435 -0.297882) (xy -0.379838 -0.276228) (xy -0.384185 -0.269935) (xy -0.391078 -0.259885) (xy -0.396737 -0.251578) (xy -0.401709 -0.244187) (xy -0.406544 -0.236886)
     (xy -0.411790 -0.228850) (xy -0.417994 -0.219253) (xy -0.422925 -0.211594) (xy -0.431886 -0.197662) (xy -0.431891 -0.125825) (xy -0.431895 -0.053987) (xy -0.651374 -0.053987) (xy -0.650326 1.307007)
     (xy -0.646504 1.324321) (xy -0.640830 1.347103) (xy -0.634429 1.367006) (xy -0.627063 1.384600) (xy -0.618494 1.400453) (xy -0.608765 1.414765) (xy -0.594798 1.431247) (xy -0.578522 1.446556)
     (xy -0.559751 1.460805) (xy -0.538297 1.474111) (xy -0.513972 1.486588) (xy -0.486590 1.498352) (xy -0.455962 1.509517) (xy -0.452794 1.510578) (xy -0.423150 1.519398) (xy -0.390878 1.527081)
     (xy -0.356686 1.533490) (xy -0.321282 1.538489) (xy -0.293886 1.541270) (xy -0.285050 1.542049) (xy -0.276974 1.542824) (xy -0.270576 1.543502) (xy -0.266887 1.543974) (xy -0.261227 1.544882)
     (xy -0.261227 1.715392) (xy -1.506410 1.715392) (xy -1.506410 1.544882) (xy -1.500750 1.543969) (xy -1.497063 1.543519) (xy -1.490385 1.542851) (xy -1.481202 1.542006) (xy -1.469997 1.541025)
     (xy -1.457254 1.539950) (xy -1.443457 1.538822) (xy -1.429089 1.537681) (xy -1.414635 1.536569) (xy -1.406273 1.535944) (xy -1.383395 1.533836) (xy -1.360193 1.530919) (xy -1.337282 1.527312)
     (xy -1.315280 1.523132) (xy -1.294801 1.518500) (xy -1.276463 1.513534) (xy -1.260882 1.508353) (xy -1.258443 1.507417) (xy -1.236266 1.497188) (xy -1.216312 1.484677) (xy -1.197807 1.469377)
     (xy -1.192138 1.463881) (xy -1.178782 1.449099) (xy -1.167435 1.433413) (xy -1.157866 1.416344) (xy -1.149845 1.397410) (xy -1.143143 1.376130) (xy -1.137529 1.352021) (xy -1.136728 1.347933)
     (xy -1.132897 1.327905) (xy -1.132423 0.636088) (xy -1.131950 -0.055729) (xy -0.912554 -0.055729) (xy -0.912554 -0.876194) (xy -0.912552 -0.940545) (xy -0.912550 -1.001507) (xy -0.912546 -1.059178)
     (xy -0.912544 -1.113651) (xy -0.912543 -1.165023) (xy -0.912544 -1.213388) (xy -0.912549 -1.258841) (xy -0.912559 -1.301479) (xy -0.912575 -1.341397) (xy -0.912597 -1.378689) (xy -0.912628 -1.413451)
     (xy -0.912667 -1.445778) (xy -0.912717 -1.475766) (xy -0.912778 -1.503510) (xy -0.912850 -1.529106) (xy -0.912936 -1.552648) (xy -0.913037 -1.574232) (xy -0.913152 -1.593953) (xy -0.913284 -1.611906)
     (xy -0.913433 -1.628187) (xy -0.913601 -1.642892) (xy -0.913789 -1.656115) (xy -0.913996 -1.667951) (xy -0.914226 -1.678497) (xy -0.914478 -1.687847) (xy -0.914754 -1.696097) (xy -0.915055 -1.703341)
     (xy -0.915382 -1.709676) (xy -0.915736 -1.715197) (xy -0.916118 -1.719998) (xy -0.916528 -1.724176) (xy -0.916969 -1.727825) (xy -0.917441 -1.731041) (xy -0.917945 -1.733919) (xy -0.918483 -1.736554)
     (xy -0.919055 -1.739042) (xy -0.919662 -1.741478) (xy -0.920306 -1.743958) (xy -0.920987 -1.746576) (xy -0.921707 -1.749428) (xy -0.922258 -1.751717) (xy -0.928554 -1.774833) (xy -0.936667 -1.798834)
     (xy -0.946281 -1.823040) (xy -0.957078 -1.846771) (xy -0.968739 -1.869346) (xy -0.980947 -1.890085) (xy -0.993385 -1.908309) (xy -0.998503 -1.914929) (xy -1.008151 -1.926097) (xy -1.019267 -1.937654)
     (xy -1.030961 -1.948749) (xy -1.042345 -1.958533) (xy -1.051089 -1.965166) (xy -1.066702 -1.974947) (xy -1.083924 -1.983495) (xy -1.103153 -1.990955) (xy -1.124788 -1.997469) (xy -1.149225 -2.003180)
     (xy -1.165073 -2.006224) (xy -1.173214 -2.007567) (xy -1.184276 -2.009224) (xy -1.197718 -2.011126) (xy -1.212998 -2.013201) (xy -1.229577 -2.015381) (xy -1.246913 -2.017595) (xy -1.264466 -2.019773)
     (xy -1.281693 -2.021845) (xy -1.298056 -2.023741) (xy -1.313011 -2.025391) (xy -1.313973 -2.025493) (xy -1.323334 -2.026505) (xy -1.333548 -2.027635) (xy -1.342589 -2.028658) (xy -1.343579 -2.028772)
     (xy -1.350713 -2.029539) (xy -1.360146 -2.030471) (xy -1.370708 -2.031457) (xy -1.381225 -2.032383) (xy -1.382327 -2.032477) (xy -1.407144 -2.034570) (xy -1.407144 -2.117923) (xy -1.407133 -2.137337)
     (xy -1.407094 -2.153548) (xy -1.407019 -2.166831) (xy -1.406899 -2.177467) (xy -1.406725 -2.185732) (xy -1.406490 -2.191906) (xy -1.406183 -2.196266) (xy -1.405797 -2.199091) (xy -1.405323 -2.200659)
     (xy -1.404753 -2.201248) (xy -1.404567 -2.201275) (xy -1.401983 -2.201386) (xy -1.396611 -2.201691) (xy -1.389140 -2.202148) (xy -1.380258 -2.202716) (xy -1.376268 -2.202979) (xy -1.366717 -2.203604)
     (xy -1.354635 -2.204386) (xy -1.340967 -2.205263) (xy -1.326657 -2.206174) (xy -1.312649 -2.207060) (xy -1.308313 -2.207332) (xy -1.293009 -2.208293) (xy -1.275605 -2.209387) (xy -1.257477 -2.210526)
     (xy -1.240003 -2.211624) (xy -1.224558 -2.212596) (xy -1.223849 -2.212640) (xy -1.208683 -2.213594) (xy -1.191545 -2.214672) (xy -1.173773 -2.215788) (xy -1.156705 -2.216860) (xy -1.141677 -2.217804)
     (xy -1.140692 -2.217866) (xy -1.106119 -2.220037) (xy -1.068654 -2.222396) (xy -1.028882 -2.224904) (xy -0.987388 -2.227524) (xy -0.976119 -2.228237) (xy -0.960980 -2.229193) (xy -0.943835 -2.230274)
     (xy -0.926041 -2.231395) (xy -0.908956 -2.232470) (xy -0.893935 -2.233414) (xy -0.893397 -2.233448) (xy -0.879691 -2.234308) (xy -0.865441 -2.235204) (xy -0.850268 -2.236159) (xy -0.833792 -2.237197)
     (xy -0.815632 -2.238342) (xy -0.795408 -2.239618) (xy -0.772740 -2.241049) (xy -0.747248 -2.242660) (xy -0.727082 -2.243934) (xy -0.688912 -2.246343) (xy -0.650898 -2.248738) (xy -0.613971 -2.251059)
     (xy -0.579058 -2.253248) (xy -0.560332 -2.254420) (xy -0.546722 -2.255278) (xy -0.532591 -2.256184) (xy -0.518858 -2.257076) (xy -0.506445 -2.257894) (xy -0.496271 -2.258580) (xy -0.493464 -2.258773)
     (xy -0.468827 -2.260487) (xy -0.456719 -2.247861) )(layer F.Mask) (width  0.010000)
  )
)
