(footprint "X2Y_0603"
	(version 20240108)
	(generator "pcbnew")
	(generator_version "8.0")
	(layer "F.Cu")
	(property "Reference" "REF**"
		(at 0.05 -1.75 0)
		(unlocked yes)
		(layer "F.SilkS")
		(uuid "9f4457f4-b754-4a90-8b00-af928e69c9ce")
		(effects
			(font
				(size 1 1)
				(thickness 0.15)
			)
		)
	)
	(property "Value" "X2Y_0603"
		(at 0 1.85 0)
		(unlocked yes)
		(layer "F.Fab")
		(uuid "23c7706e-33e3-4af8-ad13-f4fa796fa070")
		(effects
			(font
				(size 1 1)
				(thickness 0.15)
			)
		)
	)
	(property "Footprint" ""
		(at 0 0.85 0)
		(unlocked yes)
		(layer "F.Fab")
		(hide yes)
		(uuid "46b3e197-340f-4083-865c-8d7ebe4b74db")
		(effects
			(font
				(size 1 1)
				(thickness 0.15)
			)
		)
	)
	(property "Datasheet" ""
		(at 0 0.85 0)
		(unlocked yes)
		(layer "F.Fab")
		(hide yes)
		(uuid "649a3e7d-c3c4-4f45-b10b-31f4dc0654ee")
		(effects
			(font
				(size 1 1)
				(thickness 0.15)
			)
		)
	)
	(property "Description" ""
		(at 0 0.85 0)
		(unlocked yes)
		(layer "F.Fab")
		(hide yes)
		(uuid "499d140c-3d66-40d8-b233-fea37b6fef75")
		(effects
			(font
				(size 1 1)
				(thickness 0.15)
			)
		)
	)
	(attr smd)
	(fp_line
		(start -1.2 -0.85)
		(end 1.25 -0.85)
		(stroke
			(width 0.12)
			(type default)
		)
		(layer "F.SilkS")
		(uuid "6e07f014-9e25-41fa-8abe-06241da92aeb")
	)
	(fp_line
		(start -1.2 0.85)
		(end 1.25 0.85)
		(stroke
			(width 0.12)
			(type default)
		)
		(layer "F.SilkS")
		(uuid "dc175357-aefc-41e1-a321-3cb299de50af")
	)
	(fp_line
		(start -1.2 -0.85)
		(end 1.25 -0.85)
		(stroke
			(width 0.05)
			(type default)
		)
		(layer "F.CrtYd")
		(uuid "f77cbac6-82c1-4e3d-bd8f-6ff76dc78dd8")
	)
	(fp_line
		(start -1.2 0.85)
		(end -1.2 -0.85)
		(stroke
			(width 0.05)
			(type default)
		)
		(layer "F.CrtYd")
		(uuid "d4ce3bbf-de10-4c41-9568-9bac945a1c3c")
	)
	(fp_line
		(start 1.25 -0.85)
		(end 1.25 0.85)
		(stroke
			(width 0.05)
			(type default)
		)
		(layer "F.CrtYd")
		(uuid "3a9a0151-df94-43b0-b689-0185c76a477a")
	)
	(fp_line
		(start 1.25 0.85)
		(end -1.2 0.85)
		(stroke
			(width 0.05)
			(type default)
		)
		(layer "F.CrtYd")
		(uuid "72602d48-8d7c-46bb-901e-50a47681c727")
	)
	(fp_text user "${REFERENCE}"
		(at 0 3.35 0)
		(unlocked yes)
		(layer "F.Fab")
		(uuid "67064f4b-0770-4506-adf5-de991f0d5fb7")
		(effects
			(font
				(size 1 1)
				(thickness 0.15)
			)
		)
	)
	(pad "1" smd roundrect
		(at -0.83 0)
		(size 0.64 0.76)
		(layers "F.Cu" "F.Paste" "F.Mask")
		(roundrect_rratio 0.25)
		(thermal_bridge_angle 45)
		(uuid "9e6a8630-cbed-4423-ad3f-895ff08a1392")
	)
	(pad "2" smd roundrect
		(at 0.83 0)
		(size 0.64 0.76)
		(layers "F.Cu" "F.Paste" "F.Mask")
		(roundrect_rratio 0.25)
		(thermal_bridge_angle 45)
		(uuid "c546ae4d-9b8f-495a-b606-97ba242442e3")
	)
	(pad "3" smd roundrect
		(at 0 0)
		(size 0.51 1.52)
		(layers "F.Cu" "F.Paste" "F.Mask")
		(roundrect_rratio 0.25)
		(thermal_bridge_angle 45)
		(uuid "2f73933b-8cd9-4f2b-a789-4695c094c8be")
	)
	(model "${KICAD8_3DMODEL_DIR}/Capacitor_SMD.3dshapes/C_0603_1608Metric.wrl"
		(offset
			(xyz 0 0 0)
		)
		(scale
			(xyz 1 1 1)
		)
		(rotate
			(xyz 0 0 0)
		)
	)
	(model "${KICAD8_3DMODEL_DIR}/Capacitor_SMD.3dshapes/C_0603_1608Metric.step"
		(offset
			(xyz 0 0 0)
		)
		(scale
			(xyz 1 1 1)
		)
		(rotate
			(xyz 0 0 0)
		)
	)
)