(kicad_symbol_lib (version 20220914) (generator kicad_symbol_editor)
  (symbol "IS61WV25616EDBLL-10TLI" (in_bom yes) (on_board yes)
    (property "Reference" "U" (at -6.35 34.29 0)
      (effects (font (size 1.27 1.27)))
    )
    (property "Value" "256k x 16" (at -2.54 -31.75 0)
      (effects (font (size 1.27 1.27)))
    )
    (property "Footprint" "Package_SO:TSOP-II-44_10.16x18.41mm_P0.8mm" (at -16.51 -44.45 0)
      (effects (font (size 1.27 1.27)) hide)
    )
    (property "Datasheet" "https://hr.mouser.com/datasheet/2/198/61_64WV25616EDBLL-258483.pdf" (at -3.81 -46.99 0)
      (effects (font (size 1.27 1.27)) hide)
    )
    (property "MPN" "IS61WV25616EDBLL-10TLI" (at -27.94 -41.91 0)
      (effects (font (size 1.27 1.27)) hide)
    )
    (property "Manufacturer" "ISSI" (at -39.37 -39.37 0)
      (effects (font (size 1.27 1.27)) hide)
    )
    (property "Description" "SRAM 4Mb,High-Speed/Low Power,Async with ECC,256K x 16,10ns,2.4V-3.6V,44 Pin TSOP II" (at 3.81 -49.53 0)
      (effects (font (size 1.27 1.27)) hide)
    )
    (symbol "IS61WV25616EDBLL-10TLI_1_1"
      (rectangle (start -7.62 33.02) (end 6.35 -30.48)
        (stroke (width 0) (type default))
        (fill (type background))
      )
      (pin input line (at -11.43 30.48 0) (length 3.81)
        (name "A0" (effects (font (size 1.27 1.27))))
        (number "1" (effects (font (size 1 1))))
      )
      (pin input line (at 10.16 22.86 180) (length 3.81)
        (name "I/O3" (effects (font (size 1.27 1.27))))
        (number "10" (effects (font (size 1 1))))
      )
      (pin input line (at 10.16 -19.05 180) (length 3.81)
        (name "VDD" (effects (font (size 1.27 1.27))))
        (number "11" (effects (font (size 1 1))))
      )
      (pin input line (at 10.16 -25.4 180) (length 3.81)
        (name "GND" (effects (font (size 1.27 1.27))))
        (number "12" (effects (font (size 1 1))))
      )
      (pin input line (at 10.16 20.32 180) (length 3.81)
        (name "I/O4" (effects (font (size 1.27 1.27))))
        (number "13" (effects (font (size 1 1))))
      )
      (pin input line (at 10.16 17.78 180) (length 3.81)
        (name "I/O5" (effects (font (size 1.27 1.27))))
        (number "14" (effects (font (size 1 1))))
      )
      (pin input line (at 10.16 15.24 180) (length 3.81)
        (name "I/O6" (effects (font (size 1.27 1.27))))
        (number "15" (effects (font (size 1 1))))
      )
      (pin input line (at 10.16 12.7 180) (length 3.81)
        (name "I/O7" (effects (font (size 1.27 1.27))))
        (number "16" (effects (font (size 1 1))))
      )
      (pin input inverted (at -11.43 -22.86 0) (length 3.81)
        (name "~{WE}" (effects (font (size 1.27 1.27))))
        (number "17" (effects (font (size 1 1))))
      )
      (pin input line (at -11.43 17.78 0) (length 3.81)
        (name "A5" (effects (font (size 1.27 1.27))))
        (number "18" (effects (font (size 1 1))))
      )
      (pin input line (at -11.43 15.24 0) (length 3.81)
        (name "A6" (effects (font (size 1.27 1.27))))
        (number "19" (effects (font (size 1 1))))
      )
      (pin input line (at -11.43 27.94 0) (length 3.81)
        (name "A1" (effects (font (size 1.27 1.27))))
        (number "2" (effects (font (size 1 1))))
      )
      (pin input line (at -11.43 12.7 0) (length 3.81)
        (name "A7" (effects (font (size 1.27 1.27))))
        (number "20" (effects (font (size 1 1))))
      )
      (pin input line (at -11.43 10.16 0) (length 3.81)
        (name "A8" (effects (font (size 1.27 1.27))))
        (number "21" (effects (font (size 1 1))))
      )
      (pin input line (at -11.43 7.62 0) (length 3.81)
        (name "A9" (effects (font (size 1.27 1.27))))
        (number "22" (effects (font (size 1 1))))
      )
      (pin input line (at -11.43 5.08 0) (length 3.81)
        (name "A10" (effects (font (size 1.27 1.27))))
        (number "23" (effects (font (size 1 1))))
      )
      (pin input line (at -11.43 2.54 0) (length 3.81)
        (name "A11" (effects (font (size 1.27 1.27))))
        (number "24" (effects (font (size 1 1))))
      )
      (pin input line (at -11.43 0 0) (length 3.81)
        (name "A12" (effects (font (size 1.27 1.27))))
        (number "25" (effects (font (size 1 1))))
      )
      (pin input line (at -11.43 -2.54 0) (length 3.81)
        (name "A13" (effects (font (size 1.27 1.27))))
        (number "26" (effects (font (size 1 1))))
      )
      (pin input line (at -11.43 -5.08 0) (length 3.81)
        (name "A14" (effects (font (size 1.27 1.27))))
        (number "27" (effects (font (size 1 1))))
      )
      (pin no_connect line (at 10.16 -13.97 180) (length 3.81)
        (name "NC" (effects (font (size 1.27 1.27))))
        (number "28" (effects (font (size 1 1))))
      )
      (pin input line (at 10.16 10.16 180) (length 3.81)
        (name "I/O8" (effects (font (size 1.27 1.27))))
        (number "29" (effects (font (size 1 1))))
      )
      (pin input line (at -11.43 25.4 0) (length 3.81)
        (name "A2" (effects (font (size 1.27 1.27))))
        (number "3" (effects (font (size 1 1))))
      )
      (pin input line (at 10.16 7.62 180) (length 3.81)
        (name "I/O9" (effects (font (size 1.27 1.27))))
        (number "30" (effects (font (size 1 1))))
      )
      (pin input line (at 10.16 5.08 180) (length 3.81)
        (name "I/O10" (effects (font (size 1.27 1.27))))
        (number "31" (effects (font (size 1 1))))
      )
      (pin input line (at 10.16 2.54 180) (length 3.81)
        (name "I/O11" (effects (font (size 1.27 1.27))))
        (number "32" (effects (font (size 1 1))))
      )
      (pin input line (at 10.16 -21.59 180) (length 3.81)
        (name "VDD" (effects (font (size 1.27 1.27))))
        (number "33" (effects (font (size 1 1))))
      )
      (pin input line (at 10.16 -27.94 180) (length 3.81)
        (name "GND" (effects (font (size 1.27 1.27))))
        (number "34" (effects (font (size 1 1))))
      )
      (pin input line (at 10.16 0 180) (length 3.81)
        (name "I/O12" (effects (font (size 1.27 1.27))))
        (number "35" (effects (font (size 1 1))))
      )
      (pin input line (at 10.16 -2.54 180) (length 3.81)
        (name "I/O13" (effects (font (size 1.27 1.27))))
        (number "36" (effects (font (size 1 1))))
      )
      (pin input line (at 10.16 -5.08 180) (length 3.81)
        (name "I/O14" (effects (font (size 1.27 1.27))))
        (number "37" (effects (font (size 1 1))))
      )
      (pin input line (at 10.16 -7.62 180) (length 3.81)
        (name "I/O15" (effects (font (size 1.27 1.27))))
        (number "38" (effects (font (size 1 1))))
      )
      (pin input inverted (at -11.43 -25.4 0) (length 3.81)
        (name "~{LB}" (effects (font (size 1.27 1.27))))
        (number "39" (effects (font (size 1 1))))
      )
      (pin input line (at -11.43 22.86 0) (length 3.81)
        (name "A3" (effects (font (size 1.27 1.27))))
        (number "4" (effects (font (size 1 1))))
      )
      (pin input inverted (at -11.43 -27.94 0) (length 3.81)
        (name "~{UB}" (effects (font (size 1.27 1.27))))
        (number "40" (effects (font (size 1 1))))
      )
      (pin input inverted (at -11.43 -20.32 0) (length 3.81)
        (name "~{OE}" (effects (font (size 1.27 1.27))))
        (number "41" (effects (font (size 1 1))))
      )
      (pin input line (at -11.43 -7.62 0) (length 3.81)
        (name "A15" (effects (font (size 1.27 1.27))))
        (number "42" (effects (font (size 1 1))))
      )
      (pin input line (at -11.43 -10.16 0) (length 3.81)
        (name "A16" (effects (font (size 1.27 1.27))))
        (number "43" (effects (font (size 1 1))))
      )
      (pin input line (at -11.43 -12.7 0) (length 3.81)
        (name "A17" (effects (font (size 1.27 1.27))))
        (number "44" (effects (font (size 1 1))))
      )
      (pin input line (at -11.43 20.32 0) (length 3.81)
        (name "A4" (effects (font (size 1.27 1.27))))
        (number "5" (effects (font (size 1 1))))
      )
      (pin input inverted (at -11.43 -17.78 0) (length 3.81)
        (name "~{CE}" (effects (font (size 1.27 1.27))))
        (number "6" (effects (font (size 1 1))))
      )
      (pin input line (at 10.16 30.48 180) (length 3.81)
        (name "I/O0" (effects (font (size 1.27 1.27))))
        (number "7" (effects (font (size 1 1))))
      )
      (pin input line (at 10.16 27.94 180) (length 3.81)
        (name "I/O1" (effects (font (size 1.27 1.27))))
        (number "8" (effects (font (size 1 1))))
      )
      (pin input line (at 10.16 25.4 180) (length 3.81)
        (name "I/O2" (effects (font (size 1.27 1.27))))
        (number "9" (effects (font (size 1 1))))
      )
    )
  )
)
