G04 #@! TF.GenerationSoftware,KiCad,Pcbnew,8.0.3*
G04 #@! TF.CreationDate,2024-07-10T16:24:52+02:00*
G04 #@! TF.ProjectId,jellyfish_ui_pcb,6a656c6c-7966-4697-9368-5f75695f7063,rev?*
G04 #@! TF.SameCoordinates,Original*
G04 #@! TF.FileFunction,Copper,L1,Top*
G04 #@! TF.FilePolarity,Positive*
%FSLAX46Y46*%
G04 Gerber Fmt 4.6, Leading zero omitted, Abs format (unit mm)*
G04 Created by KiCad (PCBNEW 8.0.3) date 2024-07-10 16:24:52*
%MOMM*%
%LPD*%
G01*
G04 APERTURE LIST*
G04 #@! TA.AperFunction,ComponentPad*
%ADD10R,2.400000X2.400000*%
G04 #@! TD*
G04 #@! TA.AperFunction,ComponentPad*
%ADD11C,2.400000*%
G04 #@! TD*
G04 #@! TA.AperFunction,ComponentPad*
%ADD12R,2.000000X2.000000*%
G04 #@! TD*
G04 #@! TA.AperFunction,ComponentPad*
%ADD13C,2.000000*%
G04 #@! TD*
G04 #@! TA.AperFunction,ComponentPad*
%ADD14R,2.500000X3.000000*%
G04 #@! TD*
G04 #@! TA.AperFunction,SMDPad,CuDef*
%ADD15R,1.550000X1.300000*%
G04 #@! TD*
G04 #@! TA.AperFunction,SMDPad,CuDef*
%ADD16R,1.300000X0.700000*%
G04 #@! TD*
G04 #@! TA.AperFunction,ViaPad*
%ADD17C,0.800000*%
G04 #@! TD*
G04 #@! TA.AperFunction,Conductor*
%ADD18C,0.200000*%
G04 #@! TD*
G04 #@! TA.AperFunction,Conductor*
%ADD19C,0.300000*%
G04 #@! TD*
G04 APERTURE END LIST*
D10*
G04 #@! TO.P,J15,1,Pin_1*
G04 #@! TO.N,Board_0-/Panel Connectors/PANEL_VSENSE-*
X36590000Y8406000D03*
D11*
G04 #@! TO.P,J15,2,Pin_2*
G04 #@! TO.N,Board_0-/Panel Connectors/PANEL_GPIO0*
X40090000Y8406000D03*
G04 #@! TO.P,J15,3,Pin_3*
G04 #@! TO.N,Board_0-/Panel Connectors/PANEL_AIN*
X43590000Y8406000D03*
G04 #@! TO.P,J15,4,Pin_4*
G04 #@! TO.N,Board_0-UI_GND*
X47090000Y8406000D03*
G04 #@! TO.P,J15,5,Pin_5*
X50590000Y8406000D03*
G04 #@! TO.P,J15,6,Pin_6*
X54090000Y8406000D03*
G04 #@! TD*
D10*
G04 #@! TO.P,J26,1,Pin_1*
G04 #@! TO.N,Board_0-/Panel Connectors/PANEL_VSENSE+*
X36590000Y29061000D03*
D11*
G04 #@! TO.P,J26,2,Pin_2*
G04 #@! TO.N,Board_0-/Panel Connectors/PANEL_GPIO1*
X40090000Y29061000D03*
G04 #@! TO.P,J26,3,Pin_3*
G04 #@! TO.N,Board_0-/Panel Connectors/PANEL_GPIO2*
X43590000Y29061000D03*
G04 #@! TO.P,J26,4,Pin_4*
G04 #@! TO.N,Board_0-/Panel Connectors/PANEL_GPIO3*
X47090000Y29061000D03*
G04 #@! TO.P,J26,5,Pin_5*
G04 #@! TO.N,Board_0-/Panel Connectors/PANEL_GPIO4*
X50590000Y29061000D03*
G04 #@! TO.P,J26,6,Pin_6*
G04 #@! TO.N,Board_0-/Panel Connectors/PANEL_VAUX*
X54090000Y29061000D03*
G04 #@! TD*
D12*
G04 #@! TO.P,SW1,A,A*
G04 #@! TO.N,Board_0-Net-(J27-Pin_6)*
X22443500Y26756000D03*
D13*
G04 #@! TO.P,SW1,B,B*
G04 #@! TO.N,Board_0-Net-(J27-Pin_8)*
X17443500Y26756000D03*
G04 #@! TO.P,SW1,C,C*
G04 #@! TO.N,Board_0-UI_GND*
X19943500Y26756000D03*
D14*
G04 #@! TO.P,SW1,MP,MP*
X25543500Y19256000D03*
X14343500Y19256000D03*
D13*
G04 #@! TO.P,SW1,S1,S1*
X22443500Y12256000D03*
G04 #@! TO.P,SW1,S2,S2*
G04 #@! TO.N,Board_0-Net-(J27-Pin_10)*
X17443500Y12256000D03*
G04 #@! TD*
D15*
G04 #@! TO.P,SW2,1,1*
G04 #@! TO.N,Board_0-Net-(J27-Pin_3)*
X15968500Y5506000D03*
X23918500Y5506000D03*
G04 #@! TO.P,SW2,2,2*
G04 #@! TO.N,Board_0-UI_GND*
X15968500Y1006000D03*
X23918500Y1006000D03*
G04 #@! TD*
D16*
G04 #@! TO.P,D41,1,RK*
G04 #@! TO.N,Board_0-UI_GND*
X18393500Y36356000D03*
G04 #@! TO.P,D41,2,GK*
X18393500Y35256000D03*
G04 #@! TO.P,D41,3,BK*
X18393500Y34156000D03*
G04 #@! TO.P,D41,4,BA*
G04 #@! TO.N,Board_0-Net-(D41-BA)*
X21493500Y34156000D03*
G04 #@! TO.P,D41,5,GA*
G04 #@! TO.N,Board_0-Net-(D41-GA)*
X21493500Y35256000D03*
G04 #@! TO.P,D41,6,RA*
G04 #@! TO.N,Board_0-Net-(D41-RA)*
X21493500Y36356000D03*
G04 #@! TD*
D17*
G04 #@! TO.N,Board_0-Net-(D41-BA)*
X17917500Y513000D03*
G04 #@! TO.N,Board_0-Net-(D41-GA)*
X13345500Y513000D03*
G04 #@! TO.N,Board_0-Net-(D41-RA)*
X10805500Y513000D03*
G04 #@! TO.N,Board_0-Net-(J27-Pin_3)*
X18425500Y5506000D03*
G04 #@! TO.N,Board_0-UI_GND*
X15250500Y33279000D03*
G04 #@! TD*
D18*
G04 #@! TO.N,Board_0-Net-(D41-BA)*
X9992700Y22306200D02*
X21493500Y33807000D01*
X21493500Y33807000D02*
X21493500Y34156000D01*
X9992700Y9556800D02*
X9992700Y22306200D01*
X17917500Y513000D02*
X17917500Y1632000D01*
X17917500Y1632000D02*
X9992700Y9556800D01*
G04 #@! TO.N,Board_0-Net-(D41-GA)*
X13345500Y513000D02*
X9129100Y4729400D01*
X9129100Y22839600D02*
X20203500Y33914000D01*
X20203500Y34930000D02*
X20529500Y35256000D01*
X20203500Y33914000D02*
X20203500Y34930000D01*
X20529500Y35256000D02*
X21493500Y35256000D01*
X9129100Y4729400D02*
X9129100Y22839600D01*
G04 #@! TO.N,Board_0-Net-(D41-RA)*
X10805500Y513000D02*
X8367100Y2951400D01*
X20965500Y37470000D02*
X21493500Y36942000D01*
X8367100Y29189600D02*
X16647500Y37470000D01*
X8367100Y2951400D02*
X8367100Y29189600D01*
X16647500Y37470000D02*
X20965500Y37470000D01*
X21493500Y36942000D02*
X21493500Y36356000D01*
G04 #@! TO.N,Board_0-Net-(J27-Pin_3)*
X18425500Y5506000D02*
X23918500Y5506000D01*
X15968500Y5506000D02*
X18425500Y5506000D01*
D19*
G04 #@! TO.N,Board_0-UI_GND*
X17227500Y35256000D02*
X15250500Y33279000D01*
X18393500Y35256000D02*
X17227500Y35256000D01*
G04 #@! TD*
G04 #@! TA.AperFunction,Conductor*
G04 #@! TO.N,Board_0-UI_GND*
G36*
X17261035Y37050593D02*
G01*
X17296999Y37001093D01*
X17296999Y36939907D01*
X17295602Y36935903D01*
X17249903Y36813379D01*
X17249901Y36813371D01*
X17243500Y36753825D01*
X17243500Y36606001D01*
X17243501Y36606000D01*
X19543499Y36606000D01*
X19543500Y36606001D01*
X19543500Y36753825D01*
X19537098Y36813371D01*
X19537096Y36813379D01*
X19491398Y36935903D01*
X19488778Y36997033D01*
X19522589Y37048027D01*
X19579917Y37069409D01*
X19584156Y37069500D01*
X20543022Y37069500D01*
X20601213Y37050593D01*
X20637177Y37001093D01*
X20637177Y36939907D01*
X20613027Y36900499D01*
X20591294Y36878765D01*
X20545914Y36775989D01*
X20543000Y36750870D01*
X20543000Y35961140D01*
X20543001Y35961137D01*
X20545914Y35936010D01*
X20585663Y35845988D01*
X20591871Y35785118D01*
X20585663Y35766013D01*
X20563366Y35715514D01*
X20522566Y35669918D01*
X20482957Y35659240D01*
X20483206Y35657348D01*
X20476770Y35656501D01*
X20374913Y35629208D01*
X20374909Y35629206D01*
X20283589Y35576482D01*
X20214663Y35507557D01*
X20214661Y35507555D01*
X20214660Y35507556D01*
X19883020Y35175914D01*
X19883016Y35175909D01*
X19830293Y35084589D01*
X19830292Y35084589D01*
X19830293Y35084588D01*
X19803000Y34982727D01*
X19803000Y34120901D01*
X19784093Y34062710D01*
X19774004Y34050897D01*
X19656307Y33933200D01*
X19601790Y33905423D01*
X19584507Y33908161D01*
X19584507Y33906000D01*
X18643501Y33906000D01*
X18643500Y33905999D01*
X18643500Y33306001D01*
X18643501Y33306000D01*
X18790099Y33306000D01*
X18848290Y33287093D01*
X18884254Y33237593D01*
X18884254Y33176407D01*
X18860103Y33136996D01*
X8936604Y23213497D01*
X8882087Y23185720D01*
X8821655Y23195291D01*
X8778390Y23238556D01*
X8767600Y23283501D01*
X8767600Y28982699D01*
X8786507Y29040890D01*
X8796596Y29052703D01*
X13502069Y33758176D01*
X17243499Y33758176D01*
X17249901Y33698630D01*
X17249903Y33698619D01*
X17300146Y33563912D01*
X17300147Y33563910D01*
X17386307Y33448816D01*
X17386315Y33448808D01*
X17501409Y33362648D01*
X17501411Y33362647D01*
X17636118Y33312404D01*
X17636129Y33312402D01*
X17695676Y33306000D01*
X18143499Y33306000D01*
X18143500Y33306001D01*
X18143500Y33905999D01*
X18143499Y33906000D01*
X17243501Y33906000D01*
X17243500Y33905999D01*
X17243500Y33758176D01*
X17243499Y33758176D01*
X13502069Y33758176D01*
X14602069Y34858176D01*
X17243499Y34858176D01*
X17249901Y34798630D01*
X17249902Y34798623D01*
X17271545Y34740595D01*
X17274164Y34679466D01*
X17271545Y34671405D01*
X17249902Y34613378D01*
X17249901Y34613371D01*
X17243500Y34553825D01*
X17243500Y34406001D01*
X17243501Y34406000D01*
X18143499Y34406000D01*
X18143500Y34406001D01*
X18143500Y35005999D01*
X18643500Y35005999D01*
X18643500Y34406001D01*
X18643501Y34406000D01*
X19543499Y34406000D01*
X19543500Y34406001D01*
X19543500Y34553825D01*
X19537098Y34613371D01*
X19537097Y34613375D01*
X19515454Y34671402D01*
X19512833Y34732531D01*
X19515454Y34740598D01*
X19537097Y34798626D01*
X19537098Y34798630D01*
X19543500Y34858176D01*
X19543500Y35005999D01*
X19543499Y35006000D01*
X18643501Y35006000D01*
X18643500Y35005999D01*
X18143500Y35005999D01*
X18143499Y35006000D01*
X17243501Y35006000D01*
X17243500Y35005999D01*
X17243500Y34858176D01*
X17243499Y34858176D01*
X14602069Y34858176D01*
X15702069Y35958176D01*
X17243499Y35958176D01*
X17249901Y35898630D01*
X17249902Y35898623D01*
X17271545Y35840595D01*
X17274164Y35779466D01*
X17271545Y35771405D01*
X17249902Y35713378D01*
X17249901Y35713371D01*
X17243500Y35653825D01*
X17243500Y35506001D01*
X17243501Y35506000D01*
X18143499Y35506000D01*
X18143500Y35506001D01*
X18143500Y36105999D01*
X18643500Y36105999D01*
X18643500Y35506001D01*
X18643501Y35506000D01*
X19543499Y35506000D01*
X19543500Y35506001D01*
X19543500Y35653825D01*
X19537098Y35713371D01*
X19537097Y35713375D01*
X19515454Y35771402D01*
X19512833Y35832531D01*
X19515454Y35840598D01*
X19537097Y35898626D01*
X19537098Y35898630D01*
X19543500Y35958176D01*
X19543500Y36105999D01*
X19543499Y36106000D01*
X18643501Y36106000D01*
X18643500Y36105999D01*
X18143500Y36105999D01*
X18143499Y36106000D01*
X17243501Y36106000D01*
X17243500Y36105999D01*
X17243500Y35958176D01*
X17243499Y35958176D01*
X15702069Y35958176D01*
X16784397Y37040504D01*
X16838914Y37068281D01*
X16854401Y37069500D01*
X17202844Y37069500D01*
X17261035Y37050593D01*
G37*
G04 #@! TD.AperFunction*
G04 #@! TA.AperFunction,Conductor*
G36*
X64142191Y39796593D02*
G01*
X64178155Y39747093D01*
X64183000Y39716500D01*
X64183000Y29772639D01*
X64164093Y29714448D01*
X64131714Y29685896D01*
X64017737Y29623202D01*
X64017732Y29623200D01*
X63447345Y29265143D01*
X63447339Y29265139D01*
X62898559Y28874769D01*
X62373196Y28453372D01*
X61873042Y28002384D01*
X61873037Y28002380D01*
X61399714Y27523264D01*
X60954854Y27017676D01*
X60954823Y27017639D01*
X60539880Y26487234D01*
X60156201Y25933732D01*
X59805090Y25359002D01*
X59487745Y24765016D01*
X59487740Y24765007D01*
X59205198Y24153711D01*
X59205181Y24153672D01*
X58958368Y23527065D01*
X58748115Y22887254D01*
X58575134Y22236403D01*
X58575127Y22236378D01*
X58575125Y22236368D01*
X58575125Y22236367D01*
X58439983Y21576630D01*
X58439979Y21576609D01*
X58343121Y20910123D01*
X58343120Y20910117D01*
X58284879Y20239196D01*
X58284878Y20239191D01*
X58265443Y19566000D01*
X58284878Y18892809D01*
X58284879Y18892804D01*
X58343120Y18221883D01*
X58343121Y18221877D01*
X58439980Y17555391D01*
X58439984Y17555370D01*
X58489704Y17312647D01*
X58575127Y16895621D01*
X58748115Y16244747D01*
X58958368Y15604937D01*
X59009457Y15475234D01*
X59205182Y14978328D01*
X59205199Y14978289D01*
X59487740Y14366993D01*
X59487745Y14366984D01*
X59805090Y13772998D01*
X59805094Y13772992D01*
X59805098Y13772984D01*
X59840470Y13715085D01*
X60156202Y13198268D01*
X60539880Y12644766D01*
X60954823Y12114362D01*
X60954831Y12114352D01*
X60954840Y12114341D01*
X61399721Y11608728D01*
X61728237Y11276193D01*
X61873037Y11129621D01*
X61873042Y11129617D01*
X62373197Y10678629D01*
X62898560Y10257231D01*
X63447340Y9866862D01*
X63447346Y9866858D01*
X63716775Y9697726D01*
X64017735Y9508800D01*
X64131715Y9446105D01*
X64173587Y9401495D01*
X64183000Y9359363D01*
X64183000Y-584500D01*
X64164093Y-642691D01*
X64114593Y-678655D01*
X64084000Y-683500D01*
X783000Y-683500D01*
X724809Y-664593D01*
X688845Y-615093D01*
X684000Y-584500D01*
X684000Y6766291D01*
X3583500Y6766291D01*
X3583500Y6553710D01*
X3616752Y6343762D01*
X3682443Y6141588D01*
X3778948Y5952185D01*
X3778950Y5952181D01*
X3903891Y5780214D01*
X3903893Y5780212D01*
X3903896Y5780208D01*
X4054208Y5629896D01*
X4054211Y5629894D01*
X4054213Y5629892D01*
X4226180Y5504951D01*
X4226184Y5504949D01*
X4415588Y5408443D01*
X4617757Y5342754D01*
X4617758Y5342754D01*
X4617761Y5342753D01*
X4827710Y5309500D01*
X4827713Y5309500D01*
X5040290Y5309500D01*
X5250238Y5342753D01*
X5250239Y5342754D01*
X5250243Y5342754D01*
X5452412Y5408443D01*
X5641816Y5504949D01*
X5813792Y5629896D01*
X5964104Y5780208D01*
X6089051Y5952184D01*
X6185557Y6141588D01*
X6251246Y6343757D01*
X6261454Y6408206D01*
X6284500Y6553710D01*
X6284500Y6766291D01*
X6251247Y6976239D01*
X6232728Y7033235D01*
X6185557Y7178412D01*
X6089051Y7367816D01*
X6089049Y7367820D01*
X5964108Y7539787D01*
X5964106Y7539789D01*
X5964104Y7539792D01*
X5813792Y7690104D01*
X5813788Y7690107D01*
X5813786Y7690109D01*
X5641819Y7815050D01*
X5641815Y7815052D01*
X5452412Y7911557D01*
X5250238Y7977248D01*
X5040290Y8010500D01*
X5040287Y8010500D01*
X4827713Y8010500D01*
X4827710Y8010500D01*
X4617761Y7977248D01*
X4415587Y7911557D01*
X4226184Y7815052D01*
X4226180Y7815050D01*
X4054213Y7690109D01*
X3903891Y7539787D01*
X3778950Y7367820D01*
X3778948Y7367816D01*
X3682443Y7178413D01*
X3616752Y6976239D01*
X3583500Y6766291D01*
X684000Y6766291D01*
X684000Y9359363D01*
X702907Y9417554D01*
X735282Y9446104D01*
X849266Y9508800D01*
X1419664Y9866864D01*
X1774004Y10118923D01*
X1968440Y10257232D01*
X1968445Y10257237D01*
X1968452Y10257241D01*
X2493804Y10678629D01*
X2993968Y11129626D01*
X3467279Y11608729D01*
X3912160Y12114341D01*
X4200320Y12482685D01*
X4327119Y12644767D01*
X4327127Y12644778D01*
X4327128Y12644779D01*
X4710802Y13198275D01*
X5061902Y13772985D01*
X5379259Y14366994D01*
X5661817Y14978324D01*
X5908633Y15604938D01*
X6118885Y16244747D01*
X6291873Y16895622D01*
X6427021Y17555393D01*
X6523877Y18221863D01*
X6582121Y18892810D01*
X6601557Y19566000D01*
X6582121Y20239191D01*
X6523877Y20910138D01*
X6427020Y21576608D01*
X6291873Y22236379D01*
X6118885Y22887253D01*
X5908632Y23527063D01*
X5661816Y24153677D01*
X5661800Y24153712D01*
X5379259Y24765008D01*
X5379254Y24765017D01*
X5061909Y25359003D01*
X5061908Y25359004D01*
X5061902Y25359016D01*
X4721099Y25916870D01*
X4710797Y25933733D01*
X4327119Y26487235D01*
X3912176Y27017639D01*
X3912170Y27017646D01*
X3912160Y27017659D01*
X3467279Y27523272D01*
X2993968Y28002374D01*
X2993967Y28002375D01*
X2993962Y28002380D01*
X2993957Y28002384D01*
X2493802Y28453372D01*
X1968439Y28874770D01*
X1451728Y29242327D01*
X7966600Y29242327D01*
X7966600Y3004127D01*
X7966600Y2898673D01*
X7990670Y2808841D01*
X7993894Y2796808D01*
X8046616Y2705492D01*
X8046617Y2705491D01*
X8046618Y2705490D01*
X8046620Y2705487D01*
X9067377Y1684730D01*
X10080847Y671260D01*
X10108624Y616743D01*
X10109121Y589324D01*
X10099855Y513003D01*
X10099855Y513000D01*
X10120360Y344128D01*
X10180682Y185070D01*
X10277317Y45071D01*
X10404648Y-67734D01*
X10555275Y-146790D01*
X10720444Y-187500D01*
X10720447Y-187500D01*
X10890553Y-187500D01*
X10890556Y-187500D01*
X11055725Y-146790D01*
X11206352Y-67734D01*
X11333683Y45071D01*
X11430318Y185070D01*
X11490640Y344128D01*
X11511145Y513000D01*
X11490640Y681872D01*
X11430318Y840930D01*
X11333683Y980929D01*
X11206352Y1093734D01*
X11055725Y1172790D01*
X11055724Y1172791D01*
X11055723Y1172791D01*
X10890558Y1213500D01*
X10890556Y1213500D01*
X10720444Y1213500D01*
X10714456Y1213500D01*
X10714456Y1215971D01*
X10664484Y1225770D01*
X10642619Y1242274D01*
X8796596Y3088297D01*
X8768819Y3142814D01*
X8767600Y3158301D01*
X8767600Y4285500D01*
X8786507Y4343691D01*
X8836007Y4379655D01*
X8897193Y4379655D01*
X8936601Y4355506D01*
X10967103Y2325004D01*
X12620847Y671260D01*
X12648624Y616743D01*
X12649121Y589324D01*
X12639855Y513003D01*
X12639855Y513000D01*
X12660360Y344128D01*
X12720682Y185070D01*
X12817317Y45071D01*
X12944648Y-67734D01*
X13095275Y-146790D01*
X13260444Y-187500D01*
X13260447Y-187500D01*
X13430553Y-187500D01*
X13430556Y-187500D01*
X13595725Y-146790D01*
X13746352Y-67734D01*
X13873683Y45071D01*
X13970318Y185070D01*
X14017005Y308176D01*
X14693499Y308176D01*
X14699901Y248630D01*
X14699903Y248619D01*
X14750146Y113912D01*
X14750147Y113910D01*
X14836307Y-1184D01*
X14836315Y-1192D01*
X14951409Y-87352D01*
X14951411Y-87353D01*
X15086118Y-137596D01*
X15086129Y-137598D01*
X15145676Y-144000D01*
X15718499Y-144000D01*
X15718500Y-143999D01*
X15718500Y755999D01*
X15718499Y756000D01*
X14693501Y756000D01*
X14693500Y755999D01*
X14693500Y308176D01*
X14693499Y308176D01*
X14017005Y308176D01*
X14030640Y344128D01*
X14051145Y513000D01*
X14030640Y681872D01*
X13970318Y840930D01*
X13873683Y980929D01*
X13746352Y1093734D01*
X13595725Y1172790D01*
X13595724Y1172791D01*
X13595723Y1172791D01*
X13430558Y1213500D01*
X13430556Y1213500D01*
X13260444Y1213500D01*
X13254456Y1213500D01*
X13254456Y1215971D01*
X13204484Y1225770D01*
X13182619Y1242274D01*
X12721068Y1703825D01*
X14693500Y1703825D01*
X14693500Y1256001D01*
X14693501Y1256000D01*
X15718499Y1256000D01*
X15718500Y1256001D01*
X15718500Y2155999D01*
X15718499Y2156000D01*
X15145676Y2156000D01*
X15086129Y2149599D01*
X15086118Y2149597D01*
X14951411Y2099354D01*
X14951409Y2099353D01*
X14836315Y2013193D01*
X14836307Y2013185D01*
X14750147Y1898091D01*
X14750146Y1898089D01*
X14699903Y1763382D01*
X14699901Y1763371D01*
X14693500Y1703825D01*
X12721068Y1703825D01*
X9558596Y4866297D01*
X9530819Y4920814D01*
X9529600Y4936301D01*
X9529600Y9214500D01*
X9548507Y9272691D01*
X9598007Y9308655D01*
X9659193Y9308655D01*
X9698601Y9284506D01*
X13202893Y5780214D01*
X16658103Y2325004D01*
X16685880Y2270487D01*
X16676309Y2210055D01*
X16633044Y2166790D01*
X16588099Y2156000D01*
X16218501Y2156000D01*
X16218500Y2155999D01*
X16218500Y1256001D01*
X16218501Y1256000D01*
X17243499Y1256000D01*
X17243500Y1256001D01*
X17243500Y1500600D01*
X17262407Y1558791D01*
X17311907Y1594755D01*
X17373093Y1594755D01*
X17412504Y1570604D01*
X17488004Y1495104D01*
X17515781Y1440587D01*
X17517000Y1425100D01*
X17517000Y1138602D01*
X17498093Y1080411D01*
X17483651Y1064502D01*
X17452603Y1036996D01*
X17389318Y980931D01*
X17389316Y980928D01*
X17292682Y840930D01*
X17284705Y819895D01*
X17246392Y772190D01*
X17192138Y756000D01*
X16218501Y756000D01*
X16218500Y755999D01*
X16218500Y-143999D01*
X16218501Y-144000D01*
X16791324Y-144000D01*
X16850870Y-137598D01*
X16850881Y-137596D01*
X16985588Y-87353D01*
X16985590Y-87352D01*
X17100684Y-1192D01*
X17100692Y-1184D01*
X17184955Y111376D01*
X17234963Y146629D01*
X17296142Y145755D01*
X17345124Y109088D01*
X17345634Y108355D01*
X17389317Y45071D01*
X17516648Y-67734D01*
X17667275Y-146790D01*
X17832444Y-187500D01*
X17832447Y-187500D01*
X18002553Y-187500D01*
X18002556Y-187500D01*
X18167725Y-146790D01*
X18318352Y-67734D01*
X18445683Y45071D01*
X18542318Y185070D01*
X18589005Y308176D01*
X22643499Y308176D01*
X22649901Y248630D01*
X22649903Y248619D01*
X22700146Y113912D01*
X22700147Y113910D01*
X22786307Y-1184D01*
X22786315Y-1192D01*
X22901409Y-87352D01*
X22901411Y-87353D01*
X23036118Y-137596D01*
X23036129Y-137598D01*
X23095676Y-144000D01*
X23668499Y-144000D01*
X23668500Y-143999D01*
X23668500Y755999D01*
X24168500Y755999D01*
X24168500Y-143999D01*
X24168501Y-144000D01*
X24741324Y-144000D01*
X24800870Y-137598D01*
X24800881Y-137596D01*
X24935588Y-87353D01*
X24935590Y-87352D01*
X25050684Y-1192D01*
X25050692Y-1184D01*
X25136852Y113910D01*
X25136853Y113912D01*
X25187096Y248619D01*
X25187098Y248630D01*
X25193500Y308176D01*
X25193500Y755999D01*
X25193499Y756000D01*
X24168501Y756000D01*
X24168500Y755999D01*
X23668500Y755999D01*
X23668499Y756000D01*
X22643501Y756000D01*
X22643500Y755999D01*
X22643500Y308176D01*
X22643499Y308176D01*
X18589005Y308176D01*
X18602640Y344128D01*
X18623145Y513000D01*
X18602640Y681872D01*
X18542318Y840930D01*
X18445683Y980929D01*
X18351350Y1064501D01*
X18320332Y1117239D01*
X18318000Y1138602D01*
X18318000Y1571286D01*
X18318001Y1571299D01*
X18318001Y1684728D01*
X18318000Y1684730D01*
X18312883Y1703825D01*
X22643500Y1703825D01*
X22643500Y1256001D01*
X22643501Y1256000D01*
X23668499Y1256000D01*
X23668500Y1256001D01*
X23668500Y2155999D01*
X24168500Y2155999D01*
X24168500Y1256001D01*
X24168501Y1256000D01*
X25193499Y1256000D01*
X25193500Y1256001D01*
X25193500Y1703825D01*
X25187098Y1763371D01*
X25187096Y1763382D01*
X25136853Y1898089D01*
X25136852Y1898091D01*
X25050692Y2013185D01*
X25050684Y2013193D01*
X24935590Y2099353D01*
X24935588Y2099354D01*
X24800881Y2149597D01*
X24800870Y2149599D01*
X24741324Y2156000D01*
X24168501Y2156000D01*
X24168500Y2155999D01*
X23668500Y2155999D01*
X23668499Y2156000D01*
X23095676Y2156000D01*
X23036129Y2149599D01*
X23036118Y2149597D01*
X22901411Y2099354D01*
X22901409Y2099353D01*
X22786315Y2013193D01*
X22786307Y2013185D01*
X22700147Y1898091D01*
X22700146Y1898089D01*
X22649903Y1763382D01*
X22649901Y1763371D01*
X22643500Y1703825D01*
X18312883Y1703825D01*
X18290707Y1786587D01*
X18237980Y1877913D01*
X18163413Y1952480D01*
X18163410Y1952482D01*
X15729396Y4386497D01*
X15701619Y4441014D01*
X15711190Y4501446D01*
X15754455Y4544711D01*
X15799400Y4555501D01*
X16788361Y4555501D01*
X16788364Y4555501D01*
X16813491Y4558415D01*
X16916265Y4603794D01*
X16995706Y4683235D01*
X17041085Y4786009D01*
X17044000Y4811135D01*
X17044000Y5006500D01*
X17062907Y5064691D01*
X17112407Y5100655D01*
X17143000Y5105500D01*
X17798815Y5105500D01*
X17857006Y5086593D01*
X17880291Y5062737D01*
X17897314Y5038074D01*
X17897316Y5038072D01*
X17897317Y5038071D01*
X18024648Y4925266D01*
X18175275Y4846210D01*
X18340444Y4805500D01*
X18340447Y4805500D01*
X18510553Y4805500D01*
X18510556Y4805500D01*
X18675725Y4846210D01*
X18826352Y4925266D01*
X18953683Y5038071D01*
X18970709Y5062737D01*
X19019325Y5099887D01*
X19052185Y5105500D01*
X22744001Y5105500D01*
X22802192Y5086593D01*
X22838156Y5037093D01*
X22843001Y5006500D01*
X22843001Y4811137D01*
X22845914Y4786010D01*
X22871256Y4728615D01*
X22891294Y4683235D01*
X22970735Y4603794D01*
X23073509Y4558415D01*
X23098635Y4555500D01*
X24738364Y4555501D01*
X24763491Y4558415D01*
X24866265Y4603794D01*
X24945706Y4683235D01*
X24991085Y4786009D01*
X24994000Y4811135D01*
X24993999Y6200864D01*
X24991085Y6225991D01*
X24945706Y6328765D01*
X24866265Y6408206D01*
X24763491Y6453585D01*
X24763490Y6453586D01*
X24763488Y6453586D01*
X24738368Y6456500D01*
X23098639Y6456500D01*
X23098636Y6456499D01*
X23073509Y6453586D01*
X22970735Y6408206D01*
X22891294Y6328765D01*
X22845914Y6225989D01*
X22843000Y6200870D01*
X22843000Y6005500D01*
X22824093Y5947309D01*
X22774593Y5911345D01*
X22744000Y5906500D01*
X19052185Y5906500D01*
X18993994Y5925407D01*
X18970709Y5949263D01*
X18953685Y5973927D01*
X18918046Y6005500D01*
X18826352Y6086734D01*
X18675725Y6165790D01*
X18675724Y6165791D01*
X18675723Y6165791D01*
X18510558Y6206500D01*
X18510556Y6206500D01*
X18340444Y6206500D01*
X18340441Y6206500D01*
X18175276Y6165791D01*
X18024646Y6086733D01*
X17897314Y5973927D01*
X17880291Y5949263D01*
X17831675Y5912113D01*
X17798815Y5906500D01*
X17142999Y5906500D01*
X17084808Y5925407D01*
X17048844Y5974907D01*
X17043999Y6005500D01*
X17043999Y6200861D01*
X17043999Y6200864D01*
X17041085Y6225991D01*
X16995706Y6328765D01*
X16916265Y6408206D01*
X16813491Y6453585D01*
X16813490Y6453586D01*
X16813488Y6453586D01*
X16788368Y6456500D01*
X15148639Y6456500D01*
X15148636Y6456499D01*
X15123509Y6453586D01*
X15020735Y6408206D01*
X14941294Y6328765D01*
X14895914Y6225989D01*
X14893000Y6200870D01*
X14893000Y5461901D01*
X14874093Y5403710D01*
X14824593Y5367746D01*
X14763407Y5367746D01*
X14723996Y5391897D01*
X10465023Y9650870D01*
X35089500Y9650870D01*
X35089500Y7161140D01*
X35089501Y7161137D01*
X35092414Y7136010D01*
X35117756Y7078615D01*
X35137794Y7033235D01*
X35217235Y6953794D01*
X35320009Y6908415D01*
X35345135Y6905500D01*
X37834864Y6905501D01*
X37859991Y6908415D01*
X37962765Y6953794D01*
X38042206Y7033235D01*
X38087585Y7136009D01*
X38090500Y7161135D01*
X38090499Y8406000D01*
X38584357Y8406000D01*
X38604891Y8158181D01*
X38626309Y8073605D01*
X38665937Y7917119D01*
X38765827Y7689393D01*
X38901836Y7481215D01*
X39070256Y7298262D01*
X39070259Y7298260D01*
X39246436Y7161135D01*
X39266491Y7145526D01*
X39427421Y7058435D01*
X39473986Y7033235D01*
X39485190Y7027172D01*
X39720386Y6946429D01*
X39965665Y6905500D01*
X40214335Y6905500D01*
X40459614Y6946429D01*
X40694810Y7027172D01*
X40913509Y7145526D01*
X41109744Y7298262D01*
X41278164Y7481215D01*
X41414173Y7689393D01*
X41514063Y7917119D01*
X41575108Y8158179D01*
X41595643Y8406000D01*
X42084357Y8406000D01*
X42104891Y8158181D01*
X42126309Y8073605D01*
X42165937Y7917119D01*
X42265827Y7689393D01*
X42401836Y7481215D01*
X42570256Y7298262D01*
X42570259Y7298260D01*
X42746436Y7161135D01*
X42766491Y7145526D01*
X42927421Y7058435D01*
X42973986Y7033235D01*
X42985190Y7027172D01*
X43220386Y6946429D01*
X43465665Y6905500D01*
X43714335Y6905500D01*
X43959614Y6946429D01*
X44194810Y7027172D01*
X44413509Y7145526D01*
X44609744Y7298262D01*
X44778164Y7481215D01*
X44914173Y7689393D01*
X45014063Y7917119D01*
X45075108Y8158179D01*
X45095643Y8406000D01*
X45095643Y8406003D01*
X45385233Y8406003D01*
X45385233Y8405998D01*
X45404273Y8151924D01*
X45404275Y8151914D01*
X45460970Y7903513D01*
X45460970Y7903511D01*
X45554055Y7666336D01*
X45554064Y7666317D01*
X45681455Y7445670D01*
X45723452Y7393009D01*
X46525386Y8194944D01*
X46530889Y8174409D01*
X46609881Y8037592D01*
X46721592Y7925881D01*
X46858409Y7846889D01*
X46878940Y7841388D01*
X46076814Y7039261D01*
X46237620Y6929626D01*
X46467176Y6819078D01*
X46710649Y6743977D01*
X46710659Y6743975D01*
X46962599Y6706001D01*
X46962608Y6706000D01*
X47217392Y6706000D01*
X47217400Y6706001D01*
X47469340Y6743975D01*
X47469350Y6743977D01*
X47712823Y6819079D01*
X47942381Y6929627D01*
X48103184Y7039261D01*
X47301057Y7841388D01*
X47321591Y7846889D01*
X47458408Y7925881D01*
X47570119Y8037592D01*
X47649111Y8174409D01*
X47654612Y8194943D01*
X48456546Y7393009D01*
X48498544Y7445670D01*
X48625935Y7666317D01*
X48625944Y7666336D01*
X48719029Y7903511D01*
X48719029Y7903513D01*
X48743482Y8010647D01*
X48774864Y8063172D01*
X48831125Y8087219D01*
X48890777Y8073605D01*
X48931033Y8027528D01*
X48936518Y8010647D01*
X48960970Y7903513D01*
X48960970Y7903511D01*
X49054055Y7666336D01*
X49054064Y7666317D01*
X49181455Y7445670D01*
X49223452Y7393009D01*
X50025386Y8194944D01*
X50030889Y8174409D01*
X50109881Y8037592D01*
X50221592Y7925881D01*
X50358409Y7846889D01*
X50378940Y7841388D01*
X49576814Y7039261D01*
X49737620Y6929626D01*
X49967176Y6819078D01*
X50210649Y6743977D01*
X50210659Y6743975D01*
X50462599Y6706001D01*
X50462608Y6706000D01*
X50717392Y6706000D01*
X50717400Y6706001D01*
X50969340Y6743975D01*
X50969350Y6743977D01*
X51212823Y6819079D01*
X51442381Y6929627D01*
X51603184Y7039261D01*
X50801057Y7841388D01*
X50821591Y7846889D01*
X50958408Y7925881D01*
X51070119Y8037592D01*
X51149111Y8174409D01*
X51154612Y8194943D01*
X51956546Y7393009D01*
X51998544Y7445670D01*
X52125935Y7666317D01*
X52125944Y7666336D01*
X52219029Y7903511D01*
X52219029Y7903513D01*
X52243482Y8010647D01*
X52274864Y8063172D01*
X52331125Y8087219D01*
X52390777Y8073605D01*
X52431033Y8027528D01*
X52436518Y8010647D01*
X52460970Y7903513D01*
X52460970Y7903511D01*
X52554055Y7666336D01*
X52554064Y7666317D01*
X52681455Y7445670D01*
X52723452Y7393009D01*
X53525386Y8194944D01*
X53530889Y8174409D01*
X53609881Y8037592D01*
X53721592Y7925881D01*
X53858409Y7846889D01*
X53878940Y7841388D01*
X53076814Y7039261D01*
X53237620Y6929626D01*
X53467176Y6819078D01*
X53710649Y6743977D01*
X53710659Y6743975D01*
X53962599Y6706001D01*
X53962608Y6706000D01*
X54217392Y6706000D01*
X54217400Y6706001D01*
X54469340Y6743975D01*
X54469350Y6743977D01*
X54541690Y6766291D01*
X58583500Y6766291D01*
X58583500Y6553710D01*
X58616752Y6343762D01*
X58682443Y6141588D01*
X58778948Y5952185D01*
X58778950Y5952181D01*
X58903891Y5780214D01*
X58903893Y5780212D01*
X58903896Y5780208D01*
X59054208Y5629896D01*
X59054211Y5629894D01*
X59054213Y5629892D01*
X59226180Y5504951D01*
X59226184Y5504949D01*
X59415588Y5408443D01*
X59617757Y5342754D01*
X59617758Y5342754D01*
X59617761Y5342753D01*
X59827710Y5309500D01*
X59827713Y5309500D01*
X60040290Y5309500D01*
X60250238Y5342753D01*
X60250239Y5342754D01*
X60250243Y5342754D01*
X60452412Y5408443D01*
X60641816Y5504949D01*
X60813792Y5629896D01*
X60964104Y5780208D01*
X61089051Y5952184D01*
X61185557Y6141588D01*
X61251246Y6343757D01*
X61261454Y6408206D01*
X61284500Y6553710D01*
X61284500Y6766291D01*
X61251247Y6976239D01*
X61232728Y7033235D01*
X61185557Y7178412D01*
X61089051Y7367816D01*
X61089049Y7367820D01*
X60964108Y7539787D01*
X60964106Y7539789D01*
X60964104Y7539792D01*
X60813792Y7690104D01*
X60813788Y7690107D01*
X60813786Y7690109D01*
X60641819Y7815050D01*
X60641815Y7815052D01*
X60452412Y7911557D01*
X60250238Y7977248D01*
X60040290Y8010500D01*
X60040287Y8010500D01*
X59827713Y8010500D01*
X59827710Y8010500D01*
X59617761Y7977248D01*
X59415587Y7911557D01*
X59226184Y7815052D01*
X59226180Y7815050D01*
X59054213Y7690109D01*
X58903891Y7539787D01*
X58778950Y7367820D01*
X58778948Y7367816D01*
X58682443Y7178413D01*
X58616752Y6976239D01*
X58583500Y6766291D01*
X54541690Y6766291D01*
X54712823Y6819079D01*
X54942381Y6929627D01*
X55103184Y7039261D01*
X54301057Y7841388D01*
X54321591Y7846889D01*
X54458408Y7925881D01*
X54570119Y8037592D01*
X54649111Y8174409D01*
X54654612Y8194943D01*
X55456546Y7393009D01*
X55498544Y7445670D01*
X55625935Y7666317D01*
X55625944Y7666336D01*
X55719029Y7903511D01*
X55719029Y7903513D01*
X55775724Y8151914D01*
X55775726Y8151924D01*
X55794767Y8405998D01*
X55794767Y8406003D01*
X55775726Y8660077D01*
X55775724Y8660087D01*
X55719029Y8908488D01*
X55719029Y8908490D01*
X55625944Y9145665D01*
X55625935Y9145684D01*
X55498549Y9366322D01*
X55498543Y9366331D01*
X55456546Y9418993D01*
X54654612Y8617060D01*
X54649111Y8637591D01*
X54570119Y8774408D01*
X54458408Y8886119D01*
X54321591Y8965111D01*
X54301056Y8970614D01*
X55103183Y9772740D01*
X54942376Y9882376D01*
X54712823Y9992922D01*
X54469350Y10068024D01*
X54469340Y10068026D01*
X54217400Y10106000D01*
X53962599Y10106000D01*
X53710659Y10068026D01*
X53710649Y10068024D01*
X53467176Y9992923D01*
X53237615Y9882372D01*
X53076814Y9772741D01*
X53878942Y8970613D01*
X53858409Y8965111D01*
X53721592Y8886119D01*
X53609881Y8774408D01*
X53530889Y8637591D01*
X53525387Y8617058D01*
X52723452Y9418993D01*
X52681461Y9366338D01*
X52681451Y9366323D01*
X52554064Y9145684D01*
X52554055Y9145665D01*
X52460970Y8908490D01*
X52460970Y8908488D01*
X52436518Y8801354D01*
X52405136Y8748829D01*
X52348875Y8724782D01*
X52289223Y8738396D01*
X52248967Y8784473D01*
X52243482Y8801354D01*
X52219029Y8908488D01*
X52219029Y8908490D01*
X52125944Y9145665D01*
X52125935Y9145684D01*
X51998549Y9366322D01*
X51998543Y9366331D01*
X51956546Y9418993D01*
X51154612Y8617060D01*
X51149111Y8637591D01*
X51070119Y8774408D01*
X50958408Y8886119D01*
X50821591Y8965111D01*
X50801056Y8970614D01*
X51603183Y9772740D01*
X51442376Y9882376D01*
X51212823Y9992922D01*
X50969350Y10068024D01*
X50969340Y10068026D01*
X50717400Y10106000D01*
X50462599Y10106000D01*
X50210659Y10068026D01*
X50210649Y10068024D01*
X49967176Y9992923D01*
X49737615Y9882372D01*
X49576814Y9772741D01*
X50378942Y8970613D01*
X50358409Y8965111D01*
X50221592Y8886119D01*
X50109881Y8774408D01*
X50030889Y8637591D01*
X50025387Y8617058D01*
X49223452Y9418993D01*
X49181461Y9366338D01*
X49181451Y9366323D01*
X49054064Y9145684D01*
X49054055Y9145665D01*
X48960970Y8908490D01*
X48960970Y8908488D01*
X48936518Y8801354D01*
X48905136Y8748829D01*
X48848875Y8724782D01*
X48789223Y8738396D01*
X48748967Y8784473D01*
X48743482Y8801354D01*
X48719029Y8908488D01*
X48719029Y8908490D01*
X48625944Y9145665D01*
X48625935Y9145684D01*
X48498549Y9366322D01*
X48498543Y9366331D01*
X48456546Y9418993D01*
X47654612Y8617060D01*
X47649111Y8637591D01*
X47570119Y8774408D01*
X47458408Y8886119D01*
X47321591Y8965111D01*
X47301056Y8970614D01*
X48103183Y9772740D01*
X47942376Y9882376D01*
X47712823Y9992922D01*
X47469350Y10068024D01*
X47469340Y10068026D01*
X47217400Y10106000D01*
X46962599Y10106000D01*
X46710659Y10068026D01*
X46710649Y10068024D01*
X46467176Y9992923D01*
X46237615Y9882372D01*
X46076814Y9772741D01*
X46878942Y8970613D01*
X46858409Y8965111D01*
X46721592Y8886119D01*
X46609881Y8774408D01*
X46530889Y8637591D01*
X46525387Y8617058D01*
X45723452Y9418993D01*
X45681461Y9366338D01*
X45681451Y9366323D01*
X45554064Y9145684D01*
X45554055Y9145665D01*
X45460970Y8908490D01*
X45460970Y8908488D01*
X45404275Y8660087D01*
X45404273Y8660077D01*
X45385233Y8406003D01*
X45095643Y8406003D01*
X45075108Y8653821D01*
X45014063Y8894881D01*
X44914173Y9122607D01*
X44778164Y9330785D01*
X44609744Y9513738D01*
X44539291Y9568574D01*
X44413512Y9666472D01*
X44413509Y9666474D01*
X44194813Y9784827D01*
X43959611Y9865572D01*
X43714335Y9906500D01*
X43465665Y9906500D01*
X43220388Y9865572D01*
X42985186Y9784827D01*
X42766490Y9666474D01*
X42766487Y9666472D01*
X42570259Y9513741D01*
X42570256Y9513739D01*
X42570256Y9513738D01*
X42401836Y9330785D01*
X42265827Y9122607D01*
X42171907Y8908490D01*
X42165937Y8894880D01*
X42104891Y8653820D01*
X42084357Y8406000D01*
X41595643Y8406000D01*
X41575108Y8653821D01*
X41514063Y8894881D01*
X41414173Y9122607D01*
X41278164Y9330785D01*
X41109744Y9513738D01*
X41039291Y9568574D01*
X40913512Y9666472D01*
X40913509Y9666474D01*
X40694813Y9784827D01*
X40459611Y9865572D01*
X40214335Y9906500D01*
X39965665Y9906500D01*
X39720388Y9865572D01*
X39485186Y9784827D01*
X39266490Y9666474D01*
X39266487Y9666472D01*
X39070259Y9513741D01*
X39070256Y9513739D01*
X39070256Y9513738D01*
X38901836Y9330785D01*
X38765827Y9122607D01*
X38671907Y8908490D01*
X38665937Y8894880D01*
X38604891Y8653820D01*
X38584357Y8406000D01*
X38090499Y8406000D01*
X38090499Y9650864D01*
X38087585Y9675991D01*
X38042206Y9778765D01*
X37962765Y9858206D01*
X37859991Y9903585D01*
X37859990Y9903586D01*
X37859988Y9903586D01*
X37834868Y9906500D01*
X35345139Y9906500D01*
X35345136Y9906499D01*
X35320009Y9903586D01*
X35217235Y9858206D01*
X35137794Y9778765D01*
X35092414Y9675989D01*
X35089500Y9650870D01*
X10465023Y9650870D01*
X10422196Y9693697D01*
X10394419Y9748214D01*
X10393200Y9763701D01*
X10393200Y12256004D01*
X16138032Y12256004D01*
X16138032Y12255997D01*
X16157863Y12029316D01*
X16216762Y11809500D01*
X16312926Y11603277D01*
X16312934Y11603263D01*
X16443446Y11416870D01*
X16443447Y11416868D01*
X16443450Y11416865D01*
X16443453Y11416861D01*
X16604361Y11255953D01*
X16604364Y11255951D01*
X16604367Y11255948D01*
X16604369Y11255947D01*
X16728631Y11168939D01*
X16790766Y11125432D01*
X16790772Y11125429D01*
X16790776Y11125427D01*
X16997000Y11029263D01*
X16997004Y11029261D01*
X17216808Y10970365D01*
X17216812Y10970365D01*
X17216815Y10970364D01*
X17443497Y10950532D01*
X17443500Y10950532D01*
X17443503Y10950532D01*
X17670184Y10970364D01*
X17670185Y10970365D01*
X17670192Y10970365D01*
X17889996Y11029261D01*
X18096234Y11125432D01*
X18282639Y11255953D01*
X18443547Y11416861D01*
X18574068Y11603266D01*
X18670239Y11809504D01*
X18729135Y12029308D01*
X18732084Y12063007D01*
X18748968Y12255997D01*
X18748968Y12256000D01*
X20938359Y12256000D01*
X20958886Y12008264D01*
X21019912Y11767281D01*
X21119765Y11539637D01*
X21119770Y11539628D01*
X21220063Y11386119D01*
X21960536Y12126593D01*
X21977575Y12063007D01*
X22043401Y11948993D01*
X22136493Y11855901D01*
X22250507Y11790075D01*
X22314090Y11773038D01*
X21573442Y11032390D01*
X21620268Y10995946D01*
X21838888Y10877634D01*
X22074013Y10796916D01*
X22319206Y10756000D01*
X22567794Y10756000D01*
X22812986Y10796916D01*
X23048111Y10877634D01*
X23266734Y10995947D01*
X23266737Y10995949D01*
X23313556Y11032390D01*
X22572909Y11773038D01*
X22636493Y11790075D01*
X22750507Y11855901D01*
X22843599Y11948993D01*
X22909425Y12063007D01*
X22926462Y12126592D01*
X23666935Y11386119D01*
X23767229Y11539628D01*
X23767234Y11539637D01*
X23867087Y11767281D01*
X23928113Y12008264D01*
X23948640Y12256000D01*
X23928113Y12503737D01*
X23867087Y12744720D01*
X23767234Y12972364D01*
X23767229Y12972373D01*
X23666935Y13125883D01*
X22926462Y12385411D01*
X22909425Y12448993D01*
X22843599Y12563007D01*
X22750507Y12656099D01*
X22636493Y12721925D01*
X22572907Y12738964D01*
X23313556Y13479612D01*
X23266732Y13516055D01*
X23048111Y13634367D01*
X22812986Y13715085D01*
X22567794Y13756000D01*
X22319206Y13756000D01*
X22074013Y13715085D01*
X21838888Y13634367D01*
X21620265Y13516053D01*
X21620264Y13516053D01*
X21573442Y13479612D01*
X22314091Y12738963D01*
X22250507Y12721925D01*
X22136493Y12656099D01*
X22043401Y12563007D01*
X21977575Y12448993D01*
X21960537Y12385409D01*
X21220064Y13125882D01*
X21119768Y12972368D01*
X21019912Y12744717D01*
X20958886Y12503737D01*
X20938359Y12256000D01*
X18748968Y12256000D01*
X18748968Y12256004D01*
X18729136Y12482685D01*
X18729135Y12482688D01*
X18729135Y12482692D01*
X18670239Y12702496D01*
X18650551Y12744717D01*
X18574073Y12908724D01*
X18574071Y12908728D01*
X18574068Y12908734D01*
X18443553Y13095131D01*
X18443552Y13095133D01*
X18443549Y13095136D01*
X18443547Y13095139D01*
X18282639Y13256047D01*
X18282635Y13256050D01*
X18282632Y13256053D01*
X18282630Y13256054D01*
X18096237Y13386566D01*
X18096236Y13386567D01*
X18096234Y13386568D01*
X18096231Y13386570D01*
X18096223Y13386574D01*
X17889999Y13482738D01*
X17890000Y13482738D01*
X17765658Y13516055D01*
X17670192Y13541635D01*
X17670191Y13541636D01*
X17670184Y13541637D01*
X17443503Y13561468D01*
X17443497Y13561468D01*
X17216815Y13541637D01*
X16996999Y13482738D01*
X16790776Y13386574D01*
X16790762Y13386566D01*
X16604369Y13256054D01*
X16604367Y13256053D01*
X16443447Y13095133D01*
X16443446Y13095131D01*
X16312934Y12908738D01*
X16312926Y12908724D01*
X16216762Y12702501D01*
X16157863Y12482685D01*
X16138032Y12256004D01*
X10393200Y12256004D01*
X10393200Y17708176D01*
X12593499Y17708176D01*
X12599901Y17648630D01*
X12599903Y17648619D01*
X12650146Y17513912D01*
X12650147Y17513910D01*
X12736307Y17398816D01*
X12736315Y17398808D01*
X12851409Y17312648D01*
X12851411Y17312647D01*
X12986118Y17262404D01*
X12986129Y17262402D01*
X13045676Y17256000D01*
X14093499Y17256000D01*
X14093500Y17256001D01*
X14093500Y18036137D01*
X14245009Y18006000D01*
X14441991Y18006000D01*
X14593500Y18036137D01*
X14593500Y17256001D01*
X14593501Y17256000D01*
X15641324Y17256000D01*
X15700870Y17262402D01*
X15700881Y17262404D01*
X15835588Y17312647D01*
X15835590Y17312648D01*
X15950684Y17398808D01*
X15950692Y17398816D01*
X16036852Y17513910D01*
X16036853Y17513912D01*
X16087096Y17648619D01*
X16087098Y17648630D01*
X16093500Y17708176D01*
X23793499Y17708176D01*
X23799901Y17648630D01*
X23799903Y17648619D01*
X23850146Y17513912D01*
X23850147Y17513910D01*
X23936307Y17398816D01*
X23936315Y17398808D01*
X24051409Y17312648D01*
X24051411Y17312647D01*
X24186118Y17262404D01*
X24186129Y17262402D01*
X24245676Y17256000D01*
X25293499Y17256000D01*
X25293500Y17256001D01*
X25293500Y18036137D01*
X25445009Y18006000D01*
X25641991Y18006000D01*
X25793500Y18036137D01*
X25793500Y17256001D01*
X25793501Y17256000D01*
X26841324Y17256000D01*
X26900870Y17262402D01*
X26900881Y17262404D01*
X27035588Y17312647D01*
X27035590Y17312648D01*
X27150684Y17398808D01*
X27150692Y17398816D01*
X27236852Y17513910D01*
X27236853Y17513912D01*
X27287096Y17648619D01*
X27287098Y17648630D01*
X27293500Y17708176D01*
X27293500Y19005999D01*
X27293499Y19006000D01*
X26543500Y19006000D01*
X26543500Y19506000D01*
X27293499Y19506000D01*
X27293500Y19506001D01*
X27293500Y20803825D01*
X27287098Y20863371D01*
X27287096Y20863382D01*
X27236853Y20998089D01*
X27236852Y20998091D01*
X27150692Y21113185D01*
X27150684Y21113193D01*
X27035590Y21199353D01*
X27035588Y21199354D01*
X26900881Y21249597D01*
X26900870Y21249599D01*
X26841324Y21256000D01*
X25793501Y21256000D01*
X25793500Y21255999D01*
X25793500Y20475864D01*
X25641991Y20506000D01*
X25445009Y20506000D01*
X25293500Y20475864D01*
X25293500Y21255999D01*
X25293499Y21256000D01*
X24245676Y21256000D01*
X24186129Y21249599D01*
X24186118Y21249597D01*
X24051411Y21199354D01*
X24051409Y21199353D01*
X23936315Y21113193D01*
X23936307Y21113185D01*
X23850147Y20998091D01*
X23850146Y20998089D01*
X23799903Y20863382D01*
X23799901Y20863371D01*
X23793500Y20803825D01*
X23793500Y19506001D01*
X23793501Y19506000D01*
X24543500Y19506000D01*
X24543500Y19006000D01*
X23793501Y19006000D01*
X23793500Y19005999D01*
X23793500Y17708176D01*
X23793499Y17708176D01*
X16093500Y17708176D01*
X16093500Y19005999D01*
X16093499Y19006000D01*
X15343500Y19006000D01*
X15343500Y19506000D01*
X16093499Y19506000D01*
X16093500Y19506001D01*
X16093500Y20803825D01*
X16087098Y20863371D01*
X16087096Y20863382D01*
X16036853Y20998089D01*
X16036852Y20998091D01*
X15950692Y21113185D01*
X15950684Y21113193D01*
X15835590Y21199353D01*
X15835588Y21199354D01*
X15700881Y21249597D01*
X15700870Y21249599D01*
X15641324Y21256000D01*
X14593501Y21256000D01*
X14593500Y21255999D01*
X14593500Y20475864D01*
X14441991Y20506000D01*
X14245009Y20506000D01*
X14093500Y20475864D01*
X14093500Y21255999D01*
X14093499Y21256000D01*
X13045676Y21256000D01*
X12986129Y21249599D01*
X12986118Y21249597D01*
X12851411Y21199354D01*
X12851409Y21199353D01*
X12736315Y21113193D01*
X12736307Y21113185D01*
X12650147Y20998091D01*
X12650146Y20998089D01*
X12599903Y20863382D01*
X12599901Y20863371D01*
X12593500Y20803825D01*
X12593500Y19506001D01*
X12593501Y19506000D01*
X13343500Y19506000D01*
X13343500Y19006000D01*
X12593501Y19006000D01*
X12593500Y19005999D01*
X12593500Y17708176D01*
X12593499Y17708176D01*
X10393200Y17708176D01*
X10393200Y22099300D01*
X10412107Y22157491D01*
X10422190Y22169298D01*
X15008896Y26756004D01*
X16138032Y26756004D01*
X16138032Y26755997D01*
X16157863Y26529316D01*
X16216762Y26309500D01*
X16312926Y26103277D01*
X16312934Y26103263D01*
X16443446Y25916870D01*
X16443447Y25916868D01*
X16443450Y25916865D01*
X16443453Y25916861D01*
X16604361Y25755953D01*
X16604364Y25755951D01*
X16604367Y25755948D01*
X16604369Y25755947D01*
X16668367Y25711136D01*
X16790766Y25625432D01*
X16790772Y25625429D01*
X16790776Y25625427D01*
X16997000Y25529263D01*
X16997004Y25529261D01*
X17216808Y25470365D01*
X17216812Y25470365D01*
X17216815Y25470364D01*
X17443497Y25450532D01*
X17443500Y25450532D01*
X17443503Y25450532D01*
X17670184Y25470364D01*
X17670185Y25470365D01*
X17670192Y25470365D01*
X17889996Y25529261D01*
X18096234Y25625432D01*
X18282639Y25755953D01*
X18443547Y25916861D01*
X18492267Y25986443D01*
X18541129Y26023263D01*
X18602305Y26024332D01*
X18652426Y25989238D01*
X18656241Y25983805D01*
X18720063Y25886119D01*
X19460536Y26626593D01*
X19477575Y26563007D01*
X19543401Y26448993D01*
X19636493Y26355901D01*
X19750507Y26290075D01*
X19814090Y26273038D01*
X19073442Y25532390D01*
X19120268Y25495946D01*
X19338888Y25377634D01*
X19574013Y25296916D01*
X19819206Y25256000D01*
X20067794Y25256000D01*
X20312986Y25296916D01*
X20548111Y25377634D01*
X20766734Y25495947D01*
X20766737Y25495949D01*
X20813556Y25532390D01*
X20072909Y26273038D01*
X20136493Y26290075D01*
X20250507Y26355901D01*
X20343599Y26448993D01*
X20409425Y26563007D01*
X20426462Y26626592D01*
X21114004Y25939049D01*
X21141781Y25884532D01*
X21143000Y25869046D01*
X21143000Y25711139D01*
X21143001Y25711136D01*
X21145914Y25686010D01*
X21171256Y25628615D01*
X21191294Y25583235D01*
X21270735Y25503794D01*
X21373509Y25458415D01*
X21398635Y25455500D01*
X23488364Y25455501D01*
X23513491Y25458415D01*
X23616265Y25503794D01*
X23695706Y25583235D01*
X23741085Y25686009D01*
X23744000Y25711135D01*
X23743999Y27800864D01*
X23741085Y27825991D01*
X23695706Y27928765D01*
X23616265Y28008206D01*
X23513491Y28053585D01*
X23513490Y28053586D01*
X23513488Y28053586D01*
X23488368Y28056500D01*
X21398639Y28056500D01*
X21398636Y28056499D01*
X21373509Y28053586D01*
X21270735Y28008206D01*
X21191294Y27928765D01*
X21145914Y27825989D01*
X21143000Y27800870D01*
X21143000Y27642956D01*
X21124093Y27584765D01*
X21114004Y27572953D01*
X20426462Y26885411D01*
X20409425Y26948993D01*
X20343599Y27063007D01*
X20250507Y27156099D01*
X20136493Y27221925D01*
X20072907Y27238964D01*
X20813556Y27979612D01*
X20766732Y28016055D01*
X20548111Y28134367D01*
X20312986Y28215085D01*
X20067794Y28256000D01*
X19819206Y28256000D01*
X19574013Y28215085D01*
X19338888Y28134367D01*
X19120265Y28016053D01*
X19120264Y28016053D01*
X19073442Y27979612D01*
X19814091Y27238963D01*
X19750507Y27221925D01*
X19636493Y27156099D01*
X19543401Y27063007D01*
X19477575Y26948993D01*
X19460537Y26885409D01*
X18720063Y27625883D01*
X18656241Y27528196D01*
X18608585Y27489822D01*
X18547475Y27486788D01*
X18496253Y27520254D01*
X18492273Y27525550D01*
X18443547Y27595139D01*
X18282639Y27756047D01*
X18282635Y27756050D01*
X18282632Y27756053D01*
X18282630Y27756054D01*
X18096237Y27886566D01*
X18096236Y27886567D01*
X18096234Y27886568D01*
X18096231Y27886570D01*
X18096223Y27886574D01*
X17889999Y27982738D01*
X17890000Y27982738D01*
X17765658Y28016055D01*
X17670192Y28041635D01*
X17670191Y28041636D01*
X17670184Y28041637D01*
X17443503Y28061468D01*
X17443497Y28061468D01*
X17216815Y28041637D01*
X16996999Y27982738D01*
X16790776Y27886574D01*
X16790762Y27886566D01*
X16604369Y27756054D01*
X16604367Y27756053D01*
X16443447Y27595133D01*
X16443446Y27595131D01*
X16312934Y27408738D01*
X16312926Y27408724D01*
X16216762Y27202501D01*
X16157863Y26982685D01*
X16138032Y26756004D01*
X15008896Y26756004D01*
X18558761Y30305870D01*
X35089500Y30305870D01*
X35089500Y27816140D01*
X35089501Y27816137D01*
X35092414Y27791010D01*
X35107852Y27756047D01*
X35137794Y27688235D01*
X35217235Y27608794D01*
X35320009Y27563415D01*
X35345135Y27560500D01*
X37834864Y27560501D01*
X37859991Y27563415D01*
X37962765Y27608794D01*
X38042206Y27688235D01*
X38087585Y27791009D01*
X38090500Y27816135D01*
X38090499Y29061000D01*
X38584357Y29061000D01*
X38604891Y28813181D01*
X38604892Y28813179D01*
X38665937Y28572119D01*
X38765827Y28344393D01*
X38901836Y28136215D01*
X39070256Y27953262D01*
X39155947Y27886566D01*
X39266060Y27800861D01*
X39266491Y27800526D01*
X39348668Y27756054D01*
X39473986Y27688235D01*
X39485190Y27682172D01*
X39720386Y27601429D01*
X39965665Y27560500D01*
X40214335Y27560500D01*
X40459614Y27601429D01*
X40694810Y27682172D01*
X40913509Y27800526D01*
X41109744Y27953262D01*
X41278164Y28136215D01*
X41414173Y28344393D01*
X41514063Y28572119D01*
X41575108Y28813179D01*
X41595643Y29061000D01*
X42084357Y29061000D01*
X42104891Y28813181D01*
X42104892Y28813179D01*
X42165937Y28572119D01*
X42265827Y28344393D01*
X42401836Y28136215D01*
X42570256Y27953262D01*
X42655947Y27886566D01*
X42766060Y27800861D01*
X42766491Y27800526D01*
X42848668Y27756054D01*
X42973986Y27688235D01*
X42985190Y27682172D01*
X43220386Y27601429D01*
X43465665Y27560500D01*
X43714335Y27560500D01*
X43959614Y27601429D01*
X44194810Y27682172D01*
X44413509Y27800526D01*
X44609744Y27953262D01*
X44778164Y28136215D01*
X44914173Y28344393D01*
X45014063Y28572119D01*
X45075108Y28813179D01*
X45095643Y29061000D01*
X45584357Y29061000D01*
X45604891Y28813181D01*
X45604892Y28813179D01*
X45665937Y28572119D01*
X45765827Y28344393D01*
X45901836Y28136215D01*
X46070256Y27953262D01*
X46155947Y27886566D01*
X46266060Y27800861D01*
X46266491Y27800526D01*
X46348668Y27756054D01*
X46473986Y27688235D01*
X46485190Y27682172D01*
X46720386Y27601429D01*
X46965665Y27560500D01*
X47214335Y27560500D01*
X47459614Y27601429D01*
X47694810Y27682172D01*
X47913509Y27800526D01*
X48109744Y27953262D01*
X48278164Y28136215D01*
X48414173Y28344393D01*
X48514063Y28572119D01*
X48575108Y28813179D01*
X48595643Y29061000D01*
X49084357Y29061000D01*
X49104891Y28813181D01*
X49104892Y28813179D01*
X49165937Y28572119D01*
X49265827Y28344393D01*
X49401836Y28136215D01*
X49570256Y27953262D01*
X49655947Y27886566D01*
X49766060Y27800861D01*
X49766491Y27800526D01*
X49848668Y27756054D01*
X49973986Y27688235D01*
X49985190Y27682172D01*
X50220386Y27601429D01*
X50465665Y27560500D01*
X50714335Y27560500D01*
X50959614Y27601429D01*
X51194810Y27682172D01*
X51413509Y27800526D01*
X51609744Y27953262D01*
X51778164Y28136215D01*
X51914173Y28344393D01*
X52014063Y28572119D01*
X52075108Y28813179D01*
X52095643Y29061000D01*
X52584357Y29061000D01*
X52604891Y28813181D01*
X52604892Y28813179D01*
X52665937Y28572119D01*
X52765827Y28344393D01*
X52901836Y28136215D01*
X53070256Y27953262D01*
X53155947Y27886566D01*
X53266060Y27800861D01*
X53266491Y27800526D01*
X53348668Y27756054D01*
X53473986Y27688235D01*
X53485190Y27682172D01*
X53720386Y27601429D01*
X53965665Y27560500D01*
X54214335Y27560500D01*
X54459614Y27601429D01*
X54694810Y27682172D01*
X54913509Y27800526D01*
X55109744Y27953262D01*
X55278164Y28136215D01*
X55414173Y28344393D01*
X55514063Y28572119D01*
X55575108Y28813179D01*
X55595643Y29061000D01*
X55575108Y29308821D01*
X55514063Y29549881D01*
X55414173Y29777607D01*
X55278164Y29985785D01*
X55109744Y30168738D01*
X54933565Y30305864D01*
X54913512Y30321472D01*
X54913509Y30321474D01*
X54694813Y30439827D01*
X54459611Y30520572D01*
X54214335Y30561500D01*
X53965665Y30561500D01*
X53720388Y30520572D01*
X53485186Y30439827D01*
X53266490Y30321474D01*
X53266487Y30321472D01*
X53070259Y30168741D01*
X53070256Y30168739D01*
X53070256Y30168738D01*
X52901836Y29985785D01*
X52765827Y29777607D01*
X52690098Y29604961D01*
X52665937Y29549880D01*
X52604891Y29308820D01*
X52584357Y29061000D01*
X52095643Y29061000D01*
X52075108Y29308821D01*
X52014063Y29549881D01*
X51914173Y29777607D01*
X51778164Y29985785D01*
X51609744Y30168738D01*
X51433565Y30305864D01*
X51413512Y30321472D01*
X51413509Y30321474D01*
X51194813Y30439827D01*
X50959611Y30520572D01*
X50714335Y30561500D01*
X50465665Y30561500D01*
X50220388Y30520572D01*
X49985186Y30439827D01*
X49766490Y30321474D01*
X49766487Y30321472D01*
X49570259Y30168741D01*
X49570256Y30168739D01*
X49570256Y30168738D01*
X49401836Y29985785D01*
X49265827Y29777607D01*
X49190098Y29604961D01*
X49165937Y29549880D01*
X49104891Y29308820D01*
X49084357Y29061000D01*
X48595643Y29061000D01*
X48575108Y29308821D01*
X48514063Y29549881D01*
X48414173Y29777607D01*
X48278164Y29985785D01*
X48109744Y30168738D01*
X47933565Y30305864D01*
X47913512Y30321472D01*
X47913509Y30321474D01*
X47694813Y30439827D01*
X47459611Y30520572D01*
X47214335Y30561500D01*
X46965665Y30561500D01*
X46720388Y30520572D01*
X46485186Y30439827D01*
X46266490Y30321474D01*
X46266487Y30321472D01*
X46070259Y30168741D01*
X46070256Y30168739D01*
X46070256Y30168738D01*
X45901836Y29985785D01*
X45765827Y29777607D01*
X45690098Y29604961D01*
X45665937Y29549880D01*
X45604891Y29308820D01*
X45584357Y29061000D01*
X45095643Y29061000D01*
X45075108Y29308821D01*
X45014063Y29549881D01*
X44914173Y29777607D01*
X44778164Y29985785D01*
X44609744Y30168738D01*
X44433565Y30305864D01*
X44413512Y30321472D01*
X44413509Y30321474D01*
X44194813Y30439827D01*
X43959611Y30520572D01*
X43714335Y30561500D01*
X43465665Y30561500D01*
X43220388Y30520572D01*
X42985186Y30439827D01*
X42766490Y30321474D01*
X42766487Y30321472D01*
X42570259Y30168741D01*
X42570256Y30168739D01*
X42570256Y30168738D01*
X42401836Y29985785D01*
X42265827Y29777607D01*
X42190098Y29604961D01*
X42165937Y29549880D01*
X42104891Y29308820D01*
X42084357Y29061000D01*
X41595643Y29061000D01*
X41575108Y29308821D01*
X41514063Y29549881D01*
X41414173Y29777607D01*
X41278164Y29985785D01*
X41109744Y30168738D01*
X40933565Y30305864D01*
X40913512Y30321472D01*
X40913509Y30321474D01*
X40694813Y30439827D01*
X40459611Y30520572D01*
X40214335Y30561500D01*
X39965665Y30561500D01*
X39720388Y30520572D01*
X39485186Y30439827D01*
X39266490Y30321474D01*
X39266487Y30321472D01*
X39070259Y30168741D01*
X39070256Y30168739D01*
X39070256Y30168738D01*
X38901836Y29985785D01*
X38765827Y29777607D01*
X38690098Y29604961D01*
X38665937Y29549880D01*
X38604891Y29308820D01*
X38584357Y29061000D01*
X38090499Y29061000D01*
X38090499Y30305864D01*
X38087585Y30330991D01*
X38042206Y30433765D01*
X37962765Y30513206D01*
X37859991Y30558585D01*
X37859990Y30558586D01*
X37859988Y30558586D01*
X37834868Y30561500D01*
X35345139Y30561500D01*
X35345136Y30561499D01*
X35320009Y30558586D01*
X35217235Y30513206D01*
X35137794Y30433765D01*
X35092414Y30330989D01*
X35089500Y30305870D01*
X18558761Y30305870D01*
X21019182Y32766291D01*
X58583500Y32766291D01*
X58583500Y32553710D01*
X58616752Y32343762D01*
X58682443Y32141588D01*
X58778948Y31952185D01*
X58778950Y31952181D01*
X58903891Y31780214D01*
X58903893Y31780212D01*
X58903896Y31780208D01*
X59054208Y31629896D01*
X59054211Y31629894D01*
X59054213Y31629892D01*
X59226180Y31504951D01*
X59226184Y31504949D01*
X59415588Y31408443D01*
X59617757Y31342754D01*
X59617758Y31342754D01*
X59617761Y31342753D01*
X59827710Y31309500D01*
X59827713Y31309500D01*
X60040290Y31309500D01*
X60250238Y31342753D01*
X60250239Y31342754D01*
X60250243Y31342754D01*
X60452412Y31408443D01*
X60641816Y31504949D01*
X60813792Y31629896D01*
X60964104Y31780208D01*
X61089051Y31952184D01*
X61185557Y32141588D01*
X61251246Y32343757D01*
X61284500Y32553713D01*
X61284500Y32766287D01*
X61284500Y32766291D01*
X61251247Y32976239D01*
X61251246Y32976243D01*
X61185557Y33178412D01*
X61089051Y33367816D01*
X61089049Y33367820D01*
X60964108Y33539787D01*
X60964106Y33539789D01*
X60964104Y33539792D01*
X60813792Y33690104D01*
X60813788Y33690107D01*
X60813786Y33690109D01*
X60641819Y33815050D01*
X60641815Y33815052D01*
X60452412Y33911557D01*
X60250238Y33977248D01*
X60040290Y34010500D01*
X60040287Y34010500D01*
X59827713Y34010500D01*
X59827710Y34010500D01*
X59617761Y33977248D01*
X59415587Y33911557D01*
X59226184Y33815052D01*
X59226180Y33815050D01*
X59054213Y33690109D01*
X58903891Y33539787D01*
X58778950Y33367820D01*
X58778948Y33367816D01*
X58682443Y33178413D01*
X58616752Y32976239D01*
X58583500Y32766291D01*
X21019182Y32766291D01*
X21729397Y33476506D01*
X21783914Y33504282D01*
X21799401Y33505501D01*
X22188361Y33505501D01*
X22188364Y33505501D01*
X22213491Y33508415D01*
X22316265Y33553794D01*
X22395706Y33633235D01*
X22441085Y33736009D01*
X22444000Y33761135D01*
X22443999Y34550864D01*
X22441085Y34575991D01*
X22401335Y34666015D01*
X22395128Y34726882D01*
X22401334Y34745983D01*
X22441085Y34836009D01*
X22444000Y34861135D01*
X22443999Y35650864D01*
X22441085Y35675991D01*
X22401335Y35766015D01*
X22395128Y35826882D01*
X22401334Y35845983D01*
X22441085Y35936009D01*
X22444000Y35961135D01*
X22443999Y36750864D01*
X22441085Y36775991D01*
X22395706Y36878765D01*
X22316265Y36958206D01*
X22213491Y37003585D01*
X22213490Y37003586D01*
X22213488Y37003586D01*
X22188369Y37006500D01*
X22188365Y37006500D01*
X21966811Y37006500D01*
X21908620Y37025407D01*
X21872656Y37074907D01*
X21871184Y37079878D01*
X21866706Y37096590D01*
X21836146Y37149520D01*
X21836146Y37149521D01*
X21813981Y37187911D01*
X21813980Y37187913D01*
X21739413Y37262480D01*
X21739410Y37262482D01*
X21211413Y37790480D01*
X21211410Y37790482D01*
X21211408Y37790484D01*
X21120091Y37843206D01*
X21120093Y37843206D01*
X21080570Y37853796D01*
X21018227Y37870500D01*
X16700227Y37870500D01*
X16594773Y37870500D01*
X16532429Y37853796D01*
X16492907Y37843206D01*
X16401591Y37790484D01*
X8046616Y29435509D01*
X7993893Y29344189D01*
X7993892Y29344189D01*
X7993893Y29344188D01*
X7972713Y29265143D01*
X7966600Y29242327D01*
X1451728Y29242327D01*
X1419659Y29265139D01*
X1419653Y29265143D01*
X849266Y29623200D01*
X849261Y29623202D01*
X735285Y29685896D01*
X693411Y29730508D01*
X683999Y29772639D01*
X683999Y32766291D01*
X3583500Y32766291D01*
X3583500Y32553710D01*
X3616752Y32343762D01*
X3682443Y32141588D01*
X3778948Y31952185D01*
X3778950Y31952181D01*
X3903891Y31780214D01*
X3903893Y31780212D01*
X3903896Y31780208D01*
X4054208Y31629896D01*
X4054211Y31629894D01*
X4054213Y31629892D01*
X4226180Y31504951D01*
X4226184Y31504949D01*
X4415588Y31408443D01*
X4617757Y31342754D01*
X4617758Y31342754D01*
X4617761Y31342753D01*
X4827710Y31309500D01*
X4827713Y31309500D01*
X5040290Y31309500D01*
X5250238Y31342753D01*
X5250239Y31342754D01*
X5250243Y31342754D01*
X5452412Y31408443D01*
X5641816Y31504949D01*
X5813792Y31629896D01*
X5964104Y31780208D01*
X6089051Y31952184D01*
X6185557Y32141588D01*
X6251246Y32343757D01*
X6284500Y32553713D01*
X6284500Y32766287D01*
X6284500Y32766291D01*
X6251247Y32976239D01*
X6251246Y32976243D01*
X6185557Y33178412D01*
X6089051Y33367816D01*
X6089049Y33367820D01*
X5964108Y33539787D01*
X5964106Y33539789D01*
X5964104Y33539792D01*
X5813792Y33690104D01*
X5813788Y33690107D01*
X5813786Y33690109D01*
X5641819Y33815050D01*
X5641815Y33815052D01*
X5452412Y33911557D01*
X5250238Y33977248D01*
X5040290Y34010500D01*
X5040287Y34010500D01*
X4827713Y34010500D01*
X4827710Y34010500D01*
X4617761Y33977248D01*
X4415587Y33911557D01*
X4226184Y33815052D01*
X4226180Y33815050D01*
X4054213Y33690109D01*
X3903891Y33539787D01*
X3778950Y33367820D01*
X3778948Y33367816D01*
X3682443Y33178413D01*
X3616752Y32976239D01*
X3583500Y32766291D01*
X683999Y32766291D01*
X684000Y39716500D01*
X702907Y39774691D01*
X752407Y39810655D01*
X783000Y39815500D01*
X64084000Y39815500D01*
X64142191Y39796593D01*
G37*
G04 #@! TD.AperFunction*
G04 #@! TD*
M02*
