(kicad_symbol_lib (version 20220914) (generator kicad_symbol_editor)
  (symbol "isolated_dcdc_module_1w" (in_bom yes) (on_board yes)
    (property "Reference" "U" (at -2.54 5.08 0)
      (effects (font (size 1.27 1.27)))
    )
    (property "Value" "" (at 0 0 0)
      (effects (font (size 1.27 1.27)))
    )
    (property "Footprint" "" (at 0 0 0)
      (effects (font (size 1.27 1.27)) hide)
    )
    (property "Datasheet" "" (at 0 0 0)
      (effects (font (size 1.27 1.27)) hide)
    )
    (symbol "isolated_dcdc_module_1w_1_1"
      (rectangle (start -7.62 3.81) (end 7.62 -3.81)
        (stroke (width 0) (type default))
        (fill (type background))
      )
      (polyline
        (pts
          (xy -0.3889 3.7825)
          (xy -0.3889 -3.8375)
        )
        (stroke (width 0) (type dash))
        (fill (type none))
      )
      (polyline
        (pts
          (xy 0.6192 3.7681)
          (xy 0.6192 -3.8519)
        )
        (stroke (width 0) (type dash))
        (fill (type none))
      )
      (pin input line (at -10.16 -2.54 0) (length 2.54)
        (name "GND" (effects (font (size 1.27 1.27))))
        (number "1" (effects (font (size 1.27 1.27))))
      )
      (pin input line (at -10.16 2.54 0) (length 2.54)
        (name "Vin" (effects (font (size 1.27 1.27))))
        (number "2" (effects (font (size 1.27 1.27))))
      )
      (pin input line (at 10.16 0 180) (length 2.54)
        (name "0V" (effects (font (size 1.27 1.27))))
        (number "4" (effects (font (size 1.27 1.27))))
      )
      (pin input line (at 10.16 2.54 180) (length 2.54)
        (name "+Vout" (effects (font (size 1.27 1.27))))
        (number "5" (effects (font (size 1.27 1.27))))
      )
      (pin no_connect line (at -10.16 0 0) (length 2.54) hide
        (name "NC" (effects (font (size 1.27 1.27))))
        (number "8" (effects (font (size 1.27 1.27))))
      )
    )
  )
  (symbol "isolated_dcdc_module_1w_dual_output" (in_bom yes) (on_board yes)
    (property "Reference" "U" (at -2.54 5.08 0)
      (effects (font (size 1.27 1.27)))
    )
    (property "Value" "" (at -1.27 -8.89 0)
      (effects (font (size 1.27 1.27)) hide)
    )
    (property "Footprint" "" (at 0 0 0)
      (effects (font (size 1.27 1.27)) hide)
    )
    (property "Datasheet" "" (at 0 0 0)
      (effects (font (size 1.27 1.27)) hide)
    )
    (symbol "isolated_dcdc_module_1w_dual_output_1_1"
      (rectangle (start -7.62 3.81) (end 7.62 -3.81)
        (stroke (width 0) (type default))
        (fill (type background))
      )
      (polyline
        (pts
          (xy -0.3889 3.7825)
          (xy -0.3889 -3.8375)
        )
        (stroke (width 0) (type dash))
        (fill (type none))
      )
      (polyline
        (pts
          (xy 0.6192 3.7681)
          (xy 0.6192 -3.8519)
        )
        (stroke (width 0) (type dash))
        (fill (type none))
      )
      (pin input line (at -10.16 -2.54 0) (length 2.54)
        (name "GND" (effects (font (size 1.27 1.27))))
        (number "1" (effects (font (size 1.27 1.27))))
      )
      (pin no_connect line (at -10.16 0 0) (length 2.54) hide
        (name "NC" (effects (font (size 1.27 1.27))))
        (number "10" (effects (font (size 1.27 1.27))))
      )
      (pin input line (at -10.16 2.54 0) (length 2.54)
        (name "Vin" (effects (font (size 1.27 1.27))))
        (number "2" (effects (font (size 1.27 1.27))))
      )
      (pin input line (at 10.16 0 180) (length 2.54)
        (name "0V" (effects (font (size 1.27 1.27))))
        (number "4" (effects (font (size 1.27 1.27))))
      )
      (pin input line (at 10.16 -2.54 180) (length 2.54)
        (name "-Vout" (effects (font (size 1.27 1.27))))
        (number "5" (effects (font (size 1.27 1.27))))
      )
      (pin input line (at 10.16 2.54 180) (length 2.54)
        (name "+Vout" (effects (font (size 1.27 1.27))))
        (number "7" (effects (font (size 1.27 1.27))))
      )
    )
  )
)
