(kicad_symbol_lib (version 20220914) (generator kicad_symbol_editor)
  (symbol "PWR_NMOS" (pin_numbers hide) (pin_names (offset 0) hide) (in_bom yes) (on_board yes)
    (property "Reference" "Q" (at 5.08 1.27 0)
      (effects (font (size 1.27 1.27)) (justify left))
    )
    (property "Value" "PWR_NMOS" (at 5.08 -1.27 0)
      (effects (font (size 1.27 1.27)) (justify left) hide)
    )
    (property "Footprint" "" (at 3.81 -12.7 0)
      (effects (font (size 1.27 1.27)) hide)
    )
    (property "Datasheet" "" (at 0 -15.24 0)
      (effects (font (size 1.27 1.27)) hide)
    )
    (property "ki_keywords" "transistor NMOS N-MOS N-MOSFET" (at 0 0 0)
      (effects (font (size 1.27 1.27)) hide)
    )
    (property "ki_description" "N-MOSFET transistor" (at 0 0 0)
      (effects (font (size 1.27 1.27)) hide)
    )
    (symbol "PWR_NMOS_0_1"
      (polyline
        (pts
          (xy 0.254 0)
          (xy -2.54 0)
        )
        (stroke (width 0) (type default))
        (fill (type none))
      )
      (polyline
        (pts
          (xy 0.254 1.905)
          (xy 0.254 -1.905)
        )
        (stroke (width 0.254) (type default))
        (fill (type none))
      )
      (polyline
        (pts
          (xy 0.762 -1.27)
          (xy 0.762 -2.286)
        )
        (stroke (width 0.254) (type default))
        (fill (type none))
      )
      (polyline
        (pts
          (xy 0.762 0.508)
          (xy 0.762 -0.508)
        )
        (stroke (width 0.254) (type default))
        (fill (type none))
      )
      (polyline
        (pts
          (xy 0.762 2.286)
          (xy 0.762 1.27)
        )
        (stroke (width 0.254) (type default))
        (fill (type none))
      )
      (polyline
        (pts
          (xy 2.54 2.54)
          (xy 2.54 1.778)
        )
        (stroke (width 0) (type default))
        (fill (type none))
      )
      (polyline
        (pts
          (xy 2.54 -2.54)
          (xy 2.54 0)
          (xy 0.762 0)
        )
        (stroke (width 0) (type default))
        (fill (type none))
      )
      (polyline
        (pts
          (xy 0.762 -1.778)
          (xy 3.302 -1.778)
          (xy 3.302 1.778)
          (xy 0.762 1.778)
        )
        (stroke (width 0) (type default))
        (fill (type none))
      )
      (polyline
        (pts
          (xy 1.016 0)
          (xy 2.032 0.381)
          (xy 2.032 -0.381)
          (xy 1.016 0)
        )
        (stroke (width 0) (type default))
        (fill (type outline))
      )
      (polyline
        (pts
          (xy 2.794 0.508)
          (xy 2.921 0.381)
          (xy 3.683 0.381)
          (xy 3.81 0.254)
        )
        (stroke (width 0) (type default))
        (fill (type none))
      )
      (polyline
        (pts
          (xy 3.302 0.381)
          (xy 2.921 -0.254)
          (xy 3.683 -0.254)
          (xy 3.302 0.381)
        )
        (stroke (width 0) (type default))
        (fill (type none))
      )
      (circle (center 1.651 0) (radius 2.794)
        (stroke (width 0.254) (type default))
        (fill (type none))
      )
      (circle (center 2.54 -1.778) (radius 0.254)
        (stroke (width 0) (type default))
        (fill (type outline))
      )
      (circle (center 2.54 1.778) (radius 0.254)
        (stroke (width 0) (type default))
        (fill (type outline))
      )
    )
    (symbol "PWR_NMOS_1_1"
      (pin passive line (at 2.54 -5.08 90) (length 2.54)
        (name "S" (effects (font (size 1.27 1.27))))
        (number "1" (effects (font (size 1.27 1.27))))
      )
      (pin passive line (at 2.54 -5.08 90) (length 2.54) hide
        (name "S" (effects (font (size 1.27 1.27))))
        (number "2" (effects (font (size 1.27 1.27))))
      )
      (pin passive line (at 2.54 -5.08 90) (length 2.54) hide
        (name "S" (effects (font (size 1.27 1.27))))
        (number "3" (effects (font (size 1.27 1.27))))
      )
      (pin input line (at -5.08 0 0) (length 2.54)
        (name "G" (effects (font (size 1.27 1.27))))
        (number "4" (effects (font (size 1.27 1.27))))
      )
      (pin passive line (at 2.54 5.08 270) (length 2.54)
        (name "D" (effects (font (size 1.27 1.27))))
        (number "5" (effects (font (size 1.27 1.27))))
      )
    )
  )
  (symbol "PWR_PMOS" (pin_numbers hide) (pin_names (offset 0) hide) (in_bom yes) (on_board yes)
    (property "Reference" "Q" (at 5.08 1.27 0)
      (effects (font (size 1.27 1.27)) (justify left))
    )
    (property "Value" "PWR_PMOS" (at 5.08 -1.27 0)
      (effects (font (size 1.27 1.27)) (justify left) hide)
    )
    (property "Footprint" "" (at 5.08 2.54 0)
      (effects (font (size 1.27 1.27)) hide)
    )
    (property "Datasheet" "" (at 0 -12.7 0)
      (effects (font (size 1.27 1.27)) hide)
    )
    (property "Sim.Device" "" (at 0 -17.145 0)
      (effects (font (size 1.27 1.27)) hide)
    )
    (property "Sim.Type" "" (at 0 -19.05 0)
      (effects (font (size 1.27 1.27)) hide)
    )
    (property "Sim.Pins" "" (at 0 -15.24 0)
      (effects (font (size 1.27 1.27)) hide)
    )
    (property "ki_keywords" "transistor PMOS P-MOS P-MOSFET simulation" (at 0 0 0)
      (effects (font (size 1.27 1.27)) hide)
    )
    (property "ki_description" "P-MOSFET transistor" (at 0 0 0)
      (effects (font (size 1.27 1.27)) hide)
    )
    (symbol "PWR_PMOS_0_1"
      (polyline
        (pts
          (xy 0.254 0)
          (xy -2.54 0)
        )
        (stroke (width 0) (type default))
        (fill (type none))
      )
      (polyline
        (pts
          (xy 0.254 1.905)
          (xy 0.254 -1.905)
        )
        (stroke (width 0.254) (type default))
        (fill (type none))
      )
      (polyline
        (pts
          (xy 0.762 -1.27)
          (xy 0.762 -2.286)
        )
        (stroke (width 0.254) (type default))
        (fill (type none))
      )
      (polyline
        (pts
          (xy 0.762 0.508)
          (xy 0.762 -0.508)
        )
        (stroke (width 0.254) (type default))
        (fill (type none))
      )
      (polyline
        (pts
          (xy 0.762 2.286)
          (xy 0.762 1.27)
        )
        (stroke (width 0.254) (type default))
        (fill (type none))
      )
      (polyline
        (pts
          (xy 2.54 2.54)
          (xy 2.54 1.778)
        )
        (stroke (width 0) (type default))
        (fill (type none))
      )
      (polyline
        (pts
          (xy 2.54 -2.54)
          (xy 2.54 0)
          (xy 0.762 0)
        )
        (stroke (width 0) (type default))
        (fill (type none))
      )
      (polyline
        (pts
          (xy 0.762 1.778)
          (xy 3.302 1.778)
          (xy 3.302 -1.778)
          (xy 0.762 -1.778)
        )
        (stroke (width 0) (type default))
        (fill (type none))
      )
      (polyline
        (pts
          (xy 2.286 0)
          (xy 1.27 0.381)
          (xy 1.27 -0.381)
          (xy 2.286 0)
        )
        (stroke (width 0) (type default))
        (fill (type outline))
      )
      (polyline
        (pts
          (xy 2.794 -0.508)
          (xy 2.921 -0.381)
          (xy 3.683 -0.381)
          (xy 3.81 -0.254)
        )
        (stroke (width 0) (type default))
        (fill (type none))
      )
      (polyline
        (pts
          (xy 3.302 -0.381)
          (xy 2.921 0.254)
          (xy 3.683 0.254)
          (xy 3.302 -0.381)
        )
        (stroke (width 0) (type default))
        (fill (type none))
      )
      (circle (center 1.651 0) (radius 2.794)
        (stroke (width 0.254) (type default))
        (fill (type none))
      )
      (circle (center 2.54 -1.778) (radius 0.254)
        (stroke (width 0) (type default))
        (fill (type outline))
      )
      (circle (center 2.54 1.778) (radius 0.254)
        (stroke (width 0) (type default))
        (fill (type outline))
      )
    )
    (symbol "PWR_PMOS_1_1"
      (pin passive line (at 2.54 -5.08 90) (length 2.54)
        (name "S" (effects (font (size 1.27 1.27))))
        (number "1" (effects (font (size 1.27 1.27))))
      )
      (pin passive line (at 2.54 -5.08 90) (length 2.54) hide
        (name "S" (effects (font (size 1.27 1.27))))
        (number "2" (effects (font (size 1.27 1.27))))
      )
      (pin passive line (at 2.54 -5.08 90) (length 2.54) hide
        (name "S" (effects (font (size 1.27 1.27))))
        (number "3" (effects (font (size 1.27 1.27))))
      )
      (pin input line (at -5.08 0 0) (length 2.54)
        (name "G" (effects (font (size 1.27 1.27))))
        (number "4" (effects (font (size 1.27 1.27))))
      )
      (pin passive line (at 2.54 5.08 270) (length 2.54)
        (name "D" (effects (font (size 1.27 1.27))))
        (number "5" (effects (font (size 1.27 1.27))))
      )
    )
  )
)
