(kicad_symbol_lib (version 20220914) (generator kicad_symbol_editor)
  (symbol "NCV8730" (in_bom yes) (on_board yes)
    (property "Reference" "U" (at -5.08 6.35 0)
      (effects (font (size 1.27 1.27)))
    )
    (property "Value" "NCV8740" (at 0 0 0)
      (effects (font (size 1.27 1.27)))
    )
    (property "Footprint" "Package_SO:TSOP-5_1.65x3.05mm_P0.95mm" (at 0 0 0)
      (effects (font (size 1.27 1.27)) hide)
    )
    (property "Datasheet" "https://hr.mouser.com/datasheet/2/308/1/NCV8730_D-2317675.pdf" (at 0 0 0)
      (effects (font (size 1.27 1.27)) hide)
    )
    (symbol "NCV8730_1_1"
      (rectangle (start -5.08 3.81) (end 6.35 -3.81)
        (stroke (width 0) (type default))
        (fill (type background))
      )
      (pin passive line (at -7.62 1.27 0) (length 2.54)
        (name "IN" (effects (font (size 1.27 1.27))))
        (number "1" (effects (font (size 1.27 1.27))))
      )
      (pin passive line (at 0 -6.35 90) (length 2.54)
        (name "GND" (effects (font (size 1.27 1.27))))
        (number "2" (effects (font (size 1.27 1.27))))
      )
      (pin passive line (at -7.62 -1.27 0) (length 2.54)
        (name "EN" (effects (font (size 1.27 1.27))))
        (number "3" (effects (font (size 1.27 1.27))))
      )
      (pin passive line (at 8.89 -1.27 180) (length 2.54)
        (name "ADJ" (effects (font (size 1.27 1.27))))
        (number "4" (effects (font (size 1.27 1.27))))
      )
      (pin passive line (at 8.89 1.27 180) (length 2.54)
        (name "OUT" (effects (font (size 1.27 1.27))))
        (number "5" (effects (font (size 1.27 1.27))))
      )
    )
  )
)
