(kicad_symbol_lib
	(version 20231120)
	(generator "kicad_symbol_editor")
	(generator_version "8.0")
	(symbol "THS4552IRTWx"
		(exclude_from_sim no)
		(in_bom yes)
		(on_board yes)
		(property "Reference" "U"
			(at 2.54 -7.62 0)
			(effects
				(font
					(size 1.27 1.27)
				)
			)
		)
		(property "Value" "THS4552IRTWx"
			(at 8.89 -10.16 0)
			(effects
				(font
					(size 1.27 1.27)
				)
			)
		)
		(property "Footprint" "Package_DFN_QFN:VQFN-24-1EP_4x4mm_P0.5mm_EP2.45x2.45mm"
			(at 0 -22.86 0)
			(effects
				(font
					(size 1.27 1.27)
				)
				(hide yes)
			)
		)
		(property "Datasheet" "https://www.ti.com/lit/ds/symlink/ths4552.pdf"
			(at 0 -20.32 0)
			(effects
				(font
					(size 1.27 1.27)
				)
				(hide yes)
			)
		)
		(property "Description" ""
			(at 0 0 0)
			(effects
				(font
					(size 1.27 1.27)
				)
				(hide yes)
			)
		)
		(property "ki_locked" ""
			(at 0 0 0)
			(effects
				(font
					(size 1.27 1.27)
				)
			)
		)
		(symbol "THS4552IRTWx_1_0"
			(pin input line
				(at -10.16 -2.54 0)
				(length 2.54)
				(name "IN1-"
					(effects
						(font
							(size 1 1)
						)
					)
				)
				(number "1"
					(effects
						(font
							(size 0.75 0.75)
						)
					)
				)
			)
			(pin input line
				(at -10.16 0 0)
				(length 2.54)
				(name "VOCM1"
					(effects
						(font
							(size 1 1)
						)
					)
				)
				(number "17"
					(effects
						(font
							(size 0.75 0.75)
						)
					)
				)
			)
			(pin output line
				(at 12.7 -1.27 180)
				(length 5.08)
				(name "OUT1+"
					(effects
						(font
							(size 1 1)
						)
					)
				)
				(number "18"
					(effects
						(font
							(size 0.75 0.75)
						)
					)
				)
			)
			(pin output inverted
				(at 12.7 1.27 180)
				(length 5.08)
				(name "OUT1-"
					(effects
						(font
							(size 1 1)
						)
					)
				)
				(number "19"
					(effects
						(font
							(size 0.75 0.75)
						)
					)
				)
			)
			(pin output line
				(at 11.43 -3.81 180)
				(length 2.54)
				(name "FB1+"
					(effects
						(font
							(size 1 1)
						)
					)
				)
				(number "2"
					(effects
						(font
							(size 0.75 0.75)
						)
					)
				)
			)
			(pin input line
				(at -5.08 10.16 270)
				(length 2.54)
				(name "~{PD1}"
					(effects
						(font
							(size 1 1)
						)
					)
				)
				(number "20"
					(effects
						(font
							(size 0.75 0.75)
						)
					)
				)
			)
			(pin input line
				(at 0 -7.62 90)
				(length 2.54)
				(name "VS1-"
					(effects
						(font
							(size 1 1)
						)
					)
				)
				(number "21"
					(effects
						(font
							(size 0.75 0.75)
						)
					)
				)
			)
			(pin input line
				(at 0 -7.62 90)
				(length 2.54) hide
				(name "VS1-"
					(effects
						(font
							(size 1 1)
						)
					)
				)
				(number "22"
					(effects
						(font
							(size 0.75 0.75)
						)
					)
				)
			)
			(pin output line
				(at 11.43 3.81 180)
				(length 2.54)
				(name "FB1-"
					(effects
						(font
							(size 1 1)
						)
					)
				)
				(number "23"
					(effects
						(font
							(size 0.75 0.75)
						)
					)
				)
			)
			(pin input line
				(at -10.16 2.54 0)
				(length 2.54)
				(name "IN1+"
					(effects
						(font
							(size 1 1)
						)
					)
				)
				(number "24"
					(effects
						(font
							(size 0.75 0.75)
						)
					)
				)
			)
			(pin input line
				(at -5.08 -10.16 90)
				(length 2.54)
				(name "EP"
					(effects
						(font
							(size 0.75 0.75)
						)
					)
				)
				(number "25"
					(effects
						(font
							(size 0.75 0.75)
						)
					)
				)
			)
			(pin input line
				(at 0 7.62 270)
				(length 2.54)
				(name "VS1+"
					(effects
						(font
							(size 1 1)
						)
					)
				)
				(number "3"
					(effects
						(font
							(size 0.75 0.75)
						)
					)
				)
			)
			(pin input line
				(at 0 7.62 270)
				(length 2.54) hide
				(name "VS1+"
					(effects
						(font
							(size 1 1)
						)
					)
				)
				(number "4"
					(effects
						(font
							(size 0.75 0.75)
						)
					)
				)
			)
		)
		(symbol "THS4552IRTWx_1_1"
			(polyline
				(pts
					(xy 8.89 -3.81) (xy 8.89 -1.27)
				)
				(stroke
					(width 0)
					(type default)
				)
				(fill
					(type none)
				)
			)
			(polyline
				(pts
					(xy 8.89 3.81) (xy 8.89 1.27)
				)
				(stroke
					(width 0)
					(type default)
				)
				(fill
					(type none)
				)
			)
			(polyline
				(pts
					(xy -7.62 5.08) (xy -7.62 -8.89) (xy 10.16 0) (xy -7.62 8.89) (xy -7.62 5.08)
				)
				(stroke
					(width 0.3)
					(type default)
				)
				(fill
					(type background)
				)
			)
		)
		(symbol "THS4552IRTWx_2_0"
			(pin input line
				(at 0 7.62 270)
				(length 2.54) hide
				(name "VS2+"
					(effects
						(font
							(size 1 1)
						)
					)
				)
				(number "10"
					(effects
						(font
							(size 0.75 0.75)
						)
					)
				)
			)
			(pin input line
				(at -10.16 0 0)
				(length 2.54)
				(name "VOCM2"
					(effects
						(font
							(size 1 1)
						)
					)
				)
				(number "11"
					(effects
						(font
							(size 0.75 0.75)
						)
					)
				)
			)
			(pin output line
				(at 12.7 -1.27 180)
				(length 5.08)
				(name "OUT2+"
					(effects
						(font
							(size 1 1)
						)
					)
				)
				(number "12"
					(effects
						(font
							(size 0.75 0.75)
						)
					)
				)
			)
			(pin output inverted
				(at 12.7 1.27 180)
				(length 5.08)
				(name "OUT2-"
					(effects
						(font
							(size 1 1)
						)
					)
				)
				(number "13"
					(effects
						(font
							(size 0.75 0.75)
						)
					)
				)
			)
			(pin input line
				(at -5.08 10.16 270)
				(length 2.54)
				(name "~{PD2}"
					(effects
						(font
							(size 1 1)
						)
					)
				)
				(number "14"
					(effects
						(font
							(size 0.75 0.75)
						)
					)
				)
			)
			(pin input line
				(at 0 -7.62 90)
				(length 2.54)
				(name "VS2-"
					(effects
						(font
							(size 1 1)
						)
					)
				)
				(number "15"
					(effects
						(font
							(size 0.75 0.75)
						)
					)
				)
			)
			(pin input line
				(at 0 -7.62 90)
				(length 2.54) hide
				(name "VS2-"
					(effects
						(font
							(size 1 1)
						)
					)
				)
				(number "16"
					(effects
						(font
							(size 0.75 0.75)
						)
					)
				)
			)
			(pin output line
				(at 11.43 3.81 180)
				(length 2.54)
				(name "FB2-"
					(effects
						(font
							(size 1 1)
						)
					)
				)
				(number "5"
					(effects
						(font
							(size 0.75 0.75)
						)
					)
				)
			)
			(pin input line
				(at -10.16 2.54 0)
				(length 2.54)
				(name "IN2+"
					(effects
						(font
							(size 1 1)
						)
					)
				)
				(number "6"
					(effects
						(font
							(size 0.75 0.75)
						)
					)
				)
			)
			(pin input line
				(at -10.16 -2.54 0)
				(length 2.54)
				(name "IN2-"
					(effects
						(font
							(size 1 1)
						)
					)
				)
				(number "7"
					(effects
						(font
							(size 0.75 0.75)
						)
					)
				)
			)
			(pin output line
				(at 11.43 -3.81 180)
				(length 2.54)
				(name "FB2+"
					(effects
						(font
							(size 1 1)
						)
					)
				)
				(number "8"
					(effects
						(font
							(size 0.75 0.75)
						)
					)
				)
			)
			(pin input line
				(at 0 7.62 270)
				(length 2.54)
				(name "VS2+"
					(effects
						(font
							(size 1 1)
						)
					)
				)
				(number "9"
					(effects
						(font
							(size 0.75 0.75)
						)
					)
				)
			)
		)
		(symbol "THS4552IRTWx_2_1"
			(polyline
				(pts
					(xy 8.89 -3.81) (xy 8.89 -1.27)
				)
				(stroke
					(width 0)
					(type default)
				)
				(fill
					(type none)
				)
			)
			(polyline
				(pts
					(xy 8.89 3.81) (xy 8.89 1.27)
				)
				(stroke
					(width 0)
					(type default)
				)
				(fill
					(type none)
				)
			)
			(polyline
				(pts
					(xy -7.62 5.08) (xy -7.62 -8.89) (xy 10.16 0) (xy -7.62 8.89) (xy -7.62 5.08)
				)
				(stroke
					(width 0.3)
					(type default)
				)
				(fill
					(type background)
				)
			)
		)
	)
)