%TF.GenerationSoftware,KiCad,Pcbnew,8.0.3*%
%TF.CreationDate,2024-07-04T18:50:02+02:00*%
%TF.ProjectId,jellyfish_main,6a656c6c-7966-4697-9368-5f6d61696e2e,rev?*%
%TF.SameCoordinates,Original*%
%TF.FileFunction,Paste,Top*%
%TF.FilePolarity,Positive*%
%FSLAX46Y46*%
G04 Gerber Fmt 4.6, Leading zero omitted, Abs format (unit mm)*
G04 Created by KiCad (PCBNEW 8.0.3) date 2024-07-04 18:50:02*
%MOMM*%
%LPD*%
G01*
G04 APERTURE LIST*
G04 Aperture macros list*
%AMRoundRect*
0 Rectangle with rounded corners*
0 $1 Rounding radius*
0 $2 $3 $4 $5 $6 $7 $8 $9 X,Y pos of 4 corners*
0 Add a 4 corners polygon primitive as box body*
4,1,4,$2,$3,$4,$5,$6,$7,$8,$9,$2,$3,0*
0 Add four circle primitives for the rounded corners*
1,1,$1+$1,$2,$3*
1,1,$1+$1,$4,$5*
1,1,$1+$1,$6,$7*
1,1,$1+$1,$8,$9*
0 Add four rect primitives between the rounded corners*
20,1,$1+$1,$2,$3,$4,$5,0*
20,1,$1+$1,$4,$5,$6,$7,0*
20,1,$1+$1,$6,$7,$8,$9,0*
20,1,$1+$1,$8,$9,$2,$3,0*%
G04 Aperture macros list end*
%ADD10RoundRect,0.140000X-0.140000X-0.170000X0.140000X-0.170000X0.140000X0.170000X-0.140000X0.170000X0*%
%ADD11RoundRect,0.135000X-0.185000X0.135000X-0.185000X-0.135000X0.185000X-0.135000X0.185000X0.135000X0*%
%ADD12RoundRect,0.135000X0.135000X0.185000X-0.135000X0.185000X-0.135000X-0.185000X0.135000X-0.185000X0*%
%ADD13RoundRect,0.225000X-0.225000X-0.250000X0.225000X-0.250000X0.225000X0.250000X-0.225000X0.250000X0*%
%ADD14RoundRect,0.250000X1.500000X0.550000X-1.500000X0.550000X-1.500000X-0.550000X1.500000X-0.550000X0*%
%ADD15RoundRect,0.250000X-0.250000X-0.750000X0.250000X-0.750000X0.250000X0.750000X-0.250000X0.750000X0*%
%ADD16RoundRect,0.250000X-0.625000X0.312500X-0.625000X-0.312500X0.625000X-0.312500X0.625000X0.312500X0*%
%ADD17RoundRect,0.135000X-0.135000X-0.185000X0.135000X-0.185000X0.135000X0.185000X-0.135000X0.185000X0*%
%ADD18RoundRect,0.250000X-0.650000X0.325000X-0.650000X-0.325000X0.650000X-0.325000X0.650000X0.325000X0*%
%ADD19RoundRect,0.200000X0.200000X0.275000X-0.200000X0.275000X-0.200000X-0.275000X0.200000X-0.275000X0*%
%ADD20RoundRect,0.150000X0.587500X0.150000X-0.587500X0.150000X-0.587500X-0.150000X0.587500X-0.150000X0*%
%ADD21RoundRect,0.100000X0.155000X0.100000X-0.155000X0.100000X-0.155000X-0.100000X0.155000X-0.100000X0*%
%ADD22RoundRect,0.140000X-0.170000X0.140000X-0.170000X-0.140000X0.170000X-0.140000X0.170000X0.140000X0*%
%ADD23RoundRect,0.140000X0.140000X0.170000X-0.140000X0.170000X-0.140000X-0.170000X0.140000X-0.170000X0*%
%ADD24RoundRect,0.250000X-0.262500X-0.450000X0.262500X-0.450000X0.262500X0.450000X-0.262500X0.450000X0*%
%ADD25RoundRect,0.150000X0.512500X0.150000X-0.512500X0.150000X-0.512500X-0.150000X0.512500X-0.150000X0*%
%ADD26RoundRect,0.250000X-0.325000X-0.650000X0.325000X-0.650000X0.325000X0.650000X-0.325000X0.650000X0*%
%ADD27RoundRect,0.225000X0.225000X0.250000X-0.225000X0.250000X-0.225000X-0.250000X0.225000X-0.250000X0*%
%ADD28RoundRect,0.140000X0.170000X-0.140000X0.170000X0.140000X-0.170000X0.140000X-0.170000X-0.140000X0*%
%ADD29RoundRect,0.250000X-0.475000X0.250000X-0.475000X-0.250000X0.475000X-0.250000X0.475000X0.250000X0*%
%ADD30R,0.470000X0.410000*%
%ADD31R,0.585000X0.510000*%
%ADD32RoundRect,0.102500X-0.102500X0.257500X-0.102500X-0.257500X0.102500X-0.257500X0.102500X0.257500X0*%
%ADD33RoundRect,0.407500X-0.407500X0.415000X-0.407500X-0.415000X0.407500X-0.415000X0.407500X0.415000X0*%
%ADD34RoundRect,0.125000X-0.125000X-0.125000X0.125000X-0.125000X0.125000X0.125000X-0.125000X0.125000X0*%
%ADD35RoundRect,0.075000X0.725000X-0.075000X0.725000X0.075000X-0.725000X0.075000X-0.725000X-0.075000X0*%
%ADD36RoundRect,0.075000X0.075000X-0.725000X0.075000X0.725000X-0.075000X0.725000X-0.075000X-0.725000X0*%
%ADD37RoundRect,0.102500X0.102500X-0.257500X0.102500X0.257500X-0.102500X0.257500X-0.102500X-0.257500X0*%
%ADD38RoundRect,0.407500X0.407500X-0.415000X0.407500X0.415000X-0.407500X0.415000X-0.407500X-0.415000X0*%
%ADD39RoundRect,0.225000X0.250000X-0.225000X0.250000X0.225000X-0.250000X0.225000X-0.250000X-0.225000X0*%
%ADD40RoundRect,0.075000X0.650000X0.075000X-0.650000X0.075000X-0.650000X-0.075000X0.650000X-0.075000X0*%
%ADD41RoundRect,0.250000X-0.312500X-0.625000X0.312500X-0.625000X0.312500X0.625000X-0.312500X0.625000X0*%
%ADD42RoundRect,0.218750X0.381250X-0.218750X0.381250X0.218750X-0.381250X0.218750X-0.381250X-0.218750X0*%
%ADD43RoundRect,0.100000X-0.637500X-0.100000X0.637500X-0.100000X0.637500X0.100000X-0.637500X0.100000X0*%
%ADD44RoundRect,0.200000X0.275000X-0.200000X0.275000X0.200000X-0.275000X0.200000X-0.275000X-0.200000X0*%
%ADD45RoundRect,0.225000X-0.250000X0.225000X-0.250000X-0.225000X0.250000X-0.225000X0.250000X0.225000X0*%
%ADD46RoundRect,0.250000X0.475000X-0.250000X0.475000X0.250000X-0.475000X0.250000X-0.475000X-0.250000X0*%
%ADD47RoundRect,0.150000X-0.150000X0.587500X-0.150000X-0.587500X0.150000X-0.587500X0.150000X0.587500X0*%
%ADD48RoundRect,0.250000X0.650000X-0.325000X0.650000X0.325000X-0.650000X0.325000X-0.650000X-0.325000X0*%
%ADD49RoundRect,0.100000X0.712500X0.100000X-0.712500X0.100000X-0.712500X-0.100000X0.712500X-0.100000X0*%
%ADD50RoundRect,0.200000X-0.200000X-0.275000X0.200000X-0.275000X0.200000X0.275000X-0.200000X0.275000X0*%
%ADD51RoundRect,0.250000X0.325000X0.650000X-0.325000X0.650000X-0.325000X-0.650000X0.325000X-0.650000X0*%
%ADD52RoundRect,0.250000X-0.300000X0.300000X-0.300000X-0.300000X0.300000X-0.300000X0.300000X0.300000X0*%
%ADD53RoundRect,0.150000X0.150000X0.425000X-0.150000X0.425000X-0.150000X-0.425000X0.150000X-0.425000X0*%
%ADD54RoundRect,0.075000X0.075000X0.500000X-0.075000X0.500000X-0.075000X-0.500000X0.075000X-0.500000X0*%
%ADD55O,1.000000X2.100000*%
%ADD56O,1.000000X1.800000*%
%ADD57RoundRect,0.147500X0.147500X0.172500X-0.147500X0.172500X-0.147500X-0.172500X0.147500X-0.172500X0*%
%ADD58R,0.510000X0.700000*%
%ADD59RoundRect,0.200000X0.250000X-0.200000X0.250000X0.200000X-0.250000X0.200000X-0.250000X-0.200000X0*%
%ADD60RoundRect,0.135000X0.185000X-0.135000X0.185000X0.135000X-0.185000X0.135000X-0.185000X-0.135000X0*%
%ADD61RoundRect,0.225000X-0.225000X-0.375000X0.225000X-0.375000X0.225000X0.375000X-0.225000X0.375000X0*%
%ADD62RoundRect,0.250000X-0.450000X0.262500X-0.450000X-0.262500X0.450000X-0.262500X0.450000X0.262500X0*%
%ADD63RoundRect,0.218750X-0.218750X-0.256250X0.218750X-0.256250X0.218750X0.256250X-0.218750X0.256250X0*%
%ADD64R,0.800000X0.900000*%
%ADD65RoundRect,0.218750X-0.256250X0.218750X-0.256250X-0.218750X0.256250X-0.218750X0.256250X0.218750X0*%
%ADD66RoundRect,0.062500X0.062500X0.337500X-0.062500X0.337500X-0.062500X-0.337500X0.062500X-0.337500X0*%
%ADD67RoundRect,0.062500X0.337500X0.062500X-0.337500X0.062500X-0.337500X-0.062500X0.337500X-0.062500X0*%
%ADD68RoundRect,0.250000X0.455000X0.455000X-0.455000X0.455000X-0.455000X-0.455000X0.455000X-0.455000X0*%
%ADD69RoundRect,0.250000X-0.312500X-1.450000X0.312500X-1.450000X0.312500X1.450000X-0.312500X1.450000X0*%
%ADD70RoundRect,0.218750X-0.381250X0.218750X-0.381250X-0.218750X0.381250X-0.218750X0.381250X0.218750X0*%
%ADD71RoundRect,0.147500X-0.147500X-0.172500X0.147500X-0.172500X0.147500X0.172500X-0.147500X0.172500X0*%
%ADD72RoundRect,0.150000X0.150000X-0.587500X0.150000X0.587500X-0.150000X0.587500X-0.150000X-0.587500X0*%
%ADD73RoundRect,0.218750X0.218750X0.256250X-0.218750X0.256250X-0.218750X-0.256250X0.218750X-0.256250X0*%
%ADD74RoundRect,0.150000X0.150000X-0.512500X0.150000X0.512500X-0.150000X0.512500X-0.150000X-0.512500X0*%
%ADD75RoundRect,0.250000X0.250000X0.750000X-0.250000X0.750000X-0.250000X-0.750000X0.250000X-0.750000X0*%
%ADD76RoundRect,0.250000X-0.250000X-0.475000X0.250000X-0.475000X0.250000X0.475000X-0.250000X0.475000X0*%
%ADD77R,0.700000X0.510000*%
%ADD78RoundRect,0.250000X-0.300000X-0.300000X0.300000X-0.300000X0.300000X0.300000X-0.300000X0.300000X0*%
%ADD79RoundRect,0.150000X-0.825000X-0.150000X0.825000X-0.150000X0.825000X0.150000X-0.825000X0.150000X0*%
%ADD80RoundRect,0.062500X0.062500X0.325000X-0.062500X0.325000X-0.062500X-0.325000X0.062500X-0.325000X0*%
%ADD81RoundRect,0.062500X0.325000X0.062500X-0.325000X0.062500X-0.325000X-0.062500X0.325000X-0.062500X0*%
%ADD82RoundRect,0.165000X0.165000X0.165000X-0.165000X0.165000X-0.165000X-0.165000X0.165000X-0.165000X0*%
%ADD83RoundRect,0.250000X0.250000X0.475000X-0.250000X0.475000X-0.250000X-0.475000X0.250000X-0.475000X0*%
%ADD84RoundRect,0.062500X-0.375000X0.062500X-0.375000X-0.062500X0.375000X-0.062500X0.375000X0.062500X0*%
%ADD85RoundRect,0.062500X-0.062500X0.375000X-0.062500X-0.375000X0.062500X-0.375000X0.062500X0.375000X0*%
%ADD86RoundRect,0.232500X-0.232500X0.232500X-0.232500X-0.232500X0.232500X-0.232500X0.232500X0.232500X0*%
%ADD87RoundRect,0.250000X-1.500000X-0.550000X1.500000X-0.550000X1.500000X0.550000X-1.500000X0.550000X0*%
%ADD88RoundRect,0.150000X-0.150000X0.512500X-0.150000X-0.512500X0.150000X-0.512500X0.150000X0.512500X0*%
%ADD89R,3.500000X2.350000*%
%ADD90RoundRect,0.125000X0.125000X-0.125000X0.125000X0.125000X-0.125000X0.125000X-0.125000X-0.125000X0*%
%ADD91RoundRect,0.218750X0.218750X0.381250X-0.218750X0.381250X-0.218750X-0.381250X0.218750X-0.381250X0*%
%ADD92RoundRect,0.250000X0.262500X0.450000X-0.262500X0.450000X-0.262500X-0.450000X0.262500X-0.450000X0*%
%ADD93R,1.450000X0.450000*%
%ADD94R,5.400000X2.900000*%
%ADD95R,0.900000X0.240000*%
%ADD96R,0.240000X0.900000*%
%ADD97R,0.800000X0.800000*%
%ADD98RoundRect,0.250000X0.312500X0.625000X-0.312500X0.625000X-0.312500X-0.625000X0.312500X-0.625000X0*%
%ADD99RoundRect,0.250000X-0.800000X0.250000X-0.800000X-0.250000X0.800000X-0.250000X0.800000X0.250000X0*%
%ADD100RoundRect,0.150000X-0.512500X-0.150000X0.512500X-0.150000X0.512500X0.150000X-0.512500X0.150000X0*%
%ADD101RoundRect,0.147500X-0.172500X0.147500X-0.172500X-0.147500X0.172500X-0.147500X0.172500X0.147500X0*%
%ADD102RoundRect,0.243600X-1.406400X-0.771400X1.406400X-0.771400X1.406400X0.771400X-1.406400X0.771400X0*%
%ADD103RoundRect,0.190000X-0.510000X-0.190000X0.510000X-0.190000X0.510000X0.190000X-0.510000X0.190000X0*%
%ADD104RoundRect,0.250000X-1.450000X0.312500X-1.450000X-0.312500X1.450000X-0.312500X1.450000X0.312500X0*%
%ADD105RoundRect,0.250000X0.425000X-0.450000X0.425000X0.450000X-0.425000X0.450000X-0.425000X-0.450000X0*%
%ADD106RoundRect,0.250000X-1.425000X0.362500X-1.425000X-0.362500X1.425000X-0.362500X1.425000X0.362500X0*%
%ADD107RoundRect,0.250000X0.300000X-0.300000X0.300000X0.300000X-0.300000X0.300000X-0.300000X-0.300000X0*%
%ADD108RoundRect,0.250000X-0.750000X0.250000X-0.750000X-0.250000X0.750000X-0.250000X0.750000X0.250000X0*%
%ADD109RoundRect,0.250000X0.450000X0.425000X-0.450000X0.425000X-0.450000X-0.425000X0.450000X-0.425000X0*%
%ADD110R,2.550000X1.550000*%
%ADD111RoundRect,0.100000X0.100000X-0.637500X0.100000X0.637500X-0.100000X0.637500X-0.100000X-0.637500X0*%
%ADD112RoundRect,0.250000X-0.400000X-0.750000X0.400000X-0.750000X0.400000X0.750000X-0.400000X0.750000X0*%
%ADD113RoundRect,0.250000X-0.750000X-0.750000X0.750000X-0.750000X0.750000X0.750000X-0.750000X0.750000X0*%
%ADD114RoundRect,0.150000X-0.587500X-0.150000X0.587500X-0.150000X0.587500X0.150000X-0.587500X0.150000X0*%
%ADD115RoundRect,0.250000X0.550000X-1.500000X0.550000X1.500000X-0.550000X1.500000X-0.550000X-1.500000X0*%
%ADD116RoundRect,0.250000X0.625000X-0.312500X0.625000X0.312500X-0.625000X0.312500X-0.625000X-0.312500X0*%
%ADD117RoundRect,0.250000X-0.425000X0.450000X-0.425000X-0.450000X0.425000X-0.450000X0.425000X0.450000X0*%
%ADD118RoundRect,0.250000X-0.550000X1.500000X-0.550000X-1.500000X0.550000X-1.500000X0.550000X1.500000X0*%
%ADD119R,3.150000X1.000000*%
%ADD120RoundRect,0.100000X-0.100000X0.155000X-0.100000X-0.155000X0.100000X-0.155000X0.100000X0.155000X0*%
%ADD121R,0.410000X0.470000*%
%ADD122R,0.510000X0.585000*%
%ADD123RoundRect,0.102500X-0.257500X-0.102500X0.257500X-0.102500X0.257500X0.102500X-0.257500X0.102500X0*%
%ADD124RoundRect,0.407500X-0.415000X-0.407500X0.415000X-0.407500X0.415000X0.407500X-0.415000X0.407500X0*%
%ADD125RoundRect,0.127500X0.632500X-0.127500X0.632500X0.127500X-0.632500X0.127500X-0.632500X-0.127500X0*%
%ADD126RoundRect,0.160000X0.220000X-0.160000X0.220000X0.160000X-0.220000X0.160000X-0.220000X-0.160000X0*%
%ADD127R,0.254000X0.914400*%
%ADD128R,0.914400X0.254000*%
%ADD129RoundRect,0.125000X0.825000X0.125000X-0.825000X0.125000X-0.825000X-0.125000X0.825000X-0.125000X0*%
%ADD130RoundRect,0.062500X-0.062500X-0.350000X0.062500X-0.350000X0.062500X0.350000X-0.062500X0.350000X0*%
%ADD131RoundRect,0.062500X-0.350000X-0.062500X0.350000X-0.062500X0.350000X0.062500X-0.350000X0.062500X0*%
%ADD132RoundRect,0.250000X-0.295000X-0.295000X0.295000X-0.295000X0.295000X0.295000X-0.295000X0.295000X0*%
%ADD133RoundRect,0.100000X0.637500X0.100000X-0.637500X0.100000X-0.637500X-0.100000X0.637500X-0.100000X0*%
%ADD134RoundRect,0.075000X0.325000X-0.075000X0.325000X0.075000X-0.325000X0.075000X-0.325000X-0.075000X0*%
%ADD135RoundRect,0.075000X0.075000X-0.325000X0.075000X0.325000X-0.075000X0.325000X-0.075000X-0.325000X0*%
%ADD136RoundRect,0.250000X0.425000X-0.425000X0.425000X0.425000X-0.425000X0.425000X-0.425000X-0.425000X0*%
%ADD137RoundRect,0.137500X0.137500X-0.625000X0.137500X0.625000X-0.137500X0.625000X-0.137500X-0.625000X0*%
%ADD138RoundRect,0.125000X-0.125000X0.125000X-0.125000X-0.125000X0.125000X-0.125000X0.125000X0.125000X0*%
%ADD139RoundRect,0.100000X0.100000X-0.155000X0.100000X0.155000X-0.100000X0.155000X-0.100000X-0.155000X0*%
%ADD140RoundRect,0.100000X-0.100000X0.712500X-0.100000X-0.712500X0.100000X-0.712500X0.100000X0.712500X0*%
%ADD141RoundRect,0.200000X-0.275000X0.200000X-0.275000X-0.200000X0.275000X-0.200000X0.275000X0.200000X0*%
%ADD142RoundRect,0.085000X-0.265000X-0.085000X0.265000X-0.085000X0.265000X0.085000X-0.265000X0.085000X0*%
%ADD143RoundRect,0.125000X0.125000X0.125000X-0.125000X0.125000X-0.125000X-0.125000X0.125000X-0.125000X0*%
%ADD144RoundRect,0.127500X0.127500X0.632500X-0.127500X0.632500X-0.127500X-0.632500X0.127500X-0.632500X0*%
%ADD145RoundRect,0.160000X0.160000X0.220000X-0.160000X0.220000X-0.160000X-0.220000X0.160000X-0.220000X0*%
%ADD146RoundRect,0.075000X0.075000X0.662500X-0.075000X0.662500X-0.075000X-0.662500X0.075000X-0.662500X0*%
%ADD147RoundRect,0.075000X0.662500X0.075000X-0.662500X0.075000X-0.662500X-0.075000X0.662500X-0.075000X0*%
%ADD148RoundRect,0.218750X0.256250X-0.218750X0.256250X0.218750X-0.256250X0.218750X-0.256250X-0.218750X0*%
G04 APERTURE END LIST*
%TO.C,U19*%
G36*
X120903500Y-85158201D02*
G01*
X119760500Y-85158201D01*
X119760500Y-83862801D01*
X120903500Y-83862801D01*
X120903500Y-85158201D01*
G37*
G36*
X120903500Y-83405601D02*
G01*
X119760500Y-83405601D01*
X119760500Y-82516601D01*
X120903500Y-82516601D01*
X120903500Y-83405601D01*
G37*
G36*
X119354100Y-85158201D02*
G01*
X118211100Y-85158201D01*
X118211100Y-83862801D01*
X119354100Y-83862801D01*
X119354100Y-85158201D01*
G37*
G36*
X119354100Y-83405601D02*
G01*
X118211100Y-83405601D01*
X118211100Y-82516601D01*
X119354100Y-82516601D01*
X119354100Y-83405601D01*
G37*
%TD*%
D10*
%TO.C,C12*%
X83499400Y-70793800D03*
X82539400Y-70793800D03*
%TD*%
D11*
%TO.C,R228*%
X99218400Y-179919800D03*
X99218400Y-178899800D03*
%TD*%
D12*
%TO.C,R174*%
X100555400Y-145545800D03*
X101575400Y-145545800D03*
%TD*%
D11*
%TO.C,R86*%
X157327400Y-81590800D03*
X157327400Y-80570800D03*
%TD*%
D13*
%TO.C,C63*%
X78507400Y-115370800D03*
X76957400Y-115370800D03*
%TD*%
D14*
%TO.C,C307*%
X108386400Y-90351800D03*
X113786400Y-90351800D03*
%TD*%
D15*
%TO.C,J28*%
X92814400Y-182662300D03*
X95354400Y-182662300D03*
X97894400Y-182662300D03*
X100434400Y-182662300D03*
X102974400Y-182662300D03*
X102974400Y-186362300D03*
X100434400Y-186362300D03*
X97894400Y-186362300D03*
X95354400Y-186362300D03*
X92814400Y-186362300D03*
%TD*%
D12*
%TO.C,R11*%
X80604400Y-71809800D03*
X81624400Y-71809800D03*
%TD*%
D16*
%TO.C,R53*%
X41109400Y-116198300D03*
X41109400Y-113273300D03*
%TD*%
D17*
%TO.C,R182*%
X73385400Y-191692800D03*
X72365400Y-191692800D03*
%TD*%
D18*
%TO.C,C9*%
X32235400Y-68326800D03*
X32235400Y-65376800D03*
%TD*%
D12*
%TO.C,R112*%
X135837400Y-98802800D03*
X136857400Y-98802800D03*
%TD*%
D19*
%TO.C,R166*%
X106451400Y-148164800D03*
X108101400Y-148164800D03*
%TD*%
D17*
%TO.C,R128*%
X152048400Y-168685300D03*
X151028400Y-168685300D03*
%TD*%
D20*
%TO.C,D5*%
X100750900Y-64605800D03*
X102625900Y-63655800D03*
X102625900Y-65555800D03*
%TD*%
D17*
%TO.C,R194*%
X119101400Y-175055800D03*
X118081400Y-175055800D03*
%TD*%
D21*
%TO.C,Q7*%
X35166400Y-78662800D03*
X33876400Y-79162800D03*
X33876400Y-78162800D03*
%TD*%
D22*
%TO.C,C73*%
X121754400Y-99215800D03*
X121754400Y-98255800D03*
%TD*%
D23*
%TO.C,C298*%
X149948400Y-67364800D03*
X150908400Y-67364800D03*
%TD*%
%TO.C,C259*%
X49646400Y-122228800D03*
X50606400Y-122228800D03*
%TD*%
D22*
%TO.C,C184*%
X119341400Y-151692800D03*
X119341400Y-150732800D03*
%TD*%
D24*
%TO.C,R120*%
X165465900Y-123752800D03*
X163640900Y-123752800D03*
%TD*%
D25*
%TO.C,U25*%
X164066900Y-110524600D03*
X164066900Y-108624600D03*
X166341900Y-108624600D03*
X166341900Y-109574600D03*
X166341900Y-110524600D03*
%TD*%
D23*
%TO.C,C18*%
X39551400Y-65586800D03*
X40511400Y-65586800D03*
%TD*%
D11*
%TO.C,R2*%
X39077400Y-82352800D03*
X39077400Y-81332800D03*
%TD*%
D26*
%TO.C,C132*%
X141583400Y-170694300D03*
X138633400Y-170694300D03*
%TD*%
D22*
%TO.C,C82*%
X129432900Y-94809800D03*
X129432900Y-93849800D03*
%TD*%
D17*
%TO.C,R45*%
X94453400Y-99622800D03*
X93433400Y-99622800D03*
%TD*%
D27*
%TO.C,C94*%
X161632400Y-73581800D03*
X163182400Y-73581800D03*
%TD*%
D12*
%TO.C,R32*%
X49108400Y-67237800D03*
X50128400Y-67237800D03*
%TD*%
D28*
%TO.C,C271*%
X70895400Y-126961300D03*
X70895400Y-127921300D03*
%TD*%
D18*
%TO.C,C203*%
X147358400Y-86675800D03*
X147358400Y-83725800D03*
%TD*%
D29*
%TO.C,C138*%
X109959400Y-167799800D03*
X109959400Y-165899800D03*
%TD*%
D30*
%TO.C,Q9*%
X83776400Y-68704300D03*
X88206400Y-68704300D03*
D31*
X83718900Y-65834300D03*
X88263900Y-65834300D03*
D32*
X84086400Y-63119300D03*
X85356400Y-63119300D03*
X86626400Y-63119300D03*
X87896400Y-63119300D03*
D33*
X85026400Y-67886800D03*
X86956400Y-67886800D03*
X85026400Y-65941800D03*
X86956400Y-65941800D03*
%TD*%
D26*
%TO.C,C122*%
X176382200Y-160656800D03*
X173432200Y-160656800D03*
%TD*%
D19*
%TO.C,R165*%
X106451400Y-151974800D03*
X108101400Y-151974800D03*
%TD*%
D20*
%TO.C,Q10*%
X152185900Y-58347800D03*
X154060900Y-57397800D03*
X154060900Y-59297800D03*
%TD*%
D34*
%TO.C,D22*%
X144952400Y-61268800D03*
X142752400Y-61268800D03*
%TD*%
D22*
%TO.C,C199*%
X93953400Y-155042800D03*
X93953400Y-154082800D03*
%TD*%
D14*
%TO.C,C312*%
X36415000Y-102709600D03*
X41815000Y-102709600D03*
%TD*%
D35*
%TO.C,U47*%
X37459400Y-183412800D03*
X37459400Y-182912800D03*
X37459400Y-182412800D03*
X37459400Y-181912800D03*
X37459400Y-181412800D03*
X37459400Y-180912800D03*
X37459400Y-180412800D03*
X37459400Y-179912800D03*
X37459400Y-179412800D03*
X37459400Y-178912800D03*
X37459400Y-178412800D03*
X37459400Y-177912800D03*
X37459400Y-177412800D03*
X37459400Y-176912800D03*
X37459400Y-176412800D03*
X37459400Y-175912800D03*
X37459400Y-175412800D03*
X37459400Y-174912800D03*
X37459400Y-174412800D03*
X37459400Y-173912800D03*
X37459400Y-173412800D03*
X37459400Y-172912800D03*
X37459400Y-172412800D03*
X37459400Y-171912800D03*
X37459400Y-171412800D03*
D36*
X39134400Y-169737800D03*
X39634400Y-169737800D03*
X40134400Y-169737800D03*
X40634400Y-169737800D03*
X41134400Y-169737800D03*
X41634400Y-169737800D03*
X42134400Y-169737800D03*
X42634400Y-169737800D03*
X43134400Y-169737800D03*
X43634400Y-169737800D03*
X44134400Y-169737800D03*
X44634400Y-169737800D03*
X45134400Y-169737800D03*
X45634400Y-169737800D03*
X46134400Y-169737800D03*
X46634400Y-169737800D03*
X47134400Y-169737800D03*
X47634400Y-169737800D03*
X48134400Y-169737800D03*
X48634400Y-169737800D03*
X49134400Y-169737800D03*
X49634400Y-169737800D03*
X50134400Y-169737800D03*
X50634400Y-169737800D03*
X51134400Y-169737800D03*
D35*
X52809400Y-171412800D03*
X52809400Y-171912800D03*
X52809400Y-172412800D03*
X52809400Y-172912800D03*
X52809400Y-173412800D03*
X52809400Y-173912800D03*
X52809400Y-174412800D03*
X52809400Y-174912800D03*
X52809400Y-175412800D03*
X52809400Y-175912800D03*
X52809400Y-176412800D03*
X52809400Y-176912800D03*
X52809400Y-177412800D03*
X52809400Y-177912800D03*
X52809400Y-178412800D03*
X52809400Y-178912800D03*
X52809400Y-179412800D03*
X52809400Y-179912800D03*
X52809400Y-180412800D03*
X52809400Y-180912800D03*
X52809400Y-181412800D03*
X52809400Y-181912800D03*
X52809400Y-182412800D03*
X52809400Y-182912800D03*
X52809400Y-183412800D03*
D36*
X51134400Y-185087800D03*
X50634400Y-185087800D03*
X50134400Y-185087800D03*
X49634400Y-185087800D03*
X49134400Y-185087800D03*
X48634400Y-185087800D03*
X48134400Y-185087800D03*
X47634400Y-185087800D03*
X47134400Y-185087800D03*
X46634400Y-185087800D03*
X46134400Y-185087800D03*
X45634400Y-185087800D03*
X45134400Y-185087800D03*
X44634400Y-185087800D03*
X44134400Y-185087800D03*
X43634400Y-185087800D03*
X43134400Y-185087800D03*
X42634400Y-185087800D03*
X42134400Y-185087800D03*
X41634400Y-185087800D03*
X41134400Y-185087800D03*
X40634400Y-185087800D03*
X40134400Y-185087800D03*
X39634400Y-185087800D03*
X39134400Y-185087800D03*
%TD*%
D30*
%TO.C,Q4*%
X94445400Y-75924800D03*
X90015400Y-75924800D03*
D31*
X94502900Y-78794800D03*
X89957900Y-78794800D03*
D37*
X94135400Y-81509800D03*
X92865400Y-81509800D03*
X91595400Y-81509800D03*
X90325400Y-81509800D03*
D38*
X93195400Y-76742300D03*
X91265400Y-76742300D03*
X93195400Y-78687300D03*
X91265400Y-78687300D03*
%TD*%
D39*
%TO.C,C20*%
X37569400Y-76858800D03*
X37569400Y-78408800D03*
%TD*%
D28*
%TO.C,C290*%
X149261400Y-123336300D03*
X149261400Y-124296300D03*
%TD*%
D26*
%TO.C,C316*%
X129945400Y-183685202D03*
X126995400Y-183685202D03*
%TD*%
D27*
%TO.C,C171*%
X124535400Y-128451800D03*
X126085400Y-128451800D03*
%TD*%
D40*
%TO.C,U42*%
X89414400Y-118037800D03*
X89414400Y-117537800D03*
X89414400Y-117037800D03*
X89414400Y-116537800D03*
X89414400Y-116037800D03*
X93814400Y-116037800D03*
X93814400Y-116537800D03*
X93814400Y-117037800D03*
X93814400Y-117537800D03*
X93814400Y-118037800D03*
%TD*%
D41*
%TO.C,R38*%
X69495900Y-101654800D03*
X66570900Y-101654800D03*
%TD*%
D42*
%TO.C,L3*%
X89851900Y-106307300D03*
X89851900Y-108432300D03*
%TD*%
D28*
%TO.C,C236*%
X38022400Y-168423800D03*
X38022400Y-169383800D03*
%TD*%
D10*
%TO.C,C101*%
X160461400Y-60887800D03*
X159501400Y-60887800D03*
%TD*%
%TO.C,C183*%
X101545400Y-147704800D03*
X100585400Y-147704800D03*
%TD*%
D43*
%TO.C,U22*%
X165269900Y-75152800D03*
X165269900Y-75802800D03*
X165269900Y-76452800D03*
X165269900Y-77102800D03*
X159544900Y-77102800D03*
X159544900Y-76452800D03*
X159544900Y-75802800D03*
X159544900Y-75152800D03*
%TD*%
D27*
%TO.C,C217*%
X122531400Y-169840800D03*
X124081400Y-169840800D03*
%TD*%
D39*
%TO.C,C24*%
X72732400Y-60340800D03*
X72732400Y-61890800D03*
%TD*%
D44*
%TO.C,R202*%
X43610400Y-192144800D03*
X43610400Y-193794800D03*
%TD*%
D19*
%TO.C,R149*%
X124969900Y-125530800D03*
X126619900Y-125530800D03*
%TD*%
D15*
%TO.C,J22*%
X159138400Y-194862300D03*
X161678400Y-194862300D03*
X164218400Y-194862300D03*
X166758400Y-194862300D03*
X169298400Y-194862300D03*
X169298400Y-191162300D03*
X166758400Y-191162300D03*
X164218400Y-191162300D03*
X161678400Y-191162300D03*
X159138400Y-191162300D03*
%TD*%
D11*
%TO.C,R138*%
X80860400Y-152962800D03*
X80860400Y-151942800D03*
%TD*%
D45*
%TO.C,C60*%
X71128400Y-115256800D03*
X71128400Y-113706800D03*
%TD*%
D46*
%TO.C,C37*%
X72224400Y-97341800D03*
X72224400Y-99241800D03*
%TD*%
D47*
%TO.C,D28*%
X169252400Y-120437300D03*
X168302400Y-118562300D03*
X170202400Y-118562300D03*
%TD*%
D22*
%TO.C,C39*%
X55485800Y-91187400D03*
X55485800Y-90227400D03*
%TD*%
D11*
%TO.C,R80*%
X157327400Y-86924800D03*
X157327400Y-85904800D03*
%TD*%
D25*
%TO.C,U29*%
X164066900Y-143747800D03*
X164066900Y-141847800D03*
X166341900Y-141847800D03*
X166341900Y-142797800D03*
X166341900Y-143747800D03*
%TD*%
D28*
%TO.C,C227*%
X31254900Y-140730300D03*
X31254900Y-141690300D03*
%TD*%
%TO.C,C148*%
X108329400Y-133420800D03*
X108329400Y-134380800D03*
%TD*%
D13*
%TO.C,C66*%
X114434400Y-101273800D03*
X112884400Y-101273800D03*
%TD*%
D28*
%TO.C,C129*%
X147601400Y-166277300D03*
X147601400Y-167237300D03*
%TD*%
D48*
%TO.C,C296*%
X146089400Y-140313800D03*
X146089400Y-143263800D03*
%TD*%
D12*
%TO.C,R271*%
X46125200Y-48528200D03*
X47145200Y-48528200D03*
%TD*%
D23*
%TO.C,C176*%
X106796400Y-149434800D03*
X107756400Y-149434800D03*
%TD*%
D22*
%TO.C,C72*%
X122389400Y-89561800D03*
X122389400Y-88601800D03*
%TD*%
D28*
%TO.C,C291*%
X144718400Y-123287300D03*
X144718400Y-124247300D03*
%TD*%
%TO.C,C197*%
X110197400Y-149716800D03*
X110197400Y-150676800D03*
%TD*%
D49*
%TO.C,U33*%
X137868900Y-167732300D03*
X137868900Y-167082300D03*
X137868900Y-166432300D03*
X137868900Y-165782300D03*
X142093900Y-165782300D03*
X142093900Y-166432300D03*
X142093900Y-167082300D03*
X142093900Y-167732300D03*
%TD*%
D22*
%TO.C,C153*%
X131787400Y-133376800D03*
X131787400Y-132416800D03*
%TD*%
%TO.C,C154*%
X130771400Y-133376800D03*
X130771400Y-132416800D03*
%TD*%
D19*
%TO.C,R146*%
X124993400Y-139881800D03*
X126643400Y-139881800D03*
%TD*%
D22*
%TO.C,C264*%
X61658000Y-154083300D03*
X61658000Y-153123300D03*
%TD*%
D50*
%TO.C,R123*%
X165401900Y-147882800D03*
X163751900Y-147882800D03*
%TD*%
D51*
%TO.C,C51*%
X37333400Y-95419800D03*
X40283400Y-95419800D03*
%TD*%
D52*
%TO.C,D17*%
X122516400Y-103564800D03*
X122516400Y-100764800D03*
%TD*%
D11*
%TO.C,R9*%
X96608400Y-65943800D03*
X96608400Y-64923800D03*
%TD*%
D28*
%TO.C,C258*%
X93576400Y-174827800D03*
X93576400Y-175787800D03*
%TD*%
D53*
%TO.C,J8*%
X64572400Y-53521800D03*
X63772400Y-53521800D03*
D54*
X62622400Y-53521800D03*
X61622400Y-53521800D03*
X61122400Y-53521800D03*
X60122400Y-53521800D03*
D53*
X58972400Y-53521800D03*
X58172400Y-53521800D03*
X58172400Y-53521800D03*
X58972400Y-53521800D03*
D54*
X59622400Y-53521800D03*
X60622400Y-53521800D03*
X62122400Y-53521800D03*
X63122400Y-53521800D03*
D53*
X63772400Y-53521800D03*
X64572400Y-53521800D03*
D55*
X65692400Y-52946800D03*
D56*
X65692400Y-48766800D03*
D55*
X57052400Y-52946800D03*
D56*
X57052400Y-48766800D03*
%TD*%
D28*
%TO.C,C305*%
X74637400Y-70181800D03*
X74637400Y-71141800D03*
%TD*%
D17*
%TO.C,R111*%
X136857400Y-97659800D03*
X135837400Y-97659800D03*
%TD*%
D13*
%TO.C,C118*%
X165420600Y-145337800D03*
X163870600Y-145337800D03*
%TD*%
D45*
%TO.C,C170*%
X101213400Y-137024300D03*
X101213400Y-135474300D03*
%TD*%
D29*
%TO.C,C247*%
X37350900Y-150669300D03*
X37350900Y-148769300D03*
%TD*%
D57*
%TO.C,FB5*%
X164335400Y-64189800D03*
X165305400Y-64189800D03*
%TD*%
D58*
%TO.C,U48*%
X78607400Y-175097800D03*
X80507400Y-175097800D03*
X80507400Y-177417800D03*
X79557400Y-177417800D03*
X78607400Y-177417800D03*
%TD*%
D23*
%TO.C,C218*%
X122826400Y-171110800D03*
X123786400Y-171110800D03*
%TD*%
%TO.C,C177*%
X112868900Y-142449800D03*
X113828900Y-142449800D03*
%TD*%
D28*
%TO.C,C166*%
X122643400Y-131400800D03*
X122643400Y-132360800D03*
%TD*%
D59*
%TO.C,X1*%
X40145400Y-195610800D03*
X41995400Y-195610800D03*
X41995400Y-197060800D03*
X40145400Y-197060800D03*
%TD*%
D22*
%TO.C,C75*%
X125437400Y-89561800D03*
X125437400Y-88601800D03*
%TD*%
D17*
%TO.C,R222*%
X40238400Y-140892800D03*
X39218400Y-140892800D03*
%TD*%
D60*
%TO.C,R79*%
X156311400Y-83491800D03*
X156311400Y-84511800D03*
%TD*%
D22*
%TO.C,C14*%
X32616400Y-50821800D03*
X32616400Y-49861800D03*
%TD*%
D12*
%TO.C,R46*%
X93433400Y-101654800D03*
X94453400Y-101654800D03*
%TD*%
D30*
%TO.C,Q5*%
X83980400Y-75852800D03*
X79550400Y-75852800D03*
D31*
X84037900Y-78722800D03*
X79492900Y-78722800D03*
D37*
X83670400Y-81437800D03*
X82400400Y-81437800D03*
X81130400Y-81437800D03*
X79860400Y-81437800D03*
D38*
X82730400Y-76670300D03*
X80800400Y-76670300D03*
X82730400Y-78615300D03*
X80800400Y-78615300D03*
%TD*%
D19*
%TO.C,R134*%
X137335900Y-129368300D03*
X138985900Y-129368300D03*
%TD*%
D34*
%TO.C,D42*%
X74737400Y-186231800D03*
X72537400Y-186231800D03*
%TD*%
D11*
%TO.C,R240*%
X165156900Y-165585800D03*
X165156900Y-164565800D03*
%TD*%
D12*
%TO.C,R40*%
X87055900Y-109147800D03*
X88075900Y-109147800D03*
%TD*%
D22*
%TO.C,C6*%
X43776400Y-62510800D03*
X43776400Y-61550800D03*
%TD*%
%TO.C,C239*%
X42340400Y-188179800D03*
X42340400Y-187219800D03*
%TD*%
D11*
%TO.C,R83*%
X157327400Y-84511800D03*
X157327400Y-83491800D03*
%TD*%
D27*
%TO.C,C98*%
X161619400Y-56061800D03*
X163169400Y-56061800D03*
%TD*%
D61*
%TO.C,D47*%
X178132000Y-201624200D03*
X174832000Y-201624200D03*
%TD*%
D46*
%TO.C,C266*%
X58068400Y-128396300D03*
X58068400Y-130296300D03*
%TD*%
D60*
%TO.C,R219*%
X43776400Y-126163800D03*
X43776400Y-127183800D03*
%TD*%
D12*
%TO.C,R200*%
X39634900Y-148195300D03*
X40654900Y-148195300D03*
%TD*%
D27*
%TO.C,C99*%
X161619400Y-61141800D03*
X163169400Y-61141800D03*
%TD*%
D62*
%TO.C,R131*%
X145988400Y-118710800D03*
X145988400Y-116885800D03*
%TD*%
D23*
%TO.C,C274*%
X57715400Y-150555300D03*
X58675400Y-150555300D03*
%TD*%
D63*
%TO.C,D9*%
X74789900Y-55527800D03*
X73214900Y-55527800D03*
%TD*%
D30*
%TO.C,Q24*%
X160799400Y-113962800D03*
D31*
X160856900Y-116832800D03*
D30*
X156369400Y-113962800D03*
D31*
X156311900Y-116832800D03*
D37*
X160489400Y-119547800D03*
X159219400Y-119547800D03*
X157949400Y-119547800D03*
X156679400Y-119547800D03*
D38*
X159752800Y-114780300D03*
X157416000Y-114780300D03*
X159752800Y-116725300D03*
X157416000Y-116725300D03*
%TD*%
D12*
%TO.C,R193*%
X118083400Y-176071800D03*
X119103400Y-176071800D03*
%TD*%
D64*
%TO.C,Y3*%
X45642400Y-195697800D03*
X45642400Y-197097800D03*
X44542400Y-197097800D03*
X44542400Y-195697800D03*
%TD*%
D17*
%TO.C,R259*%
X34191200Y-136270000D03*
X33171200Y-136270000D03*
%TD*%
D60*
%TO.C,R212*%
X86669400Y-175688800D03*
X86669400Y-176708800D03*
%TD*%
D65*
%TO.C,D49*%
X172722800Y-200227300D03*
X172722800Y-198652300D03*
%TD*%
D66*
%TO.C,U37*%
X105126400Y-133175800D03*
X104626400Y-133175800D03*
X104126400Y-133175800D03*
X103626400Y-133175800D03*
X103126400Y-133175800D03*
X102626400Y-133175800D03*
X102126400Y-133175800D03*
X101626400Y-133175800D03*
D67*
X100926400Y-132475800D03*
X100926400Y-131975800D03*
X100926400Y-131475800D03*
X100926400Y-130975800D03*
X100926400Y-130475800D03*
X100926400Y-129975800D03*
X100926400Y-129475800D03*
X100926400Y-128975800D03*
D66*
X101626400Y-128275800D03*
X102126400Y-128275800D03*
X102626400Y-128275800D03*
X103126400Y-128275800D03*
X103626400Y-128275800D03*
X104126400Y-128275800D03*
X104626400Y-128275800D03*
X105126400Y-128275800D03*
D67*
X105826400Y-128975800D03*
X105826400Y-129475800D03*
X105826400Y-129975800D03*
X105826400Y-130475800D03*
X105826400Y-130975800D03*
X105826400Y-131475800D03*
X105826400Y-131975800D03*
X105826400Y-132475800D03*
D68*
X102501400Y-129850800D03*
X102501400Y-131600800D03*
X104251400Y-129850800D03*
X104251400Y-131600800D03*
%TD*%
D19*
%TO.C,R148*%
X118897400Y-129848800D03*
X120547400Y-129848800D03*
%TD*%
D21*
%TO.C,Q6*%
X35166400Y-76503800D03*
X33876400Y-77003800D03*
X33876400Y-76003800D03*
%TD*%
D60*
%TO.C,R42*%
X34695400Y-87950800D03*
X34695400Y-88970800D03*
%TD*%
D69*
%TO.C,F1*%
X66233900Y-57585800D03*
X61958900Y-57585800D03*
%TD*%
D28*
%TO.C,C229*%
X35736400Y-182520800D03*
X35736400Y-183480800D03*
%TD*%
D47*
%TO.C,D29*%
X169252400Y-127992300D03*
X168302400Y-126117300D03*
X170202400Y-126117300D03*
%TD*%
%TO.C,D30*%
X169252400Y-136120300D03*
X168302400Y-134245300D03*
X170202400Y-134245300D03*
%TD*%
D16*
%TO.C,R59*%
X106039400Y-112515300D03*
X106039400Y-109590300D03*
%TD*%
D48*
%TO.C,C69*%
X110705400Y-82145800D03*
X110705400Y-85095800D03*
%TD*%
D19*
%TO.C,R199*%
X39573900Y-149719300D03*
X41223900Y-149719300D03*
%TD*%
D18*
%TO.C,C22*%
X78828400Y-61779800D03*
X78828400Y-58829800D03*
%TD*%
D28*
%TO.C,C220*%
X139550400Y-181306800D03*
X139550400Y-182266800D03*
%TD*%
D17*
%TO.C,R254*%
X177777400Y-107237800D03*
X176757400Y-107237800D03*
%TD*%
D11*
%TO.C,R67*%
X122770400Y-99245800D03*
X122770400Y-98225800D03*
%TD*%
D22*
%TO.C,C105*%
X150456400Y-74194800D03*
X150456400Y-73234800D03*
%TD*%
D70*
%TO.C,L11*%
X88683600Y-125043900D03*
X88683600Y-122918900D03*
%TD*%
D43*
%TO.C,U20*%
X165256900Y-57626800D03*
X165256900Y-58276800D03*
X165256900Y-58926800D03*
X165256900Y-59576800D03*
X159531900Y-59576800D03*
X159531900Y-58926800D03*
X159531900Y-58276800D03*
X159531900Y-57626800D03*
%TD*%
D42*
%TO.C,L6*%
X43395400Y-112403300D03*
X43395400Y-114528300D03*
%TD*%
D22*
%TO.C,C182*%
X99541400Y-147676800D03*
X99541400Y-146716800D03*
%TD*%
D17*
%TO.C,R102*%
X141060400Y-73968800D03*
X140040400Y-73968800D03*
%TD*%
D42*
%TO.C,L15*%
X148248400Y-141234300D03*
X148248400Y-143359300D03*
%TD*%
D13*
%TO.C,C156*%
X109231400Y-131741800D03*
X107681400Y-131741800D03*
%TD*%
D70*
%TO.C,L14*%
X148248400Y-137644300D03*
X148248400Y-135519300D03*
%TD*%
D34*
%TO.C,D44*%
X74737400Y-179881800D03*
X72537400Y-179881800D03*
%TD*%
D18*
%TO.C,C315*%
X117198400Y-169721800D03*
X117198400Y-166771800D03*
%TD*%
D17*
%TO.C,R176*%
X88330000Y-121543000D03*
X87310000Y-121543000D03*
%TD*%
D60*
%TO.C,R19*%
X36172400Y-76628800D03*
X36172400Y-77648800D03*
%TD*%
D19*
%TO.C,R142*%
X134264400Y-129340800D03*
X135914400Y-129340800D03*
%TD*%
D11*
%TO.C,R237*%
X145099400Y-113990300D03*
X145099400Y-112970300D03*
%TD*%
D71*
%TO.C,FB1*%
X130679900Y-92551800D03*
X129709900Y-92551800D03*
%TD*%
D22*
%TO.C,C234*%
X47801400Y-188560800D03*
X47801400Y-187600800D03*
%TD*%
D50*
%TO.C,R127*%
X160266900Y-159614800D03*
X158616900Y-159614800D03*
%TD*%
D19*
%TO.C,R141*%
X134264400Y-135309800D03*
X135914400Y-135309800D03*
%TD*%
D28*
%TO.C,C214*%
X129232400Y-190289202D03*
X129232400Y-191249202D03*
%TD*%
D45*
%TO.C,C201*%
X92425400Y-156416300D03*
X92425400Y-154866300D03*
%TD*%
D11*
%TO.C,R188*%
X75796400Y-186741800D03*
X75796400Y-185721800D03*
%TD*%
D23*
%TO.C,C267*%
X56191400Y-141284300D03*
X57151400Y-141284300D03*
%TD*%
D72*
%TO.C,D39*%
X118772400Y-157211800D03*
X119722400Y-159086800D03*
X117822400Y-159086800D03*
%TD*%
D13*
%TO.C,C119*%
X165420600Y-153415000D03*
X163870600Y-153415000D03*
%TD*%
D46*
%TO.C,C248*%
X39601400Y-143943300D03*
X39601400Y-145843300D03*
%TD*%
D20*
%TO.C,Q11*%
X147613900Y-58347800D03*
X149488900Y-57397800D03*
X149488900Y-59297800D03*
%TD*%
D11*
%TO.C,R85*%
X156311400Y-81592800D03*
X156311400Y-80572800D03*
%TD*%
D23*
%TO.C,C281*%
X56163400Y-139760300D03*
X57123400Y-139760300D03*
%TD*%
D17*
%TO.C,R211*%
X87736400Y-172642800D03*
X86716400Y-172642800D03*
%TD*%
D73*
%TO.C,D60*%
X68785900Y-122604800D03*
X70360900Y-122604800D03*
%TD*%
D48*
%TO.C,C42*%
X87692900Y-98401800D03*
X87692900Y-101351800D03*
%TD*%
D10*
%TO.C,C155*%
X128330400Y-128070800D03*
X127370400Y-128070800D03*
%TD*%
D60*
%TO.C,R250*%
X47856400Y-195246800D03*
X47856400Y-196266800D03*
%TD*%
D51*
%TO.C,C81*%
X118247400Y-76127800D03*
X121197400Y-76127800D03*
%TD*%
D17*
%TO.C,R179*%
X55224400Y-190930800D03*
X54204400Y-190930800D03*
%TD*%
D74*
%TO.C,U24*%
X176192400Y-99902700D03*
X178092400Y-99902700D03*
X178092400Y-102177700D03*
X177142400Y-102177700D03*
X176192400Y-102177700D03*
%TD*%
D11*
%TO.C,R4*%
X56476400Y-70287800D03*
X56476400Y-69267800D03*
%TD*%
D18*
%TO.C,C116*%
X141693400Y-109530800D03*
X141693400Y-106580800D03*
%TD*%
%TO.C,C103*%
X148551400Y-76205800D03*
X148551400Y-73255800D03*
%TD*%
D11*
%TO.C,R66*%
X123405400Y-89591800D03*
X123405400Y-88571800D03*
%TD*%
D63*
%TO.C,D12*%
X54215900Y-57331800D03*
X52640900Y-57331800D03*
%TD*%
D17*
%TO.C,R177*%
X94920400Y-114497800D03*
X93900400Y-114497800D03*
%TD*%
D29*
%TO.C,C56*%
X43395400Y-118098800D03*
X43395400Y-116198800D03*
%TD*%
D27*
%TO.C,C200*%
X111962400Y-154768800D03*
X113512400Y-154768800D03*
%TD*%
D75*
%TO.C,J2*%
X124548400Y-61252800D03*
X122008400Y-61252800D03*
X119468400Y-61252800D03*
X116928400Y-61252800D03*
X114388400Y-61252800D03*
X114388400Y-64952800D03*
X116928400Y-64952800D03*
X119468400Y-64952800D03*
X122008400Y-64952800D03*
X124548400Y-64952800D03*
%TD*%
D27*
%TO.C,C89*%
X161632400Y-70031800D03*
X163182400Y-70031800D03*
%TD*%
D76*
%TO.C,C211*%
X90395600Y-119917400D03*
X88495600Y-119917400D03*
%TD*%
D42*
%TO.C,L2*%
X89851900Y-99275800D03*
X89851900Y-101400800D03*
%TD*%
D72*
%TO.C,D37*%
X131218400Y-138895800D03*
X132168400Y-140770800D03*
X130268400Y-140770800D03*
%TD*%
D10*
%TO.C,C162*%
X128203400Y-135690800D03*
X127243400Y-135690800D03*
%TD*%
D29*
%TO.C,C34*%
X72224400Y-106541800D03*
X72224400Y-104641800D03*
%TD*%
D10*
%TO.C,C205*%
X150251400Y-82660800D03*
X149291400Y-82660800D03*
%TD*%
D17*
%TO.C,R180*%
X73385400Y-189406800D03*
X72365400Y-189406800D03*
%TD*%
D77*
%TO.C,U13*%
X95101400Y-96259800D03*
X95101400Y-98159800D03*
X92781400Y-98159800D03*
X92781400Y-97209800D03*
X92781400Y-96259800D03*
%TD*%
D78*
%TO.C,D46*%
X178034400Y-196391800D03*
X175234400Y-196391800D03*
%TD*%
D79*
%TO.C,U6*%
X39774400Y-66983800D03*
X39774400Y-68253800D03*
X39774400Y-69523800D03*
X39774400Y-70793800D03*
X34824400Y-70793800D03*
X34824400Y-69523800D03*
X34824400Y-68253800D03*
X34824400Y-66983800D03*
%TD*%
D13*
%TO.C,C187*%
X100443400Y-151133800D03*
X98893400Y-151133800D03*
%TD*%
D23*
%TO.C,C178*%
X100585400Y-155832800D03*
X101545400Y-155832800D03*
%TD*%
D11*
%TO.C,R239*%
X167188900Y-165585800D03*
X167188900Y-164565800D03*
%TD*%
D76*
%TO.C,C222*%
X55482400Y-168776800D03*
X53582400Y-168776800D03*
%TD*%
D28*
%TO.C,C304*%
X95592400Y-64953800D03*
X95592400Y-65913800D03*
%TD*%
D80*
%TO.C,U36*%
X128614900Y-134395300D03*
X128114900Y-134395300D03*
X127614900Y-134395300D03*
X127114900Y-134395300D03*
X126614900Y-134395300D03*
X126114900Y-134395300D03*
D81*
X125377400Y-133657800D03*
X125377400Y-133157800D03*
X125377400Y-132657800D03*
X125377400Y-132157800D03*
X125377400Y-131657800D03*
X125377400Y-131157800D03*
D80*
X126114900Y-130420300D03*
X126614900Y-130420300D03*
X127114900Y-130420300D03*
X127614900Y-130420300D03*
X128114900Y-130420300D03*
X128614900Y-130420300D03*
D81*
X129352400Y-131157800D03*
X129352400Y-131657800D03*
X129352400Y-132157800D03*
X129352400Y-132657800D03*
X129352400Y-133157800D03*
X129352400Y-133657800D03*
D82*
X126544900Y-131587800D03*
X126544900Y-132407800D03*
X126544900Y-133227800D03*
X127364900Y-131587800D03*
X127364900Y-132407800D03*
X127364900Y-133227800D03*
X128184900Y-131587800D03*
X128184900Y-132407800D03*
X128184900Y-133227800D03*
%TD*%
D19*
%TO.C,R143*%
X134264400Y-127435800D03*
X135914400Y-127435800D03*
%TD*%
D60*
%TO.C,R12*%
X76669400Y-70151800D03*
X76669400Y-71171800D03*
%TD*%
D47*
%TO.C,D31*%
X169252400Y-144121300D03*
X168302400Y-142246300D03*
X170202400Y-142246300D03*
%TD*%
D22*
%TO.C,C241*%
X29441400Y-151024800D03*
X29441400Y-150064800D03*
%TD*%
D17*
%TO.C,R221*%
X49229900Y-149909800D03*
X48209900Y-149909800D03*
%TD*%
D58*
%TO.C,U50*%
X89070400Y-175163800D03*
X90970400Y-175163800D03*
X90970400Y-177483800D03*
X90020400Y-177483800D03*
X89070400Y-177483800D03*
%TD*%
D10*
%TO.C,C87*%
X160474400Y-87176800D03*
X159514400Y-87176800D03*
%TD*%
D22*
%TO.C,C299*%
X121373400Y-89561800D03*
X121373400Y-88601800D03*
%TD*%
D48*
%TO.C,C293*%
X143067400Y-120895300D03*
X143067400Y-123845300D03*
%TD*%
D10*
%TO.C,C1*%
X88198400Y-49939800D03*
X87238400Y-49939800D03*
%TD*%
%TO.C,C107*%
X150908400Y-68380800D03*
X149948400Y-68380800D03*
%TD*%
D17*
%TO.C,R189*%
X134345400Y-192454800D03*
X133325400Y-192454800D03*
%TD*%
D11*
%TO.C,R43*%
X51015400Y-89061000D03*
X51015400Y-88041000D03*
%TD*%
D27*
%TO.C,C88*%
X161632400Y-64951800D03*
X163182400Y-64951800D03*
%TD*%
D12*
%TO.C,R265*%
X176759400Y-188517800D03*
X177779400Y-188517800D03*
%TD*%
D23*
%TO.C,C17*%
X76812400Y-75619800D03*
X77772400Y-75619800D03*
%TD*%
D11*
%TO.C,R236*%
X148909400Y-113990300D03*
X148909400Y-112970300D03*
%TD*%
D83*
%TO.C,C209*%
X92442400Y-120974800D03*
X94342400Y-120974800D03*
%TD*%
D84*
%TO.C,U46*%
X34482400Y-144642800D03*
X34482400Y-145142800D03*
X34482400Y-145642800D03*
X34482400Y-146142800D03*
X34482400Y-146642800D03*
X34482400Y-147142800D03*
X34482400Y-147642800D03*
X34482400Y-148142800D03*
D85*
X33794900Y-148830300D03*
X33294900Y-148830300D03*
X32794900Y-148830300D03*
X32294900Y-148830300D03*
X31794900Y-148830300D03*
X31294900Y-148830300D03*
X30794900Y-148830300D03*
X30294900Y-148830300D03*
D84*
X29607400Y-148142800D03*
X29607400Y-147642800D03*
X29607400Y-147142800D03*
X29607400Y-146642800D03*
X29607400Y-146142800D03*
X29607400Y-145642800D03*
X29607400Y-145142800D03*
X29607400Y-144642800D03*
D85*
X30294900Y-143955300D03*
X30794900Y-143955300D03*
X31294900Y-143955300D03*
X31794900Y-143955300D03*
X32294900Y-143955300D03*
X32794900Y-143955300D03*
X33294900Y-143955300D03*
X33794900Y-143955300D03*
D86*
X30894900Y-147542800D03*
X32044900Y-147542800D03*
X33194900Y-147542800D03*
X30894900Y-146392800D03*
X32044900Y-146392800D03*
X33194900Y-146392800D03*
X30894900Y-145242800D03*
X32044900Y-145242800D03*
X33194900Y-145242800D03*
%TD*%
D26*
%TO.C,C216*%
X129945400Y-186098202D03*
X126995400Y-186098202D03*
%TD*%
D17*
%TO.C,R213*%
X91038400Y-172513800D03*
X90018400Y-172513800D03*
%TD*%
D60*
%TO.C,R73*%
X118325400Y-88571800D03*
X118325400Y-89591800D03*
%TD*%
%TO.C,R97*%
X148904400Y-67362800D03*
X148904400Y-68382800D03*
%TD*%
D23*
%TO.C,C142*%
X116637950Y-130319650D03*
X117597950Y-130319650D03*
%TD*%
%TO.C,C144*%
X119242400Y-132388800D03*
X120202400Y-132388800D03*
%TD*%
D87*
%TO.C,C317*%
X130535400Y-178859202D03*
X125135400Y-178859202D03*
%TD*%
D22*
%TO.C,C225*%
X50214400Y-188560800D03*
X50214400Y-187600800D03*
%TD*%
D18*
%TO.C,C35*%
X39712400Y-92842800D03*
X39712400Y-89892800D03*
%TD*%
D12*
%TO.C,R234*%
X176759400Y-190549800D03*
X177779400Y-190549800D03*
%TD*%
D88*
%TO.C,U4*%
X87988400Y-79424300D03*
X87038400Y-79424300D03*
X86088400Y-79424300D03*
X86088400Y-77149300D03*
X87038400Y-77149300D03*
X87988400Y-77149300D03*
%TD*%
D57*
%TO.C,FB3*%
X164335400Y-81588800D03*
X165305400Y-81588800D03*
%TD*%
D60*
%TO.C,R63*%
X119722400Y-98225800D03*
X119722400Y-99245800D03*
%TD*%
D17*
%TO.C,R197*%
X37608900Y-142734300D03*
X36588900Y-142734300D03*
%TD*%
D89*
%TO.C,L5*%
X62191400Y-96297800D03*
X62191400Y-90247800D03*
%TD*%
D73*
%TO.C,D38*%
X74729400Y-84631800D03*
X76304400Y-84631800D03*
%TD*%
D13*
%TO.C,C113*%
X165420600Y-121614200D03*
X163870600Y-121614200D03*
%TD*%
D17*
%TO.C,R257*%
X72877400Y-122604800D03*
X71857400Y-122604800D03*
%TD*%
D28*
%TO.C,C257*%
X87685400Y-175718800D03*
X87685400Y-176678800D03*
%TD*%
D10*
%TO.C,C104*%
X149412400Y-54664800D03*
X148452400Y-54664800D03*
%TD*%
D90*
%TO.C,D18*%
X154406400Y-71260800D03*
X154406400Y-73460800D03*
%TD*%
D12*
%TO.C,R172*%
X100555400Y-154816800D03*
X101575400Y-154816800D03*
%TD*%
D60*
%TO.C,R267*%
X144300200Y-137487200D03*
X144300200Y-138507200D03*
%TD*%
D17*
%TO.C,R15*%
X86786400Y-81710800D03*
X85766400Y-81710800D03*
%TD*%
D91*
%TO.C,L9*%
X76415900Y-117021800D03*
X78540900Y-117021800D03*
%TD*%
D43*
%TO.C,U32*%
X164696900Y-161350800D03*
X164696900Y-162000800D03*
X164696900Y-162650800D03*
X164696900Y-163300800D03*
X158971900Y-163300800D03*
X158971900Y-162650800D03*
X158971900Y-162000800D03*
X158971900Y-161350800D03*
%TD*%
D92*
%TO.C,R150*%
X118809900Y-137849800D03*
X120634900Y-137849800D03*
%TD*%
D93*
%TO.C,U35*%
X107460400Y-165493800D03*
X107460400Y-166143800D03*
X107460400Y-166793800D03*
X107460400Y-167443800D03*
X103060400Y-167443800D03*
X103060400Y-166793800D03*
X103060400Y-166143800D03*
X103060400Y-165493800D03*
%TD*%
D72*
%TO.C,D33*%
X146585400Y-169629800D03*
X147535400Y-171504800D03*
X145635400Y-171504800D03*
%TD*%
D23*
%TO.C,C173*%
X104191950Y-148635650D03*
X105151950Y-148635650D03*
%TD*%
D27*
%TO.C,C125*%
X160190900Y-164821800D03*
X161740900Y-164821800D03*
%TD*%
D11*
%TO.C,R139*%
X101196400Y-166978800D03*
X101196400Y-165958800D03*
%TD*%
D20*
%TO.C,D54*%
X134151900Y-132388800D03*
X136026900Y-131438800D03*
X136026900Y-133338800D03*
%TD*%
D10*
%TO.C,C40*%
X33715400Y-93399800D03*
X32755400Y-93399800D03*
%TD*%
D42*
%TO.C,L1*%
X72224400Y-100846300D03*
X72224400Y-102971300D03*
%TD*%
D71*
%TO.C,FB8*%
X160479400Y-79423800D03*
X159509400Y-79423800D03*
%TD*%
D11*
%TO.C,R186*%
X75796400Y-180391800D03*
X75796400Y-179371800D03*
%TD*%
%TO.C,R224*%
X85119400Y-132396300D03*
X85119400Y-131376300D03*
%TD*%
D39*
%TO.C,C192*%
X94207400Y-143881800D03*
X94207400Y-145431800D03*
%TD*%
D20*
%TO.C,D55*%
X121705900Y-150704800D03*
X123580900Y-149754800D03*
X123580900Y-151654800D03*
%TD*%
D65*
%TO.C,D15*%
X59524400Y-69803300D03*
X59524400Y-68228300D03*
%TD*%
D12*
%TO.C,R192*%
X120371400Y-172261800D03*
X121391400Y-172261800D03*
%TD*%
D29*
%TO.C,C278*%
X83468400Y-133217300D03*
X83468400Y-131317300D03*
%TD*%
D26*
%TO.C,C133*%
X141583400Y-162820300D03*
X138633400Y-162820300D03*
%TD*%
D60*
%TO.C,R68*%
X120357400Y-88571800D03*
X120357400Y-89591800D03*
%TD*%
D94*
%TO.C,L10*%
X129247400Y-71150800D03*
X129247400Y-80850800D03*
%TD*%
D27*
%TO.C,C124*%
X161968900Y-159741800D03*
X163518900Y-159741800D03*
%TD*%
D46*
%TO.C,C272*%
X72419400Y-125729300D03*
X72419400Y-127629300D03*
%TD*%
D22*
%TO.C,C265*%
X60692800Y-154077800D03*
X60692800Y-153117800D03*
%TD*%
D17*
%TO.C,R162*%
X105181950Y-150667650D03*
X104161950Y-150667650D03*
%TD*%
D47*
%TO.C,D27*%
X169252400Y-110974300D03*
X168302400Y-109099300D03*
X170202400Y-109099300D03*
%TD*%
D10*
%TO.C,C287*%
X177749400Y-187451000D03*
X176789400Y-187451000D03*
%TD*%
D20*
%TO.C,Q14*%
X142914900Y-64189800D03*
X144789900Y-63239800D03*
X144789900Y-65139800D03*
%TD*%
D73*
%TO.C,D3*%
X77812400Y-56797800D03*
X79387400Y-56797800D03*
%TD*%
D20*
%TO.C,Q12*%
X149264900Y-64189800D03*
X151139900Y-63239800D03*
X151139900Y-65139800D03*
%TD*%
D25*
%TO.C,U27*%
X164066900Y-127644200D03*
X164066900Y-125744200D03*
X166341900Y-125744200D03*
X166341900Y-126694200D03*
X166341900Y-127644200D03*
%TD*%
D87*
%TO.C,C67*%
X115089400Y-113211800D03*
X109689400Y-113211800D03*
%TD*%
D95*
%TO.C,U54*%
X103369400Y-175051800D03*
D96*
X102819400Y-176101800D03*
X102319400Y-176101800D03*
X101819400Y-176101800D03*
X101319400Y-176101800D03*
X100819400Y-176101800D03*
X100319400Y-176101800D03*
X99819400Y-176101800D03*
X99319400Y-176101800D03*
D95*
X98769400Y-175051800D03*
X98769400Y-174551800D03*
D96*
X99319400Y-173501800D03*
X99819400Y-173501800D03*
X100319400Y-173501800D03*
X100819400Y-173501800D03*
X101319400Y-173501800D03*
X101819400Y-173501800D03*
X102319400Y-173501800D03*
X102819400Y-173501800D03*
D95*
X103369400Y-174551800D03*
D97*
X100119400Y-174801800D03*
X101069400Y-174801800D03*
X102019400Y-174801800D03*
%TD*%
D18*
%TO.C,C194*%
X97128400Y-157434800D03*
X97128400Y-154484800D03*
%TD*%
D10*
%TO.C,C303*%
X81594400Y-70793800D03*
X80634400Y-70793800D03*
%TD*%
D23*
%TO.C,C33*%
X59044400Y-65713800D03*
X60004400Y-65713800D03*
%TD*%
D28*
%TO.C,C5*%
X42760400Y-62566800D03*
X42760400Y-63526800D03*
%TD*%
D98*
%TO.C,R235*%
X175171900Y-199135000D03*
X178096900Y-199135000D03*
%TD*%
D60*
%TO.C,R71*%
X127723400Y-98223800D03*
X127723400Y-99243800D03*
%TD*%
D66*
%TO.C,U39*%
X96338400Y-152567800D03*
X95838400Y-152567800D03*
X95338400Y-152567800D03*
X94838400Y-152567800D03*
X94338400Y-152567800D03*
X93838400Y-152567800D03*
X93338400Y-152567800D03*
X92838400Y-152567800D03*
D67*
X92138400Y-151867800D03*
X92138400Y-151367800D03*
X92138400Y-150867800D03*
X92138400Y-150367800D03*
X92138400Y-149867800D03*
X92138400Y-149367800D03*
X92138400Y-148867800D03*
X92138400Y-148367800D03*
D66*
X92838400Y-147667800D03*
X93338400Y-147667800D03*
X93838400Y-147667800D03*
X94338400Y-147667800D03*
X94838400Y-147667800D03*
X95338400Y-147667800D03*
X95838400Y-147667800D03*
X96338400Y-147667800D03*
D67*
X97038400Y-148367800D03*
X97038400Y-148867800D03*
X97038400Y-149367800D03*
X97038400Y-149867800D03*
X97038400Y-150367800D03*
X97038400Y-150867800D03*
X97038400Y-151367800D03*
X97038400Y-151867800D03*
D68*
X93713400Y-149242800D03*
X93713400Y-150992800D03*
X95463400Y-149242800D03*
X95463400Y-150992800D03*
%TD*%
D22*
%TO.C,C300*%
X118976400Y-167710800D03*
X118976400Y-166750800D03*
%TD*%
D12*
%TO.C,R260*%
X149708400Y-60882800D03*
X150728400Y-60882800D03*
%TD*%
D99*
%TO.C,P2*%
X55938400Y-110544800D03*
X55938400Y-118164800D03*
X45838400Y-118164800D03*
X45838400Y-113084800D03*
X45838400Y-110544800D03*
%TD*%
D27*
%TO.C,C202*%
X112089400Y-146767800D03*
X113639400Y-146767800D03*
%TD*%
D65*
%TO.C,D11*%
X81622400Y-69549300D03*
X81622400Y-67974300D03*
%TD*%
D48*
%TO.C,C160*%
X100963400Y-122519800D03*
X100963400Y-125469800D03*
%TD*%
D100*
%TO.C,D4*%
X47825500Y-58201700D03*
X45550500Y-59151700D03*
X45550500Y-57251700D03*
%TD*%
D17*
%TO.C,R26*%
X82132400Y-62639800D03*
X81112400Y-62639800D03*
%TD*%
D46*
%TO.C,C70*%
X112864400Y-82670800D03*
X112864400Y-84570800D03*
%TD*%
D101*
%TO.C,FB15*%
X137187400Y-171433300D03*
X137187400Y-170463300D03*
%TD*%
D73*
%TO.C,D57*%
X86819900Y-94791800D03*
X88394900Y-94791800D03*
%TD*%
D60*
%TO.C,R74*%
X125437400Y-98223800D03*
X125437400Y-99243800D03*
%TD*%
D102*
%TO.C,R113*%
X150142400Y-107942800D03*
D103*
X151092400Y-106037800D03*
X144232400Y-108577800D03*
D102*
X145182400Y-106672800D03*
%TD*%
D10*
%TO.C,C230*%
X46685400Y-188390800D03*
X45725400Y-188390800D03*
%TD*%
D23*
%TO.C,C48*%
X93461400Y-100638800D03*
X94421400Y-100638800D03*
%TD*%
D63*
%TO.C,D58*%
X88394900Y-110539800D03*
X86819900Y-110539800D03*
%TD*%
D104*
%TO.C,F2*%
X109562400Y-58427300D03*
X109562400Y-54152300D03*
%TD*%
D20*
%TO.C,D23*%
X142914900Y-73836800D03*
X144789900Y-72886800D03*
X144789900Y-74786800D03*
%TD*%
D12*
%TO.C,R10*%
X82509400Y-71809800D03*
X83529400Y-71809800D03*
%TD*%
D46*
%TO.C,C208*%
X90664800Y-123031400D03*
X90664800Y-124931400D03*
%TD*%
D30*
%TO.C,Q23*%
X160815400Y-106018800D03*
D31*
X160872900Y-108888800D03*
D30*
X156385400Y-106018800D03*
D31*
X156327900Y-108888800D03*
D37*
X160505400Y-111603800D03*
X159235400Y-111603800D03*
X157965400Y-111603800D03*
X156695400Y-111603800D03*
D38*
X159768800Y-106836300D03*
X157432000Y-106836300D03*
X159768800Y-108781300D03*
X157432000Y-108781300D03*
%TD*%
D16*
%TO.C,R52*%
X62699400Y-101620500D03*
X62699400Y-98695500D03*
%TD*%
D45*
%TO.C,C45*%
X89851900Y-104842800D03*
X89851900Y-103292800D03*
%TD*%
D105*
%TO.C,C53*%
X97243400Y-105130800D03*
X97243400Y-107830800D03*
%TD*%
D11*
%TO.C,R84*%
X166979400Y-85019800D03*
X166979400Y-83999800D03*
%TD*%
%TO.C,R109*%
X178666400Y-98400600D03*
X178666400Y-97380600D03*
%TD*%
D60*
%TO.C,R100*%
X141185400Y-65584800D03*
X141185400Y-66604800D03*
%TD*%
D25*
%TO.C,U28*%
X164066900Y-135721400D03*
X164066900Y-133821400D03*
X166341900Y-133821400D03*
X166341900Y-134771400D03*
X166341900Y-135721400D03*
%TD*%
D106*
%TO.C,R233*%
X164544000Y-181117100D03*
X164544000Y-175192100D03*
%TD*%
D28*
%TO.C,C179*%
X99541400Y-152812800D03*
X99541400Y-153772800D03*
%TD*%
D18*
%TO.C,C163*%
X105916400Y-138042800D03*
X105916400Y-135092800D03*
%TD*%
D60*
%TO.C,R201*%
X42340400Y-192142800D03*
X42340400Y-193162800D03*
%TD*%
D22*
%TO.C,C286*%
X104625400Y-176325800D03*
X104625400Y-175365800D03*
%TD*%
D43*
%TO.C,U21*%
X165269900Y-83915800D03*
X165269900Y-84565800D03*
X165269900Y-85215800D03*
X165269900Y-85865800D03*
X159544900Y-85865800D03*
X159544900Y-85215800D03*
X159544900Y-84565800D03*
X159544900Y-83915800D03*
%TD*%
D17*
%TO.C,R253*%
X108310400Y-67359800D03*
X107290400Y-67359800D03*
%TD*%
D48*
%TO.C,C213*%
X127581400Y-189195202D03*
X127581400Y-192145202D03*
%TD*%
D10*
%TO.C,C206*%
X143305400Y-79430300D03*
X142345400Y-79430300D03*
%TD*%
D23*
%TO.C,C15*%
X97858400Y-75619800D03*
X98818400Y-75619800D03*
%TD*%
D30*
%TO.C,Q28*%
X160799400Y-147617800D03*
D31*
X160856900Y-150487800D03*
D30*
X156369400Y-147617800D03*
D31*
X156311900Y-150487800D03*
D37*
X160489400Y-153202800D03*
X159219400Y-153202800D03*
X157949400Y-153202800D03*
X156679400Y-153202800D03*
D38*
X159752800Y-148435300D03*
X157416000Y-148435300D03*
X159752800Y-150380300D03*
X157416000Y-150380300D03*
%TD*%
D11*
%TO.C,R223*%
X64477400Y-128199800D03*
X64477400Y-127179800D03*
%TD*%
D28*
%TO.C,C280*%
X73463600Y-156725100D03*
X73463600Y-157685100D03*
%TD*%
D14*
%TO.C,C19*%
X79844400Y-88192800D03*
X85244400Y-88192800D03*
%TD*%
D23*
%TO.C,C249*%
X44654400Y-198367800D03*
X45614400Y-198367800D03*
%TD*%
D27*
%TO.C,C169*%
X124408400Y-136452800D03*
X125958400Y-136452800D03*
%TD*%
D107*
%TO.C,D14*%
X47332400Y-61265800D03*
X47332400Y-64065800D03*
%TD*%
D57*
%TO.C,FB11*%
X143651400Y-147796800D03*
X144621400Y-147796800D03*
%TD*%
D12*
%TO.C,R24*%
X70698400Y-67211800D03*
X71718400Y-67211800D03*
%TD*%
D48*
%TO.C,C196*%
X96239400Y-142927800D03*
X96239400Y-145877800D03*
%TD*%
D13*
%TO.C,C254*%
X80233400Y-178890800D03*
X78683400Y-178890800D03*
%TD*%
D25*
%TO.C,U10*%
X32709900Y-92112800D03*
X32709900Y-91162800D03*
X32709900Y-90212800D03*
X34984900Y-90212800D03*
X34984900Y-91162800D03*
X34984900Y-92112800D03*
%TD*%
D13*
%TO.C,C117*%
X165420600Y-137311400D03*
X163870600Y-137311400D03*
%TD*%
%TO.C,C256*%
X90795400Y-178863800D03*
X89245400Y-178863800D03*
%TD*%
D15*
%TO.C,J25*%
X79098400Y-186362300D03*
X81638400Y-186362300D03*
X84178400Y-186362300D03*
X86718400Y-186362300D03*
X89258400Y-186362300D03*
X89258400Y-182662300D03*
X86718400Y-182662300D03*
X84178400Y-182662300D03*
X81638400Y-182662300D03*
X79098400Y-182662300D03*
%TD*%
D18*
%TO.C,C294*%
X146089400Y-138564800D03*
X146089400Y-135614800D03*
%TD*%
D23*
%TO.C,C301*%
X74538400Y-49939800D03*
X75498400Y-49939800D03*
%TD*%
D71*
%TO.C,FB13*%
X159037900Y-165583800D03*
X158067900Y-165583800D03*
%TD*%
D17*
%TO.C,R136*%
X73385400Y-192835800D03*
X72365400Y-192835800D03*
%TD*%
D12*
%TO.C,R130*%
X148869400Y-164852300D03*
X149889400Y-164852300D03*
%TD*%
D92*
%TO.C,R151*%
X118809900Y-135563800D03*
X120634900Y-135563800D03*
%TD*%
D28*
%TO.C,C10*%
X36537400Y-50374800D03*
X36537400Y-51334800D03*
%TD*%
D22*
%TO.C,C246*%
X43229400Y-196815800D03*
X43229400Y-195855800D03*
%TD*%
D108*
%TO.C,P1*%
X84791900Y-96935800D03*
X84791900Y-104575800D03*
X74591900Y-107115800D03*
X74591900Y-104575800D03*
X74591900Y-99495800D03*
X74591900Y-96935800D03*
%TD*%
D60*
%TO.C,R245*%
X144311400Y-135563800D03*
X144311400Y-136583800D03*
%TD*%
D30*
%TO.C,Q27*%
X160799400Y-139548800D03*
D31*
X160856900Y-142418800D03*
D30*
X156369400Y-139548800D03*
D31*
X156311900Y-142418800D03*
D37*
X160489400Y-145133800D03*
X159219400Y-145133800D03*
X157949400Y-145133800D03*
X156679400Y-145133800D03*
D38*
X159752800Y-140366300D03*
X157416000Y-140366300D03*
X159752800Y-142311300D03*
X157416000Y-142311300D03*
%TD*%
D13*
%TO.C,C114*%
X165420600Y-129183400D03*
X163870600Y-129183400D03*
%TD*%
D17*
%TO.C,R220*%
X45572400Y-167435800D03*
X44552400Y-167435800D03*
%TD*%
D11*
%TO.C,R232*%
X103718400Y-179909800D03*
X103718400Y-178889800D03*
%TD*%
D92*
%TO.C,R152*%
X118809900Y-127943800D03*
X120634900Y-127943800D03*
%TD*%
D88*
%TO.C,U3*%
X98399400Y-79424300D03*
X97449400Y-79424300D03*
X96499400Y-79424300D03*
X96499400Y-77149300D03*
X97449400Y-77149300D03*
X98399400Y-77149300D03*
%TD*%
D23*
%TO.C,C16*%
X87419400Y-75619800D03*
X88379400Y-75619800D03*
%TD*%
D18*
%TO.C,C43*%
X87692900Y-107320800D03*
X87692900Y-104370800D03*
%TD*%
D23*
%TO.C,C27*%
X81142400Y-65687800D03*
X82102400Y-65687800D03*
%TD*%
D29*
%TO.C,C207*%
X86702400Y-124931400D03*
X86702400Y-123031400D03*
%TD*%
D11*
%TO.C,R91*%
X155930400Y-64445800D03*
X155930400Y-63425800D03*
%TD*%
D19*
%TO.C,R72*%
X95732600Y-123625800D03*
X97382600Y-123625800D03*
%TD*%
D45*
%TO.C,C195*%
X95223400Y-155972800D03*
X95223400Y-154422800D03*
%TD*%
D10*
%TO.C,C90*%
X165300400Y-65205800D03*
X164340400Y-65205800D03*
%TD*%
D11*
%TO.C,R268*%
X144300200Y-141402800D03*
X144300200Y-140382800D03*
%TD*%
D13*
%TO.C,C189*%
X100456400Y-149609800D03*
X98906400Y-149609800D03*
%TD*%
D10*
%TO.C,C224*%
X56155400Y-182492800D03*
X55195400Y-182492800D03*
%TD*%
D76*
%TO.C,C328*%
X74413600Y-173969100D03*
X72513600Y-173969100D03*
%TD*%
D11*
%TO.C,R92*%
X155663400Y-59367800D03*
X155663400Y-58347800D03*
%TD*%
D64*
%TO.C,Y2*%
X39304400Y-154100800D03*
X39304400Y-155500800D03*
X38204400Y-155500800D03*
X38204400Y-154100800D03*
%TD*%
D48*
%TO.C,C292*%
X150912400Y-120944300D03*
X150912400Y-123894300D03*
%TD*%
D25*
%TO.C,U30*%
X164066900Y-151825000D03*
X164066900Y-149925000D03*
X166341900Y-149925000D03*
X166341900Y-150875000D03*
X166341900Y-151825000D03*
%TD*%
D51*
%TO.C,C102*%
X142885400Y-55045800D03*
X145835400Y-55045800D03*
%TD*%
D27*
%TO.C,C84*%
X161632400Y-82350800D03*
X163182400Y-82350800D03*
%TD*%
D10*
%TO.C,C186*%
X115884400Y-146386800D03*
X114924400Y-146386800D03*
%TD*%
D19*
%TO.C,R140*%
X134264400Y-137087800D03*
X135914400Y-137087800D03*
%TD*%
D23*
%TO.C,C141*%
X116637950Y-133367650D03*
X117597950Y-133367650D03*
%TD*%
D22*
%TO.C,C237*%
X35826900Y-149437300D03*
X35826900Y-148477300D03*
%TD*%
D10*
%TO.C,C159*%
X128203400Y-136706800D03*
X127243400Y-136706800D03*
%TD*%
D51*
%TO.C,C54*%
X54671200Y-97867400D03*
X57621200Y-97867400D03*
%TD*%
D60*
%TO.C,R64*%
X120738400Y-98227800D03*
X120738400Y-99247800D03*
%TD*%
D109*
%TO.C,C318*%
X75843400Y-119175800D03*
X78543400Y-119175800D03*
%TD*%
D11*
%TO.C,R242*%
X164140900Y-165585800D03*
X164140900Y-164565800D03*
%TD*%
D10*
%TO.C,C269*%
X83313400Y-136204300D03*
X82353400Y-136204300D03*
%TD*%
D47*
%TO.C,D25*%
X173078400Y-99666300D03*
X172128400Y-97791300D03*
X174028400Y-97791300D03*
%TD*%
D10*
%TO.C,C193*%
X115757400Y-154006800D03*
X114797400Y-154006800D03*
%TD*%
D17*
%TO.C,R210*%
X87687400Y-177722800D03*
X86667400Y-177722800D03*
%TD*%
D16*
%TO.C,R49*%
X99275400Y-99180300D03*
X99275400Y-96255300D03*
%TD*%
D34*
%TO.C,D36*%
X114234400Y-164563800D03*
X112034400Y-164563800D03*
%TD*%
D10*
%TO.C,C243*%
X41169400Y-194303800D03*
X40209400Y-194303800D03*
%TD*%
D11*
%TO.C,R31*%
X49110400Y-64191800D03*
X49110400Y-63171800D03*
%TD*%
D28*
%TO.C,C140*%
X118976400Y-164845800D03*
X118976400Y-165805800D03*
%TD*%
D11*
%TO.C,R22*%
X70446400Y-62133800D03*
X70446400Y-61113800D03*
%TD*%
D10*
%TO.C,C190*%
X115757400Y-155022800D03*
X114797400Y-155022800D03*
%TD*%
D26*
%TO.C,C58*%
X115007400Y-99114800D03*
X112057400Y-99114800D03*
%TD*%
D110*
%TO.C,R190*%
X118621400Y-181136202D03*
X118621400Y-183186202D03*
X122571400Y-183186202D03*
X122571400Y-181136202D03*
%TD*%
D71*
%TO.C,FB16*%
X143419400Y-125418300D03*
X142449400Y-125418300D03*
%TD*%
D22*
%TO.C,C244*%
X28298400Y-148992800D03*
X28298400Y-148032800D03*
%TD*%
D24*
%TO.C,R121*%
X165465900Y-131753800D03*
X163640900Y-131753800D03*
%TD*%
D71*
%TO.C,FB4*%
X160479400Y-88192800D03*
X159509400Y-88192800D03*
%TD*%
D92*
%TO.C,R238*%
X144021900Y-165741300D03*
X145846900Y-165741300D03*
%TD*%
D60*
%TO.C,R89*%
X157073400Y-63425800D03*
X157073400Y-64445800D03*
%TD*%
D17*
%TO.C,R183*%
X74147400Y-187755800D03*
X73127400Y-187755800D03*
%TD*%
D28*
%TO.C,C324*%
X68482400Y-126961300D03*
X68482400Y-127921300D03*
%TD*%
D22*
%TO.C,C74*%
X124421400Y-89561800D03*
X124421400Y-88601800D03*
%TD*%
D28*
%TO.C,C326*%
X71351400Y-183183800D03*
X71351400Y-184143800D03*
%TD*%
D19*
%TO.C,R159*%
X121818400Y-153625800D03*
X123468400Y-153625800D03*
%TD*%
D39*
%TO.C,C64*%
X58127400Y-111420800D03*
X58127400Y-112970800D03*
%TD*%
D111*
%TO.C,U31*%
X145443400Y-150336800D03*
X146093400Y-150336800D03*
X146743400Y-150336800D03*
X147393400Y-150336800D03*
X148043400Y-150336800D03*
X148693400Y-150336800D03*
X149343400Y-150336800D03*
X149993400Y-150336800D03*
X149993400Y-156061800D03*
X149343400Y-156061800D03*
X148693400Y-156061800D03*
X148043400Y-156061800D03*
X147393400Y-156061800D03*
X146743400Y-156061800D03*
X146093400Y-156061800D03*
X145443400Y-156061800D03*
%TD*%
D10*
%TO.C,C100*%
X165287400Y-56315800D03*
X164327400Y-56315800D03*
%TD*%
D112*
%TO.C,RT1*%
X127730400Y-101432800D03*
D113*
X126580400Y-105432800D03*
D112*
X125430400Y-101432800D03*
%TD*%
D45*
%TO.C,C164*%
X104011400Y-136580800D03*
X104011400Y-135030800D03*
%TD*%
D10*
%TO.C,C126*%
X165636900Y-159995800D03*
X164676900Y-159995800D03*
%TD*%
D17*
%TO.C,R163*%
X105181950Y-149651650D03*
X104161950Y-149651650D03*
%TD*%
D60*
%TO.C,R226*%
X105218400Y-178899800D03*
X105218400Y-179919800D03*
%TD*%
D18*
%TO.C,C219*%
X115770400Y-184017202D03*
X115770400Y-181067202D03*
%TD*%
D16*
%TO.C,R50*%
X99529400Y-107943300D03*
X99529400Y-105018300D03*
%TD*%
D52*
%TO.C,D26*%
X138877400Y-101466800D03*
X138877400Y-98666800D03*
%TD*%
D73*
%TO.C,D53*%
X47830900Y-100125800D03*
X49405900Y-100125800D03*
%TD*%
D88*
%TO.C,U40*%
X144310400Y-83107800D03*
X143360400Y-83107800D03*
X142410400Y-83107800D03*
X142410400Y-80832800D03*
X143360400Y-80832800D03*
X144310400Y-80832800D03*
%TD*%
D11*
%TO.C,R33*%
X57746400Y-68001800D03*
X57746400Y-66981800D03*
%TD*%
D114*
%TO.C,D51*%
X144004900Y-116274300D03*
X142129900Y-117224300D03*
X142129900Y-115324300D03*
%TD*%
D48*
%TO.C,C165*%
X105027400Y-123535800D03*
X105027400Y-126485800D03*
%TD*%
D19*
%TO.C,R133*%
X137335900Y-137115300D03*
X138985900Y-137115300D03*
%TD*%
D60*
%TO.C,R195*%
X40659400Y-154290800D03*
X40659400Y-155310800D03*
%TD*%
%TO.C,R118*%
X162537400Y-142038800D03*
X162537400Y-143058800D03*
%TD*%
D17*
%TO.C,R48*%
X94451400Y-106861800D03*
X93431400Y-106861800D03*
%TD*%
D57*
%TO.C,FB12*%
X164671900Y-158979800D03*
X165641900Y-158979800D03*
%TD*%
D115*
%TO.C,C311*%
X65128400Y-105172800D03*
X65128400Y-110572800D03*
%TD*%
D13*
%TO.C,C29*%
X48834600Y-65962800D03*
X47284600Y-65962800D03*
%TD*%
D116*
%TO.C,R77*%
X118591400Y-67447300D03*
X118591400Y-70372300D03*
%TD*%
D110*
%TO.C,R124*%
X164229400Y-114345800D03*
X164229400Y-116395800D03*
X168179400Y-116395800D03*
X168179400Y-114345800D03*
%TD*%
D11*
%TO.C,R23*%
X70446400Y-64165800D03*
X70446400Y-63145800D03*
%TD*%
D62*
%TO.C,R248*%
X147893400Y-118710800D03*
X147893400Y-116885800D03*
%TD*%
D57*
%TO.C,FB9*%
X164322400Y-55299800D03*
X165292400Y-55299800D03*
%TD*%
D23*
%TO.C,C172*%
X104191950Y-151683650D03*
X105151950Y-151683650D03*
%TD*%
D11*
%TO.C,R93*%
X150456400Y-71555800D03*
X150456400Y-70535800D03*
%TD*%
D50*
%TO.C,R62*%
X123112800Y-105972800D03*
X121462800Y-105972800D03*
%TD*%
D10*
%TO.C,C131*%
X139191400Y-164471300D03*
X138231400Y-164471300D03*
%TD*%
D11*
%TO.C,R13*%
X75653400Y-71171800D03*
X75653400Y-70151800D03*
%TD*%
D117*
%TO.C,C52*%
X96989400Y-99067800D03*
X96989400Y-96367800D03*
%TD*%
D11*
%TO.C,R230*%
X100718400Y-179909800D03*
X100718400Y-178889800D03*
%TD*%
D39*
%TO.C,C26*%
X76796400Y-60340800D03*
X76796400Y-61890800D03*
%TD*%
D13*
%TO.C,C251*%
X57085400Y-172007800D03*
X55535400Y-172007800D03*
%TD*%
D41*
%TO.C,R56*%
X73987900Y-119180800D03*
X71062900Y-119180800D03*
%TD*%
D73*
%TO.C,D45*%
X47932400Y-151306800D03*
X49507400Y-151306800D03*
%TD*%
D60*
%TO.C,R69*%
X124421400Y-98223800D03*
X124421400Y-99243800D03*
%TD*%
D76*
%TO.C,C136*%
X106210400Y-163547800D03*
X104310400Y-163547800D03*
%TD*%
D22*
%TO.C,C151*%
X108329400Y-128284800D03*
X108329400Y-127324800D03*
%TD*%
D28*
%TO.C,C325*%
X71351400Y-186358800D03*
X71351400Y-187318800D03*
%TD*%
D17*
%TO.C,R76*%
X125566400Y-87176800D03*
X124546400Y-87176800D03*
%TD*%
D11*
%TO.C,R17*%
X41809400Y-68761800D03*
X41809400Y-67741800D03*
%TD*%
D10*
%TO.C,C92*%
X156311400Y-75746800D03*
X155351400Y-75746800D03*
%TD*%
%TO.C,C91*%
X160474400Y-69777800D03*
X159514400Y-69777800D03*
%TD*%
D18*
%TO.C,C295*%
X150407400Y-138564800D03*
X150407400Y-135614800D03*
%TD*%
D63*
%TO.C,D1*%
X110857900Y-52225800D03*
X109282900Y-52225800D03*
%TD*%
D118*
%TO.C,C321*%
X134343400Y-114890800D03*
X134343400Y-109490800D03*
%TD*%
D23*
%TO.C,C323*%
X56191400Y-145221300D03*
X57151400Y-145221300D03*
%TD*%
D20*
%TO.C,Q13*%
X142914900Y-67999800D03*
X144789900Y-67049800D03*
X144789900Y-68949800D03*
%TD*%
D119*
%TO.C,J13*%
X44401000Y-137494200D03*
X49451000Y-137494200D03*
X44401000Y-140034200D03*
X49451000Y-140034200D03*
X44401000Y-142574200D03*
X49451000Y-142574200D03*
X44401000Y-145114200D03*
X49451000Y-145114200D03*
%TD*%
D89*
%TO.C,L4*%
X44792400Y-96297800D03*
X44792400Y-90247800D03*
%TD*%
D10*
%TO.C,C93*%
X156311400Y-76762800D03*
X155351400Y-76762800D03*
%TD*%
%TO.C,C152*%
X110333400Y-128312800D03*
X109373400Y-128312800D03*
%TD*%
%TO.C,C97*%
X160474400Y-78407800D03*
X159514400Y-78407800D03*
%TD*%
D22*
%TO.C,C106*%
X152869400Y-65205800D03*
X152869400Y-64245800D03*
%TD*%
D26*
%TO.C,C123*%
X176382200Y-163371800D03*
X173432200Y-163371800D03*
%TD*%
D10*
%TO.C,C270*%
X83313400Y-146745300D03*
X82353400Y-146745300D03*
%TD*%
D17*
%TO.C,R34*%
X60034400Y-62665800D03*
X59014400Y-62665800D03*
%TD*%
D52*
%TO.C,D16*%
X120103400Y-103564800D03*
X120103400Y-100764800D03*
%TD*%
D13*
%TO.C,C260*%
X80233400Y-173683800D03*
X78683400Y-173683800D03*
%TD*%
%TO.C,C255*%
X85018400Y-178924800D03*
X83468400Y-178924800D03*
%TD*%
D12*
%TO.C,R129*%
X148869400Y-168662300D03*
X149889400Y-168662300D03*
%TD*%
%TO.C,R263*%
X86716400Y-173658800D03*
X87736400Y-173658800D03*
%TD*%
D60*
%TO.C,R115*%
X162588200Y-118361000D03*
X162588200Y-119381000D03*
%TD*%
D120*
%TO.C,Q2*%
X40601400Y-81070800D03*
X41101400Y-82360800D03*
X40101400Y-82360800D03*
%TD*%
D60*
%TO.C,R117*%
X162537400Y-134037800D03*
X162537400Y-135057800D03*
%TD*%
D29*
%TO.C,C282*%
X69498400Y-155315300D03*
X69498400Y-153415300D03*
%TD*%
D71*
%TO.C,FB17*%
X151524400Y-125467300D03*
X150554400Y-125467300D03*
%TD*%
D17*
%TO.C,R145*%
X117627950Y-131335650D03*
X116607950Y-131335650D03*
%TD*%
D12*
%TO.C,R205*%
X43790400Y-152805400D03*
X44810400Y-152805400D03*
%TD*%
D22*
%TO.C,C238*%
X43483400Y-188179800D03*
X43483400Y-187219800D03*
%TD*%
D11*
%TO.C,R65*%
X119341400Y-89591800D03*
X119341400Y-88571800D03*
%TD*%
D23*
%TO.C,C145*%
X119242400Y-131118800D03*
X120202400Y-131118800D03*
%TD*%
D28*
%TO.C,C275*%
X73943400Y-126933300D03*
X73943400Y-127893300D03*
%TD*%
D11*
%TO.C,R209*%
X92306400Y-178230800D03*
X92306400Y-177210800D03*
%TD*%
D13*
%TO.C,C23*%
X70459400Y-65687800D03*
X68909400Y-65687800D03*
%TD*%
D19*
%TO.C,R198*%
X39573900Y-151243300D03*
X41223900Y-151243300D03*
%TD*%
D17*
%TO.C,R252*%
X75925400Y-83234800D03*
X74905400Y-83234800D03*
%TD*%
D121*
%TO.C,Q1*%
X110590400Y-65159800D03*
X110590400Y-60729800D03*
D122*
X107720400Y-65217300D03*
X107720400Y-60672300D03*
D123*
X105005400Y-64849800D03*
X105005400Y-63579800D03*
X105005400Y-62309800D03*
X105005400Y-61039800D03*
D124*
X109772900Y-63909800D03*
X109772900Y-61979800D03*
X107827900Y-63909800D03*
X107827900Y-61979800D03*
%TD*%
D19*
%TO.C,R164*%
X112547400Y-158197800D03*
X114197400Y-158197800D03*
%TD*%
D12*
%TO.C,R37*%
X59014400Y-66729800D03*
X60034400Y-66729800D03*
%TD*%
D125*
%TO.C,C128*%
X149379400Y-166757300D03*
D126*
X149379400Y-165927300D03*
X149379400Y-167587300D03*
%TD*%
D16*
%TO.C,R51*%
X45261800Y-101530500D03*
X45261800Y-98605500D03*
%TD*%
D18*
%TO.C,C204*%
X140412400Y-83445300D03*
X140412400Y-80495300D03*
%TD*%
D25*
%TO.C,U26*%
X164066900Y-120075000D03*
X164066900Y-118175000D03*
X166341900Y-118175000D03*
X166341900Y-119125000D03*
X166341900Y-120075000D03*
%TD*%
D10*
%TO.C,C188*%
X115884400Y-147402800D03*
X114924400Y-147402800D03*
%TD*%
D17*
%TO.C,R87*%
X156341400Y-77778800D03*
X155321400Y-77778800D03*
%TD*%
D127*
%TO.C,U19*%
X120807300Y-85856701D03*
X120307301Y-85856701D03*
X119807300Y-85856701D03*
X119307300Y-85856701D03*
X118807299Y-85856701D03*
X118307300Y-85856701D03*
D128*
X117563400Y-85112801D03*
X117563400Y-84612802D03*
X117563400Y-84112801D03*
X117563400Y-83612801D03*
X117563400Y-83112800D03*
X117563400Y-82612801D03*
D127*
X118307300Y-81868901D03*
X118807299Y-81868901D03*
X119307300Y-81868901D03*
X119807300Y-81868901D03*
X120307301Y-81868901D03*
X120807300Y-81868901D03*
D128*
X121551200Y-82612801D03*
X121551200Y-83112800D03*
X121551200Y-83612801D03*
X121551200Y-84112801D03*
X121551200Y-84612802D03*
X121551200Y-85112801D03*
%TD*%
D11*
%TO.C,R58*%
X60648900Y-119563800D03*
X60648900Y-118543800D03*
%TD*%
D12*
%TO.C,R90*%
X154658400Y-70031800D03*
X155678400Y-70031800D03*
%TD*%
D17*
%TO.C,R14*%
X97134400Y-81583800D03*
X96114400Y-81583800D03*
%TD*%
D34*
%TO.C,D35*%
X117663400Y-164563800D03*
X115463400Y-164563800D03*
%TD*%
D23*
%TO.C,C143*%
X125338400Y-141278800D03*
X126298400Y-141278800D03*
%TD*%
D22*
%TO.C,C252*%
X49198400Y-188560800D03*
X49198400Y-187600800D03*
%TD*%
D116*
%TO.C,R78*%
X120992400Y-67447300D03*
X120992400Y-70372300D03*
%TD*%
D87*
%TO.C,C322*%
X100865400Y-88192800D03*
X95465400Y-88192800D03*
%TD*%
D92*
%TO.C,R171*%
X106363900Y-143973800D03*
X108188900Y-143973800D03*
%TD*%
D28*
%TO.C,C76*%
X115785400Y-82477800D03*
X115785400Y-83437800D03*
%TD*%
D17*
%TO.C,R132*%
X140679400Y-146358800D03*
X139659400Y-146358800D03*
%TD*%
D11*
%TO.C,R96*%
X147662400Y-67747800D03*
X147662400Y-66727800D03*
%TD*%
D58*
%TO.C,U49*%
X83306400Y-175097800D03*
X85206400Y-175097800D03*
X85206400Y-177417800D03*
X84256400Y-177417800D03*
X83306400Y-177417800D03*
%TD*%
D13*
%TO.C,C111*%
X177307800Y-98144600D03*
X175757800Y-98144600D03*
%TD*%
D28*
%TO.C,C268*%
X59719400Y-128457300D03*
X59719400Y-129417300D03*
%TD*%
D22*
%TO.C,C47*%
X49999400Y-89031000D03*
X49999400Y-88071000D03*
%TD*%
D129*
%TO.C,U2*%
X33799400Y-63177800D03*
X33799400Y-62527800D03*
X33799400Y-61877800D03*
X33799400Y-61227800D03*
X33799400Y-60577800D03*
X33799400Y-59927800D03*
X33799400Y-59277800D03*
X33799400Y-58627800D03*
X33799400Y-57977800D03*
X33799400Y-57327800D03*
X40799400Y-57327800D03*
X40799400Y-57977800D03*
X40799400Y-58627800D03*
X40799400Y-59277800D03*
X40799400Y-59927800D03*
X40799400Y-60577800D03*
X40799400Y-61227800D03*
X40799400Y-61877800D03*
X40799400Y-62527800D03*
X40799400Y-63177800D03*
%TD*%
D60*
%TO.C,R44*%
X52031400Y-88041000D03*
X52031400Y-89061000D03*
%TD*%
D10*
%TO.C,C245*%
X37576900Y-146163300D03*
X36616900Y-146163300D03*
%TD*%
D12*
%TO.C,R36*%
X59016400Y-64697800D03*
X60036400Y-64697800D03*
%TD*%
D45*
%TO.C,C79*%
X130702900Y-95485800D03*
X130702900Y-93935800D03*
%TD*%
D63*
%TO.C,D13*%
X54215900Y-55553800D03*
X52640900Y-55553800D03*
%TD*%
D48*
%TO.C,C191*%
X92175400Y-141911800D03*
X92175400Y-144861800D03*
%TD*%
D17*
%TO.C,R181*%
X73385400Y-190549800D03*
X72365400Y-190549800D03*
%TD*%
D18*
%TO.C,C314*%
X114785400Y-169721800D03*
X114785400Y-166771800D03*
%TD*%
D51*
%TO.C,C55*%
X54671200Y-95482600D03*
X57621200Y-95482600D03*
%TD*%
D107*
%TO.C,D10*%
X68668400Y-61239800D03*
X68668400Y-64039800D03*
%TD*%
D12*
%TO.C,R75*%
X124546400Y-86160800D03*
X125566400Y-86160800D03*
%TD*%
D23*
%TO.C,C49*%
X93461400Y-107877800D03*
X94421400Y-107877800D03*
%TD*%
D11*
%TO.C,R208*%
X93322400Y-178230800D03*
X93322400Y-177210800D03*
%TD*%
D73*
%TO.C,D2*%
X58482900Y-56823800D03*
X60057900Y-56823800D03*
%TD*%
D16*
%TO.C,R54*%
X69938400Y-109213300D03*
X69938400Y-106288300D03*
%TD*%
D19*
%TO.C,R147*%
X118897400Y-133658800D03*
X120547400Y-133658800D03*
%TD*%
D39*
%TO.C,C3*%
X49126400Y-51309200D03*
X49126400Y-52859200D03*
%TD*%
D23*
%TO.C,C174*%
X112892400Y-159594800D03*
X113852400Y-159594800D03*
%TD*%
D17*
%TO.C,R184*%
X74147400Y-184580800D03*
X73127400Y-184580800D03*
%TD*%
%TO.C,R214*%
X93197400Y-172767800D03*
X92177400Y-172767800D03*
%TD*%
D45*
%TO.C,C231*%
X51484400Y-189617800D03*
X51484400Y-188067800D03*
%TD*%
D47*
%TO.C,D32*%
X169252400Y-152249300D03*
X168302400Y-150374300D03*
X170202400Y-150374300D03*
%TD*%
D57*
%TO.C,FB2*%
X119168900Y-96996800D03*
X120138900Y-96996800D03*
%TD*%
D11*
%TO.C,R8*%
X96608400Y-63913800D03*
X96608400Y-62893800D03*
%TD*%
D22*
%TO.C,C181*%
X100418400Y-144552800D03*
X100418400Y-143592800D03*
%TD*%
D12*
%TO.C,R244*%
X36588900Y-143750300D03*
X37608900Y-143750300D03*
%TD*%
D17*
%TO.C,R270*%
X49075600Y-48528200D03*
X48055600Y-48528200D03*
%TD*%
D39*
%TO.C,C31*%
X52666400Y-60366800D03*
X52666400Y-61916800D03*
%TD*%
D60*
%TO.C,R1*%
X98894400Y-64921800D03*
X98894400Y-65941800D03*
%TD*%
D12*
%TO.C,R157*%
X109343400Y-127296800D03*
X110363400Y-127296800D03*
%TD*%
D101*
%TO.C,FB14*%
X137187400Y-163178300D03*
X137187400Y-162208300D03*
%TD*%
D12*
%TO.C,R175*%
X100555400Y-146688800D03*
X101575400Y-146688800D03*
%TD*%
D11*
%TO.C,R247*%
X126707400Y-99243800D03*
X126707400Y-98223800D03*
%TD*%
D39*
%TO.C,C161*%
X102995400Y-124489800D03*
X102995400Y-126039800D03*
%TD*%
D10*
%TO.C,C8*%
X34985400Y-64570800D03*
X34025400Y-64570800D03*
%TD*%
D130*
%TO.C,U8*%
X53027400Y-63497300D03*
X53527400Y-63497300D03*
X54027400Y-63497300D03*
X54527400Y-63497300D03*
X55027400Y-63497300D03*
X55527400Y-63497300D03*
D131*
X56239900Y-64209800D03*
X56239900Y-64709800D03*
X56239900Y-65209800D03*
X56239900Y-65709800D03*
X56239900Y-66209800D03*
X56239900Y-66709800D03*
D130*
X55527400Y-67422300D03*
X55027400Y-67422300D03*
X54527400Y-67422300D03*
X54027400Y-67422300D03*
X53527400Y-67422300D03*
X53027400Y-67422300D03*
D131*
X52314900Y-66709800D03*
X52314900Y-66209800D03*
X52314900Y-65709800D03*
X52314900Y-65209800D03*
X52314900Y-64709800D03*
X52314900Y-64209800D03*
D132*
X54952400Y-66134800D03*
X54952400Y-64784800D03*
X53602400Y-66134800D03*
X53602400Y-64784800D03*
%TD*%
D17*
%TO.C,R272*%
X47145200Y-49595000D03*
X46125200Y-49595000D03*
%TD*%
D133*
%TO.C,U34*%
X133369900Y-154109800D03*
X133369900Y-153459800D03*
X133369900Y-152809800D03*
X133369900Y-152159800D03*
X133369900Y-151509800D03*
X133369900Y-150859800D03*
X133369900Y-150209800D03*
X133369900Y-149559800D03*
X133369900Y-148909800D03*
X133369900Y-148259800D03*
X139094900Y-148259800D03*
X139094900Y-148909800D03*
X139094900Y-149559800D03*
X139094900Y-150209800D03*
X139094900Y-150859800D03*
X139094900Y-151509800D03*
X139094900Y-152159800D03*
X139094900Y-152809800D03*
X139094900Y-153459800D03*
X139094900Y-154109800D03*
%TD*%
D30*
%TO.C,Q21*%
X178468400Y-89186800D03*
D31*
X178525900Y-92056800D03*
D30*
X174038400Y-89186800D03*
D31*
X173980900Y-92056800D03*
D37*
X178158400Y-94771800D03*
X176888400Y-94771800D03*
X175618400Y-94771800D03*
X174348400Y-94771800D03*
D38*
X177421800Y-90004300D03*
X175085000Y-90004300D03*
X177421800Y-91949300D03*
X175085000Y-91949300D03*
%TD*%
D134*
%TO.C,U16*%
X110671400Y-106600800D03*
X110671400Y-105950800D03*
X110671400Y-105300800D03*
X110671400Y-104650800D03*
X110671400Y-104000800D03*
D135*
X111821400Y-102850800D03*
X112471400Y-102850800D03*
X113121400Y-102850800D03*
X113771400Y-102850800D03*
X114421400Y-102850800D03*
D134*
X115571400Y-104000800D03*
X115571400Y-104650800D03*
X115571400Y-105300800D03*
X115571400Y-105950800D03*
X115571400Y-106600800D03*
D135*
X114421400Y-107750800D03*
X113771400Y-107750800D03*
X113121400Y-107750800D03*
X112471400Y-107750800D03*
X111821400Y-107750800D03*
D136*
X113961400Y-104460800D03*
X112281400Y-104460800D03*
X113961400Y-106140800D03*
X112281400Y-106140800D03*
%TD*%
D17*
%TO.C,R94*%
X149442400Y-55934800D03*
X148422400Y-55934800D03*
%TD*%
D16*
%TO.C,R20*%
X91561400Y-87496300D03*
X91561400Y-84571300D03*
%TD*%
D45*
%TO.C,C80*%
X119272900Y-95739800D03*
X119272900Y-94189800D03*
%TD*%
D10*
%TO.C,C329*%
X49045600Y-49595000D03*
X48085600Y-49595000D03*
%TD*%
D22*
%TO.C,C327*%
X131787400Y-152553800D03*
X131787400Y-151593800D03*
%TD*%
D10*
%TO.C,C86*%
X165300400Y-82604800D03*
X164340400Y-82604800D03*
%TD*%
D14*
%TO.C,C313*%
X53776400Y-102698000D03*
X59176400Y-102698000D03*
%TD*%
D75*
%TO.C,J1*%
X138899400Y-61244300D03*
X136359400Y-61244300D03*
X133819400Y-61244300D03*
X131279400Y-61244300D03*
X128739400Y-61244300D03*
X128739400Y-64944300D03*
X131279400Y-64944300D03*
X133819400Y-64944300D03*
X136359400Y-64944300D03*
X138899400Y-64944300D03*
%TD*%
D12*
%TO.C,R173*%
X100555400Y-153800800D03*
X101575400Y-153800800D03*
%TD*%
D60*
%TO.C,R5*%
X36410400Y-53900800D03*
X36410400Y-54920800D03*
%TD*%
D30*
%TO.C,Q25*%
X160799400Y-123360800D03*
D31*
X160856900Y-126230800D03*
D30*
X156369400Y-123360800D03*
D31*
X156311900Y-126230800D03*
D37*
X160489400Y-128945800D03*
X159219400Y-128945800D03*
X157949400Y-128945800D03*
X156679400Y-128945800D03*
D38*
X159752800Y-124178300D03*
X157416000Y-124178300D03*
X159752800Y-126123300D03*
X157416000Y-126123300D03*
%TD*%
D10*
%TO.C,C226*%
X39319400Y-152780000D03*
X38359400Y-152780000D03*
%TD*%
%TO.C,C149*%
X110333400Y-133392800D03*
X109373400Y-133392800D03*
%TD*%
D46*
%TO.C,C242*%
X36117400Y-167445800D03*
X36117400Y-169345800D03*
%TD*%
D11*
%TO.C,R137*%
X81876400Y-152964800D03*
X81876400Y-151944800D03*
%TD*%
D116*
%TO.C,R60*%
X65112400Y-114924300D03*
X65112400Y-117849300D03*
%TD*%
D10*
%TO.C,C21*%
X34985400Y-65586800D03*
X34025400Y-65586800D03*
%TD*%
D45*
%TO.C,C134*%
X128993400Y-153102800D03*
X128993400Y-151552800D03*
%TD*%
D51*
%TO.C,C50*%
X37333400Y-97832800D03*
X40283400Y-97832800D03*
%TD*%
D92*
%TO.C,R249*%
X144021900Y-167646300D03*
X145846900Y-167646300D03*
%TD*%
D13*
%TO.C,C261*%
X85031400Y-173717800D03*
X83481400Y-173717800D03*
%TD*%
D137*
%TO.C,U53*%
X64708000Y-159339200D03*
X65508000Y-159339200D03*
X66308000Y-159339200D03*
X67108000Y-159339200D03*
X67908000Y-159339200D03*
X68708000Y-159339200D03*
X69508000Y-159339200D03*
X70308000Y-159339200D03*
X71108000Y-159339200D03*
X71908000Y-159339200D03*
X72708000Y-159339200D03*
X73508000Y-159339200D03*
X74308000Y-159339200D03*
X75108000Y-159339200D03*
X75908000Y-159339200D03*
X76708000Y-159339200D03*
X77508000Y-159339200D03*
X78308000Y-159339200D03*
X79108000Y-159339200D03*
X79908000Y-159339200D03*
X80708000Y-159339200D03*
X81508000Y-159339200D03*
X81508000Y-170514200D03*
X80708000Y-170514200D03*
X79908000Y-170514200D03*
X79108000Y-170514200D03*
X78308000Y-170514200D03*
X77508000Y-170514200D03*
X76708000Y-170514200D03*
X75908000Y-170514200D03*
X75108000Y-170514200D03*
X74308000Y-170514200D03*
X73508000Y-170514200D03*
X72708000Y-170514200D03*
X71908000Y-170514200D03*
X71108000Y-170514200D03*
X70308000Y-170514200D03*
X69508000Y-170514200D03*
X68708000Y-170514200D03*
X67908000Y-170514200D03*
X67108000Y-170514200D03*
X66308000Y-170514200D03*
X65508000Y-170514200D03*
X64708000Y-170514200D03*
%TD*%
D11*
%TO.C,R30*%
X49110400Y-62159800D03*
X49110400Y-61139800D03*
%TD*%
D119*
%TO.C,J14*%
X49476400Y-133531800D03*
X44426400Y-133531800D03*
X49476400Y-130991800D03*
X44426400Y-130991800D03*
%TD*%
D18*
%TO.C,C28*%
X57238400Y-61854800D03*
X57238400Y-58904800D03*
%TD*%
D23*
%TO.C,C319*%
X167134400Y-75619800D03*
X168094400Y-75619800D03*
%TD*%
D17*
%TO.C,R258*%
X104246400Y-109523800D03*
X103226400Y-109523800D03*
%TD*%
D60*
%TO.C,R116*%
X162537400Y-125904800D03*
X162537400Y-126924800D03*
%TD*%
D138*
%TO.C,D19*%
X156438400Y-73460800D03*
X156438400Y-71260800D03*
%TD*%
D18*
%TO.C,C139*%
X112372400Y-169721800D03*
X112372400Y-166771800D03*
%TD*%
D23*
%TO.C,C215*%
X133804400Y-187876202D03*
X134764400Y-187876202D03*
%TD*%
D60*
%TO.C,R269*%
X45113200Y-48577000D03*
X45113200Y-49597000D03*
%TD*%
D13*
%TO.C,C250*%
X49973400Y-190239800D03*
X48423400Y-190239800D03*
%TD*%
D23*
%TO.C,C2*%
X54472400Y-47933800D03*
X55432400Y-47933800D03*
%TD*%
D22*
%TO.C,C108*%
X146646400Y-65205800D03*
X146646400Y-64245800D03*
%TD*%
D48*
%TO.C,C310*%
X108706400Y-105894800D03*
X108706400Y-108844800D03*
%TD*%
D90*
%TO.C,D7*%
X36807400Y-73244800D03*
X36807400Y-75444800D03*
%TD*%
D11*
%TO.C,R16*%
X42952400Y-68255800D03*
X42952400Y-67235800D03*
%TD*%
%TO.C,R196*%
X33378400Y-141656800D03*
X33378400Y-140636800D03*
%TD*%
D44*
%TO.C,R203*%
X45134400Y-192144800D03*
X45134400Y-193794800D03*
%TD*%
D11*
%TO.C,R61*%
X117309400Y-89591800D03*
X117309400Y-88571800D03*
%TD*%
D17*
%TO.C,R191*%
X136250400Y-184199800D03*
X135230400Y-184199800D03*
%TD*%
D88*
%TO.C,U5*%
X77381400Y-79424300D03*
X76431400Y-79424300D03*
X75481400Y-79424300D03*
X75481400Y-77149300D03*
X76431400Y-77149300D03*
X77381400Y-77149300D03*
%TD*%
D15*
%TO.C,J23*%
X142638400Y-194862300D03*
X145178400Y-194862300D03*
X147718400Y-194862300D03*
X150258400Y-194862300D03*
X152798400Y-194862300D03*
X152798400Y-191162300D03*
X150258400Y-191162300D03*
X147718400Y-191162300D03*
X145178400Y-191162300D03*
X142638400Y-191162300D03*
%TD*%
D16*
%TO.C,R21*%
X89148400Y-87496300D03*
X89148400Y-84571300D03*
%TD*%
D10*
%TO.C,C41*%
X50959400Y-93603000D03*
X49999400Y-93603000D03*
%TD*%
D64*
%TO.C,Y1*%
X34082400Y-51300800D03*
X34082400Y-49900800D03*
X35182400Y-49900800D03*
X35182400Y-51300800D03*
%TD*%
D80*
%TO.C,U38*%
X116168900Y-152711300D03*
X115668900Y-152711300D03*
X115168900Y-152711300D03*
X114668900Y-152711300D03*
X114168900Y-152711300D03*
X113668900Y-152711300D03*
D81*
X112931400Y-151973800D03*
X112931400Y-151473800D03*
X112931400Y-150973800D03*
X112931400Y-150473800D03*
X112931400Y-149973800D03*
X112931400Y-149473800D03*
D80*
X113668900Y-148736300D03*
X114168900Y-148736300D03*
X114668900Y-148736300D03*
X115168900Y-148736300D03*
X115668900Y-148736300D03*
X116168900Y-148736300D03*
D81*
X116906400Y-149473800D03*
X116906400Y-149973800D03*
X116906400Y-150473800D03*
X116906400Y-150973800D03*
X116906400Y-151473800D03*
X116906400Y-151973800D03*
D82*
X114098900Y-149903800D03*
X114098900Y-150723800D03*
X114098900Y-151543800D03*
X114918900Y-149903800D03*
X114918900Y-150723800D03*
X114918900Y-151543800D03*
X115738900Y-149903800D03*
X115738900Y-150723800D03*
X115738900Y-151543800D03*
%TD*%
D22*
%TO.C,C240*%
X72292400Y-153829300D03*
X72292400Y-152869300D03*
%TD*%
D23*
%TO.C,C320*%
X167134400Y-74665800D03*
X168094400Y-74665800D03*
%TD*%
%TO.C,C146*%
X125314900Y-124133800D03*
X126274900Y-124133800D03*
%TD*%
D17*
%TO.C,R144*%
X117627950Y-132351650D03*
X116607950Y-132351650D03*
%TD*%
D76*
%TO.C,C273*%
X84858400Y-148263800D03*
X82958400Y-148263800D03*
%TD*%
D48*
%TO.C,C306*%
X108292400Y-82145800D03*
X108292400Y-85095800D03*
%TD*%
D130*
%TO.C,U7*%
X74460900Y-63451300D03*
X74960900Y-63451300D03*
X75460900Y-63451300D03*
X75960900Y-63451300D03*
X76460900Y-63451300D03*
X76960900Y-63451300D03*
D131*
X77673400Y-64163800D03*
X77673400Y-64663800D03*
X77673400Y-65163800D03*
X77673400Y-65663800D03*
X77673400Y-66163800D03*
X77673400Y-66663800D03*
D130*
X76960900Y-67376300D03*
X76460900Y-67376300D03*
X75960900Y-67376300D03*
X75460900Y-67376300D03*
X74960900Y-67376300D03*
X74460900Y-67376300D03*
D131*
X73748400Y-66663800D03*
X73748400Y-66163800D03*
X73748400Y-65663800D03*
X73748400Y-65163800D03*
X73748400Y-64663800D03*
X73748400Y-64163800D03*
D132*
X76385900Y-66088800D03*
X76385900Y-64738800D03*
X75035900Y-66088800D03*
X75035900Y-64738800D03*
%TD*%
D139*
%TO.C,Q22*%
X136366400Y-101600800D03*
X135866400Y-100310800D03*
X136866400Y-100310800D03*
%TD*%
D46*
%TO.C,C263*%
X86194400Y-134994800D03*
X86194400Y-136894800D03*
%TD*%
D12*
%TO.C,R47*%
X93431400Y-108893800D03*
X94451400Y-108893800D03*
%TD*%
%TO.C,R88*%
X167104400Y-76570800D03*
X168124400Y-76570800D03*
%TD*%
D92*
%TO.C,R153*%
X118809900Y-125657800D03*
X120634900Y-125657800D03*
%TD*%
D23*
%TO.C,C232*%
X38359400Y-156770800D03*
X39319400Y-156770800D03*
%TD*%
D10*
%TO.C,C223*%
X54377400Y-170300800D03*
X53417400Y-170300800D03*
%TD*%
D11*
%TO.C,R25*%
X79082400Y-67975800D03*
X79082400Y-66955800D03*
%TD*%
D10*
%TO.C,C157*%
X128330400Y-129086800D03*
X127370400Y-129086800D03*
%TD*%
D23*
%TO.C,C121*%
X146323400Y-148812800D03*
X147283400Y-148812800D03*
%TD*%
D28*
%TO.C,C198*%
X111213400Y-149716800D03*
X111213400Y-150676800D03*
%TD*%
D24*
%TO.C,R122*%
X165465900Y-139754800D03*
X163640900Y-139754800D03*
%TD*%
D60*
%TO.C,R241*%
X166172900Y-164567800D03*
X166172900Y-165587800D03*
%TD*%
D48*
%TO.C,C4*%
X43384000Y-49898000D03*
X43384000Y-52848000D03*
%TD*%
D13*
%TO.C,C262*%
X90795400Y-173783800D03*
X89245400Y-173783800D03*
%TD*%
D17*
%TO.C,R185*%
X74147400Y-181405800D03*
X73127400Y-181405800D03*
%TD*%
D43*
%TO.C,U23*%
X165269900Y-66516800D03*
X165269900Y-67166800D03*
X165269900Y-67816800D03*
X165269900Y-68466800D03*
X159544900Y-68466800D03*
X159544900Y-67816800D03*
X159544900Y-67166800D03*
X159544900Y-66516800D03*
%TD*%
D100*
%TO.C,U43*%
X134415900Y-189212202D03*
X134415900Y-190162202D03*
X134415900Y-191112202D03*
X132140900Y-191112202D03*
X132140900Y-190162202D03*
X132140900Y-189212202D03*
%TD*%
D13*
%TO.C,C77*%
X125196400Y-84636800D03*
X123646400Y-84636800D03*
%TD*%
D44*
%TO.C,R6*%
X35140400Y-53268800D03*
X35140400Y-54918800D03*
%TD*%
D12*
%TO.C,R225*%
X67650400Y-173028800D03*
X68670400Y-173028800D03*
%TD*%
D17*
%TO.C,R110*%
X172953400Y-101776800D03*
X171933400Y-101776800D03*
%TD*%
D22*
%TO.C,C13*%
X77812400Y-71141800D03*
X77812400Y-70181800D03*
%TD*%
D118*
%TO.C,C309*%
X113626400Y-75144800D03*
X113626400Y-69744800D03*
%TD*%
D12*
%TO.C,R206*%
X43790400Y-154024600D03*
X44810400Y-154024600D03*
%TD*%
D83*
%TO.C,C65*%
X71067400Y-117021800D03*
X72967400Y-117021800D03*
%TD*%
D39*
%TO.C,C32*%
X55206400Y-60366800D03*
X55206400Y-61916800D03*
%TD*%
D42*
%TO.C,L8*%
X58127400Y-114562300D03*
X58127400Y-116687300D03*
%TD*%
D25*
%TO.C,U15*%
X72911900Y-115177800D03*
X72911900Y-114227800D03*
X72911900Y-113277800D03*
X75186900Y-113277800D03*
X75186900Y-114227800D03*
X75186900Y-115177800D03*
%TD*%
D11*
%TO.C,R261*%
X149456400Y-71552800D03*
X149456400Y-70532800D03*
%TD*%
D60*
%TO.C,R70*%
X128739400Y-98223800D03*
X128739400Y-99243800D03*
%TD*%
D140*
%TO.C,U55*%
X147950400Y-124863800D03*
X147300400Y-124863800D03*
X146650400Y-124863800D03*
X146000400Y-124863800D03*
X146000400Y-120638800D03*
X146650400Y-120638800D03*
X147300400Y-120638800D03*
X147950400Y-120638800D03*
%TD*%
D23*
%TO.C,C289*%
X146524400Y-115258300D03*
X147484400Y-115258300D03*
%TD*%
D60*
%TO.C,R57*%
X60650900Y-116384800D03*
X60650900Y-117404800D03*
%TD*%
D22*
%TO.C,C150*%
X109181400Y-125121800D03*
X109181400Y-124161800D03*
%TD*%
D63*
%TO.C,D61*%
X103253900Y-112063800D03*
X101678900Y-112063800D03*
%TD*%
D71*
%TO.C,FB6*%
X160479400Y-70793800D03*
X159509400Y-70793800D03*
%TD*%
D18*
%TO.C,C61*%
X108706400Y-104145800D03*
X108706400Y-101195800D03*
%TD*%
D92*
%TO.C,R168*%
X106363900Y-156165800D03*
X108188900Y-156165800D03*
%TD*%
D11*
%TO.C,R95*%
X151726400Y-71555800D03*
X151726400Y-70535800D03*
%TD*%
D12*
%TO.C,R154*%
X109343400Y-135424800D03*
X110363400Y-135424800D03*
%TD*%
D11*
%TO.C,R218*%
X52793400Y-124770800D03*
X52793400Y-123750800D03*
%TD*%
D19*
%TO.C,R160*%
X121818400Y-147656800D03*
X123468400Y-147656800D03*
%TD*%
D30*
%TO.C,Q8*%
X61627400Y-68583800D03*
X66057400Y-68583800D03*
D31*
X61569900Y-65713800D03*
X66114900Y-65713800D03*
D32*
X61937400Y-62998800D03*
X63207400Y-62998800D03*
X64477400Y-62998800D03*
X65747400Y-62998800D03*
D33*
X62877400Y-67766300D03*
X64807400Y-67766300D03*
X62877400Y-65821300D03*
X64807400Y-65821300D03*
%TD*%
D89*
%TO.C,L12*%
X122501400Y-185867202D03*
X122501400Y-191917202D03*
%TD*%
D22*
%TO.C,C168*%
X102741400Y-135650800D03*
X102741400Y-134690800D03*
%TD*%
%TO.C,C277*%
X81944400Y-132747300D03*
X81944400Y-131787300D03*
%TD*%
D12*
%TO.C,R256*%
X67666400Y-97204800D03*
X68686400Y-97204800D03*
%TD*%
D11*
%TO.C,R216*%
X43649400Y-123754800D03*
X43649400Y-122734800D03*
%TD*%
D51*
%TO.C,C78*%
X118247400Y-78540800D03*
X121197400Y-78540800D03*
%TD*%
D23*
%TO.C,C175*%
X106796400Y-150704800D03*
X107756400Y-150704800D03*
%TD*%
D11*
%TO.C,R217*%
X53936400Y-124770800D03*
X53936400Y-123750800D03*
%TD*%
D19*
%TO.C,R161*%
X121818400Y-145751800D03*
X123468400Y-145751800D03*
%TD*%
D39*
%TO.C,C30*%
X51142400Y-60366800D03*
X51142400Y-61916800D03*
%TD*%
D63*
%TO.C,D56*%
X69065400Y-95680800D03*
X67490400Y-95680800D03*
%TD*%
D13*
%TO.C,C59*%
X78507400Y-113211800D03*
X76957400Y-113211800D03*
%TD*%
D25*
%TO.C,U11*%
X50004900Y-92317800D03*
X50004900Y-91367800D03*
X50004900Y-90417800D03*
X52279900Y-90417800D03*
X52279900Y-91367800D03*
X52279900Y-92317800D03*
%TD*%
D12*
%TO.C,R39*%
X87097400Y-96315800D03*
X88117400Y-96315800D03*
%TD*%
D28*
%TO.C,C11*%
X95592400Y-62921800D03*
X95592400Y-63881800D03*
%TD*%
D83*
%TO.C,C283*%
X54959400Y-138236300D03*
X56859400Y-138236300D03*
%TD*%
D22*
%TO.C,C83*%
X120542900Y-95825800D03*
X120542900Y-94865800D03*
%TD*%
D48*
%TO.C,C297*%
X150407400Y-140313800D03*
X150407400Y-143263800D03*
%TD*%
D11*
%TO.C,R99*%
X146519400Y-67747800D03*
X146519400Y-66727800D03*
%TD*%
D52*
%TO.C,D6*%
X40601400Y-79181800D03*
X40601400Y-76381800D03*
%TD*%
D45*
%TO.C,C120*%
X144136400Y-150730800D03*
X144136400Y-149180800D03*
%TD*%
D73*
%TO.C,D40*%
X106885900Y-68756800D03*
X108460900Y-68756800D03*
%TD*%
D39*
%TO.C,C44*%
X89851900Y-96180800D03*
X89851900Y-97730800D03*
%TD*%
D57*
%TO.C,FB7*%
X164335400Y-72819800D03*
X165305400Y-72819800D03*
%TD*%
D140*
%TO.C,U45*%
X138239400Y-182248300D03*
X137589400Y-182248300D03*
X136939400Y-182248300D03*
X136289400Y-182248300D03*
X136289400Y-178023300D03*
X136939400Y-178023300D03*
X137589400Y-178023300D03*
X138239400Y-178023300D03*
%TD*%
D63*
%TO.C,D8*%
X74789900Y-57305800D03*
X73214900Y-57305800D03*
%TD*%
D11*
%TO.C,R229*%
X97718400Y-179919800D03*
X97718400Y-178899800D03*
%TD*%
D12*
%TO.C,R156*%
X109343400Y-126153800D03*
X110363400Y-126153800D03*
%TD*%
D13*
%TO.C,C158*%
X109244400Y-130217800D03*
X107694400Y-130217800D03*
%TD*%
D11*
%TO.C,R187*%
X75796400Y-183566800D03*
X75796400Y-182546800D03*
%TD*%
D10*
%TO.C,C279*%
X73740400Y-172343500D03*
X72780400Y-172343500D03*
%TD*%
D91*
%TO.C,L7*%
X108278900Y-99241800D03*
X110403900Y-99241800D03*
%TD*%
D71*
%TO.C,FB10*%
X160466400Y-61903800D03*
X159496400Y-61903800D03*
%TD*%
D26*
%TO.C,C137*%
X106735400Y-169516800D03*
X103785400Y-169516800D03*
%TD*%
D28*
%TO.C,C167*%
X123659400Y-131400800D03*
X123659400Y-132360800D03*
%TD*%
D100*
%TO.C,U12*%
X95078900Y-103371800D03*
X95078900Y-105271800D03*
X92803900Y-105271800D03*
X92803900Y-104321800D03*
X92803900Y-103371800D03*
%TD*%
D28*
%TO.C,C285*%
X104625400Y-173308400D03*
X104625400Y-174268400D03*
%TD*%
D45*
%TO.C,C62*%
X58127400Y-119828800D03*
X58127400Y-118278800D03*
%TD*%
D83*
%TO.C,C228*%
X35040400Y-185032800D03*
X36940400Y-185032800D03*
%TD*%
D77*
%TO.C,U9*%
X45265600Y-52866600D03*
X45265600Y-50966600D03*
X47585600Y-50966600D03*
X47585600Y-51916600D03*
X47585600Y-52866600D03*
%TD*%
D22*
%TO.C,C7*%
X98894400Y-63879800D03*
X98894400Y-62919800D03*
%TD*%
D46*
%TO.C,C57*%
X43395400Y-108832800D03*
X43395400Y-110732800D03*
%TD*%
D12*
%TO.C,R155*%
X109343400Y-134408800D03*
X110363400Y-134408800D03*
%TD*%
D11*
%TO.C,R81*%
X156311400Y-86924800D03*
X156311400Y-85904800D03*
%TD*%
D12*
%TO.C,R266*%
X176759400Y-189533800D03*
X177779400Y-189533800D03*
%TD*%
D34*
%TO.C,D43*%
X74737400Y-183056800D03*
X72537400Y-183056800D03*
%TD*%
D141*
%TO.C,R135*%
X113245400Y-131562800D03*
X113245400Y-129912800D03*
%TD*%
D10*
%TO.C,C96*%
X165300400Y-73835800D03*
X164340400Y-73835800D03*
%TD*%
D22*
%TO.C,C284*%
X67974400Y-154083300D03*
X67974400Y-153123300D03*
%TD*%
D23*
%TO.C,C210*%
X93420400Y-119450800D03*
X94380400Y-119450800D03*
%TD*%
D50*
%TO.C,R178*%
X94334600Y-123625800D03*
X92684600Y-123625800D03*
%TD*%
D17*
%TO.C,R264*%
X87736400Y-174674800D03*
X86716400Y-174674800D03*
%TD*%
D11*
%TO.C,R246*%
X144311400Y-143314800D03*
X144311400Y-142294800D03*
%TD*%
D83*
%TO.C,C276*%
X57372400Y-152206300D03*
X59272400Y-152206300D03*
%TD*%
D23*
%TO.C,C302*%
X54472400Y-48949800D03*
X55432400Y-48949800D03*
%TD*%
D142*
%TO.C,U44*%
X124056400Y-172261800D03*
X124056400Y-172761800D03*
X124056400Y-173261800D03*
X122556400Y-173261800D03*
X122556400Y-172761800D03*
X122556400Y-172261800D03*
%TD*%
D19*
%TO.C,R158*%
X121818400Y-155403800D03*
X123468400Y-155403800D03*
%TD*%
D143*
%TO.C,D21*%
X142752400Y-70920800D03*
X144952400Y-70920800D03*
%TD*%
D28*
%TO.C,C71*%
X114388400Y-83140800D03*
X114388400Y-84100800D03*
%TD*%
D17*
%TO.C,R251*%
X55224400Y-189787800D03*
X54204400Y-189787800D03*
%TD*%
D12*
%TO.C,R101*%
X140040400Y-72952800D03*
X141060400Y-72952800D03*
%TD*%
D45*
%TO.C,C135*%
X130517400Y-153102800D03*
X130517400Y-151552800D03*
%TD*%
D12*
%TO.C,R29*%
X81112400Y-66703800D03*
X82132400Y-66703800D03*
%TD*%
D47*
%TO.C,D34*%
X146585400Y-163757800D03*
X145635400Y-161882800D03*
X147535400Y-161882800D03*
%TD*%
D12*
%TO.C,R255*%
X47727400Y-98728800D03*
X48747400Y-98728800D03*
%TD*%
D18*
%TO.C,C68*%
X62555900Y-119639800D03*
X62555900Y-116689800D03*
%TD*%
D22*
%TO.C,C38*%
X38061400Y-91212800D03*
X38061400Y-90252800D03*
%TD*%
D73*
%TO.C,D52*%
X176481900Y-109015800D03*
X178056900Y-109015800D03*
%TD*%
D39*
%TO.C,C253*%
X40054400Y-165207800D03*
X40054400Y-166757800D03*
%TD*%
D144*
%TO.C,C288*%
X147004400Y-113480300D03*
D145*
X146174400Y-113480300D03*
X147834400Y-113480300D03*
%TD*%
D79*
%TO.C,U51*%
X50569400Y-123625800D03*
X50569400Y-124895800D03*
X50569400Y-126165800D03*
X50569400Y-127435800D03*
X45619400Y-127435800D03*
X45619400Y-126165800D03*
X45619400Y-124895800D03*
X45619400Y-123625800D03*
%TD*%
D43*
%TO.C,U18*%
X127850400Y-93862800D03*
X127850400Y-94512800D03*
X127850400Y-95162800D03*
X127850400Y-95812800D03*
X122125400Y-95812800D03*
X122125400Y-95162800D03*
X122125400Y-94512800D03*
X122125400Y-93862800D03*
%TD*%
D10*
%TO.C,C130*%
X139191400Y-169043300D03*
X138231400Y-169043300D03*
%TD*%
D60*
%TO.C,R243*%
X163124900Y-164565800D03*
X163124900Y-165585800D03*
%TD*%
D12*
%TO.C,R28*%
X81112400Y-64671800D03*
X82132400Y-64671800D03*
%TD*%
D146*
%TO.C,U52*%
X78434400Y-151179300D03*
X77934400Y-151179300D03*
X77434400Y-151179300D03*
X76934400Y-151179300D03*
X76434400Y-151179300D03*
X75934400Y-151179300D03*
X75434400Y-151179300D03*
X74934400Y-151179300D03*
X74434400Y-151179300D03*
X73934400Y-151179300D03*
X73434400Y-151179300D03*
X72934400Y-151179300D03*
X72434400Y-151179300D03*
X71934400Y-151179300D03*
X71434400Y-151179300D03*
X70934400Y-151179300D03*
X70434400Y-151179300D03*
X69934400Y-151179300D03*
X69434400Y-151179300D03*
X68934400Y-151179300D03*
X68434400Y-151179300D03*
X67934400Y-151179300D03*
X67434400Y-151179300D03*
X66934400Y-151179300D03*
X66434400Y-151179300D03*
X65934400Y-151179300D03*
X65434400Y-151179300D03*
X64934400Y-151179300D03*
X64434400Y-151179300D03*
X63934400Y-151179300D03*
X63434400Y-151179300D03*
X62934400Y-151179300D03*
X62434400Y-151179300D03*
X61934400Y-151179300D03*
X61434400Y-151179300D03*
X60934400Y-151179300D03*
D147*
X59021900Y-149266800D03*
X59021900Y-148766800D03*
X59021900Y-148266800D03*
X59021900Y-147766800D03*
X59021900Y-147266800D03*
X59021900Y-146766800D03*
X59021900Y-146266800D03*
X59021900Y-145766800D03*
X59021900Y-145266800D03*
X59021900Y-144766800D03*
X59021900Y-144266800D03*
X59021900Y-143766800D03*
X59021900Y-143266800D03*
X59021900Y-142766800D03*
X59021900Y-142266800D03*
X59021900Y-141766800D03*
X59021900Y-141266800D03*
X59021900Y-140766800D03*
X59021900Y-140266800D03*
X59021900Y-139766800D03*
X59021900Y-139266800D03*
X59021900Y-138766800D03*
X59021900Y-138266800D03*
X59021900Y-137766800D03*
X59021900Y-137266800D03*
X59021900Y-136766800D03*
X59021900Y-136266800D03*
X59021900Y-135766800D03*
X59021900Y-135266800D03*
X59021900Y-134766800D03*
X59021900Y-134266800D03*
X59021900Y-133766800D03*
X59021900Y-133266800D03*
X59021900Y-132766800D03*
X59021900Y-132266800D03*
X59021900Y-131766800D03*
D146*
X60934400Y-129854300D03*
X61434400Y-129854300D03*
X61934400Y-129854300D03*
X62434400Y-129854300D03*
X62934400Y-129854300D03*
X63434400Y-129854300D03*
X63934400Y-129854300D03*
X64434400Y-129854300D03*
X64934400Y-129854300D03*
X65434400Y-129854300D03*
X65934400Y-129854300D03*
X66434400Y-129854300D03*
X66934400Y-129854300D03*
X67434400Y-129854300D03*
X67934400Y-129854300D03*
X68434400Y-129854300D03*
X68934400Y-129854300D03*
X69434400Y-129854300D03*
X69934400Y-129854300D03*
X70434400Y-129854300D03*
X70934400Y-129854300D03*
X71434400Y-129854300D03*
X71934400Y-129854300D03*
X72434400Y-129854300D03*
X72934400Y-129854300D03*
X73434400Y-129854300D03*
X73934400Y-129854300D03*
X74434400Y-129854300D03*
X74934400Y-129854300D03*
X75434400Y-129854300D03*
X75934400Y-129854300D03*
X76434400Y-129854300D03*
X76934400Y-129854300D03*
X77434400Y-129854300D03*
X77934400Y-129854300D03*
X78434400Y-129854300D03*
D147*
X80346900Y-131766800D03*
X80346900Y-132266800D03*
X80346900Y-132766800D03*
X80346900Y-133266800D03*
X80346900Y-133766800D03*
X80346900Y-134266800D03*
X80346900Y-134766800D03*
X80346900Y-135266800D03*
X80346900Y-135766800D03*
X80346900Y-136266800D03*
X80346900Y-136766800D03*
X80346900Y-137266800D03*
X80346900Y-137766800D03*
X80346900Y-138266800D03*
X80346900Y-138766800D03*
X80346900Y-139266800D03*
X80346900Y-139766800D03*
X80346900Y-140266800D03*
X80346900Y-140766800D03*
X80346900Y-141266800D03*
X80346900Y-141766800D03*
X80346900Y-142266800D03*
X80346900Y-142766800D03*
X80346900Y-143266800D03*
X80346900Y-143766800D03*
X80346900Y-144266800D03*
X80346900Y-144766800D03*
X80346900Y-145266800D03*
X80346900Y-145766800D03*
X80346900Y-146266800D03*
X80346900Y-146766800D03*
X80346900Y-147266800D03*
X80346900Y-147766800D03*
X80346900Y-148266800D03*
X80346900Y-148766800D03*
X80346900Y-149266800D03*
%TD*%
D92*
%TO.C,R170*%
X106363900Y-146259800D03*
X108188900Y-146259800D03*
%TD*%
D11*
%TO.C,R262*%
X152758400Y-71552800D03*
X152758400Y-70532800D03*
%TD*%
D10*
%TO.C,C180*%
X101545400Y-152784800D03*
X100585400Y-152784800D03*
%TD*%
%TO.C,C127*%
X159032900Y-164567800D03*
X158072900Y-164567800D03*
%TD*%
D12*
%TO.C,R27*%
X81112400Y-63655800D03*
X82132400Y-63655800D03*
%TD*%
D30*
%TO.C,Q26*%
X160799400Y-131488800D03*
D31*
X160856900Y-134358800D03*
D30*
X156369400Y-131488800D03*
D31*
X156311900Y-134358800D03*
D37*
X160489400Y-137073800D03*
X159219400Y-137073800D03*
X157949400Y-137073800D03*
X156679400Y-137073800D03*
D38*
X159752800Y-132306300D03*
X157416000Y-132306300D03*
X159752800Y-134251300D03*
X157416000Y-134251300D03*
%TD*%
D12*
%TO.C,R35*%
X59014400Y-63681800D03*
X60034400Y-63681800D03*
%TD*%
D94*
%TO.C,L13*%
X173332400Y-183004600D03*
X173332400Y-173304600D03*
%TD*%
D60*
%TO.C,R114*%
X162588200Y-108815800D03*
X162588200Y-109835800D03*
%TD*%
D20*
%TO.C,D50*%
X149876900Y-116274300D03*
X151751900Y-115324300D03*
X151751900Y-117224300D03*
%TD*%
D70*
%TO.C,L16*%
X147297400Y-81503300D03*
X147297400Y-79378300D03*
%TD*%
D60*
%TO.C,R82*%
X167995400Y-83999800D03*
X167995400Y-85019800D03*
%TD*%
D22*
%TO.C,C185*%
X118325400Y-151692800D03*
X118325400Y-150732800D03*
%TD*%
D27*
%TO.C,C85*%
X161632400Y-87430800D03*
X163182400Y-87430800D03*
%TD*%
D60*
%TO.C,R207*%
X77172400Y-175967800D03*
X77172400Y-176987800D03*
%TD*%
D44*
%TO.C,R7*%
X33616400Y-53268800D03*
X33616400Y-54918800D03*
%TD*%
D12*
%TO.C,R98*%
X149708400Y-61898800D03*
X150728400Y-61898800D03*
%TD*%
D114*
%TO.C,D24*%
X144789900Y-58342800D03*
X142914900Y-59292800D03*
X142914900Y-57392800D03*
%TD*%
D13*
%TO.C,C112*%
X165420600Y-112013000D03*
X163870600Y-112013000D03*
%TD*%
D10*
%TO.C,C235*%
X83313400Y-134807300D03*
X82353400Y-134807300D03*
%TD*%
D51*
%TO.C,C308*%
X118247400Y-73714800D03*
X121197400Y-73714800D03*
%TD*%
D90*
%TO.C,D20*%
X147027400Y-68931800D03*
X147027400Y-71131800D03*
%TD*%
D10*
%TO.C,C221*%
X121361400Y-173277800D03*
X120401400Y-173277800D03*
%TD*%
D60*
%TO.C,R119*%
X162537400Y-150166800D03*
X162537400Y-151186800D03*
%TD*%
D69*
%TO.C,F3*%
X85537900Y-57559800D03*
X81262900Y-57559800D03*
%TD*%
D60*
%TO.C,R215*%
X92433400Y-174797800D03*
X92433400Y-175817800D03*
%TD*%
D11*
%TO.C,R41*%
X33679400Y-88972800D03*
X33679400Y-87952800D03*
%TD*%
D19*
%TO.C,R167*%
X112523900Y-143846800D03*
X114173900Y-143846800D03*
%TD*%
D18*
%TO.C,C115*%
X139153400Y-109530800D03*
X139153400Y-106580800D03*
%TD*%
D22*
%TO.C,C46*%
X32663400Y-88942800D03*
X32663400Y-87982800D03*
%TD*%
D50*
%TO.C,R126*%
X160266900Y-158090800D03*
X158616900Y-158090800D03*
%TD*%
D63*
%TO.C,D59*%
X59819900Y-109015800D03*
X58244900Y-109015800D03*
%TD*%
D30*
%TO.C,Q3*%
X104935400Y-75924800D03*
X100505400Y-75924800D03*
D31*
X104992900Y-78794800D03*
X100447900Y-78794800D03*
D37*
X104625400Y-81509800D03*
X103355400Y-81509800D03*
X102085400Y-81509800D03*
X100815400Y-81509800D03*
D38*
X103685400Y-76742300D03*
X101755400Y-76742300D03*
X103685400Y-78687300D03*
X101755400Y-78687300D03*
%TD*%
D58*
%TO.C,U17*%
X62616900Y-115133800D03*
X60716900Y-115133800D03*
X60716900Y-112813800D03*
X61666900Y-112813800D03*
X62616900Y-112813800D03*
%TD*%
D11*
%TO.C,R18*%
X33886400Y-74854800D03*
X33886400Y-73834800D03*
%TD*%
D17*
%TO.C,R204*%
X34015400Y-181405800D03*
X32995400Y-181405800D03*
%TD*%
D60*
%TO.C,R55*%
X60683400Y-110283800D03*
X60683400Y-111303800D03*
%TD*%
D11*
%TO.C,R227*%
X106468400Y-179919800D03*
X106468400Y-178899800D03*
%TD*%
D10*
%TO.C,C233*%
X37576900Y-145147300D03*
X36616900Y-145147300D03*
%TD*%
D148*
%TO.C,D48*%
X164340800Y-185444300D03*
X164340800Y-187019300D03*
%TD*%
D27*
%TO.C,C95*%
X161632400Y-78661800D03*
X163182400Y-78661800D03*
%TD*%
D19*
%TO.C,R125*%
X161664900Y-157328800D03*
X163314900Y-157328800D03*
%TD*%
D23*
%TO.C,C147*%
X109373400Y-136440800D03*
X110333400Y-136440800D03*
%TD*%
D17*
%TO.C,R3*%
X41111400Y-83620800D03*
X40091400Y-83620800D03*
%TD*%
D11*
%TO.C,R231*%
X102218400Y-179909800D03*
X102218400Y-178889800D03*
%TD*%
D18*
%TO.C,C36*%
X57111400Y-92792000D03*
X57111400Y-89842000D03*
%TD*%
D88*
%TO.C,U41*%
X151229400Y-86338300D03*
X150279400Y-86338300D03*
X149329400Y-86338300D03*
X149329400Y-84063300D03*
X150279400Y-84063300D03*
X151229400Y-84063300D03*
%TD*%
D39*
%TO.C,C25*%
X74256400Y-60340800D03*
X74256400Y-61890800D03*
%TD*%
D53*
%TO.C,J7*%
X84572400Y-53521800D03*
X83772400Y-53521800D03*
D54*
X82622400Y-53521800D03*
X81622400Y-53521800D03*
X81122400Y-53521800D03*
X80122400Y-53521800D03*
D53*
X78972400Y-53521800D03*
X78172400Y-53521800D03*
X78172400Y-53521800D03*
X78972400Y-53521800D03*
D54*
X79622400Y-53521800D03*
X80622400Y-53521800D03*
X82122400Y-53521800D03*
X83122400Y-53521800D03*
D53*
X83772400Y-53521800D03*
X84572400Y-53521800D03*
D55*
X85692400Y-52946800D03*
D56*
X85692400Y-48766800D03*
D55*
X77052400Y-52946800D03*
D56*
X77052400Y-48766800D03*
%TD*%
D92*
%TO.C,R169*%
X106363900Y-153879800D03*
X108188900Y-153879800D03*
%TD*%
M02*
